{
  "observable_name": "deltaCKM", 
  "measurement_name": "deltaCKM", 
  "arxiv": "", 
  "CDS": ["http://cds.cern.ch/record/2729066",""], 
  "reportnumber": "", 
  "DOI": ["10.1093/ptep/ptaa104","10.1103/PhysRevC.102.045501"], 
  "date": ["2020/08/14","2020/10/03"], 
  "experiment": "",  
  "description": "Violation of unitarity in the first-row of the CKM matrix: deltaCKM = Vud^2+Vus^2-1. Vus=0.2245(8) is taken from the 2020 PDG & Vud=0.97373(31) from a more recent analysis by Hardy & Towner (https://doi.org/10.1103/PhysRevC.102.045501).", 
  "value": -0.0015, 
  "uncertainty": {
    "tot": 0.0007
  }, 
  "uncertainty_sigma": 1, 
  "th_flat": true
}