{
  "observable_name": "mu_tchannel_t_8TeV", 
  "measurement_name": "mu_tchannel_t_8TeV_CMS", 
  "arxiv": "1403.7366", 
  "CDS": "http://cds.cern.ch/record/1690567", 
  "reportnumber": "CMS-TOP-12-038", 
  "DOI": "10.1007/JHEP06(2014)090", 
  "date": "2014/03/28", 
  "experiment": "CERN LHC Run 2, CMS", 
  "description": "Measurement of the t-channel single-top-quark production cross section and of the |$V_{tb}$| CKM matrix element in pp collisions at $\\sqrt{s}$ = 8 TeV. Measured single top cross section normalised to theoretical prediction of 56.4 pb quoted in paper.", 
  "value": 0.954, 
  "uncertainty": {
    "stat": 0.027,
    "syst": 0.078
  }, 
  "uncertainty_sigma": 1, 
  "th_flat": true
}