{
  "observable_name": "R_dptt_tbar_tchannel_13TeV_CMS", 
  "measurement_name": "R_dptt_tbar_tchannel_13TeV_CMS", 
  "arxiv": "1907.08330", 
  "CDS": "http://cds.cern.ch/record/2683317", 
  "reportnumber": "CMS-TOP-17-023", 
  "DOI": "10.1140/epjc/s10052-020-7858-1", 
  "date": "2019/07/19", 
  "experiment": "CERN LHC experiment. CMS collaboration.", 
  "description": "Measurement of differential cross sections and charge ratios for $t$-channel single top quark production in proton-proton collisions at $\\sqrt{s}=$ 13 TeV. Parton level, unfolded differential cross section ratio of top to top+antitop in top+antitop pT, Figure 11 a). Signal strengths obtained by normalising to NNPDF 3.0 NLO prediction in figure. Bin edges [0.,50.,80.,120.,180., 300.]. Covariance matrix obtained from HepData record (https://www.hepdata.net/record/ins1744604).", 
  "value": [0.938, 1.046, 1.015, 0.952, 0.981], 
  "uncertainty": {
    "tot": [0.064, 0.034, 0.036, 0.078, 0.136]
  }, 
  "uncertainty_sigma": 1, 
  "th_flat": true,
  "correlation_matrix":[
    [ 1.0  , -0.076,  0.051,  0.064, -0.089],
    [-0.076,  1.0  ,  0.135, -0.461,  0.107],
    [ 0.051,  0.135,  1.0  , -0.1  ,  0.356],
    [ 0.064, -0.461, -0.1  ,  1.0  , -0.079],
    [-0.089,  0.107,  0.356, -0.079,  1.0  ]
  ]
}



