{
  "observable_group_name": "comb_mu_H_aa-ZZ_ATLAS_Run2", 
  "datafile": "", 
  "description": "ATLAS combinations of Run 2 Higgs production & decay into ZZ* -> 4l & aa. Data (Table 9) & correlation matrix (Figure 10) taken from ATLAS-CONF-2017-047.", 
  "observables": [
    {
      "observable_name": "mu_H_aaOverZZ_ATLAS_Run2", 
      "measurement_name": "mu_H_aaOverZZ_ATLAS_Run2", 
      "CDS": "http://cds.cern.ch/record/2273854", 
      "reportnumber": "ATLAS-CONF-2017-047", 
      "DOI": "", 
      "date": "2017/07/10", 
      "experiment": "CERN LHC Run 2, ATLAS", 
      "description": "Combined measurements of Higgs boson production and decay in the $H\\rightarrow ZZ^\\rightarrow4\\ell$ and $H\\rightarrow\\gamma\\gamma$ channels using $\\sqrt{s}=$ 13 TeV pp collision data collected with the ATLAS experiment ( Tab. 9 (Ratio of aa and 4l brancHing ratios) )", 
      "value": 0.6906077348066298, 
      "uncertainty": {
        "tot": [ 0.15375903885581066, 0.12621712998397594 ]
      }, 
      "uncertainty_sigma": 1, 
      "th_flat": true
    }, 
    {
      "observable_name": "mu_ggF_H_Zll_13", 
      "measurement_name": "mu_ggF-0j_H_ZZ_ATLAS_Run2", 
      "CDS": "http://cds.cern.ch/record/2273854", 
      "reportnumber": "ATLAS-CONF-2017-047", 
      "DOI": "", 
      "date": "2017/07/10", 
      "experiment": "CERN LHC Run 2, ATLAS", 
      "description": "Combined measurements of Higgs boson production and decay in the $H\\rightarrow ZZ^\\rightarrow4\\ell$ and $H\\rightarrow\\gamma\\gamma$ channels using $\\sqrt{s}=$ 13 TeV pp collision data collected with the ATLAS experiment ( Tab. 9 (None) )", 
      "value": 1.0760869565217392, 
      "uncertainty": {
        "tot": [ 0.27438386164074746, 0.24557693828903404 ]
      }, 
      "uncertainty_sigma": 1, 
      "th_flat": true
    }, 
    {
      "observable_name": "mu_ggjH_pt20T60_H_Zll_13", 
      "measurement_name": "mu_ggF-1j-pt-low_H_ZZ_ATLAS_Run2", 
      "CDS": "http://cds.cern.ch/record/2273854", 
      "reportnumber": "ATLAS-CONF-2017-047", 
      "DOI": "", 
      "date": "2017/07/10", 
      "experiment": "CERN LHC Run 2, ATLAS", 
      "description": "Combined measurements of Higgs boson production and decay in the $H\\rightarrow ZZ^\\rightarrow4\\ell$ and $H\\rightarrow\\gamma\\gamma$ channels using $\\sqrt{s}=$ 13 TeV pp collision data collected with the ATLAS experiment ( Tab. 9 (None) )", 
      "value": 0.6666666666666667, 
      "uncertainty": {
        "tot": [ 0.7204541471496207, 0.6845064847319102 ]
      }, 
      "uncertainty_sigma": 1, 
      "th_flat": true
    }, 
    {
      "observable_name": "mu_ggjH_pt60T120_H_Zll_13", 
      "measurement_name": "mu_ggF-1j-pt-med_H_ZZ_ATLAS_Run2", 
      "CDS": "http://cds.cern.ch/record/2273854", 
      "reportnumber": "ATLAS-CONF-2017-047", 
      "DOI": "", 
      "date": "2017/07/10", 
      "experiment": "CERN LHC Run 2, ATLAS", 
      "description": "Combined measurements of Higgs boson production and decay in the $H\\rightarrow ZZ^\\rightarrow4\\ell$ and $H\\rightarrow\\gamma\\gamma$ channels using $\\sqrt{s}=$ 13 TeV pp collision data collected with the ATLAS experiment ( Tab. 9 (None) )", 
      "value": 1.0, 
      "uncertainty": {
        "tot": [ 0.6251653845455829, 0.5542412514774766 ]
      }, 
      "uncertainty_sigma": 1, 
      "th_flat": true
    }, 
    {
      "observable_name": "mu_ggjH_pt120T200_H_Zll_13", 
      "measurement_name": "mu_ggF-1j-pt-high_H_ZZ_ATLAS_Run2", 
      "CDS": "http://cds.cern.ch/record/2273854", 
      "reportnumber": "ATLAS-CONF-2017-047", 
      "DOI": "", 
      "date": "2017/07/10", 
      "experiment": "CERN LHC Run 2, ATLAS", 
      "description": "Combined measurements of Higgs boson production and decay in the $H\\rightarrow ZZ^\\rightarrow4\\ell$ and $H\\rightarrow\\gamma\\gamma$ channels using $\\sqrt{s}=$ 13 TeV pp collision data collected with the ATLAS experiment ( Tab. 9 (None) )", 
      "value": 2.1333333333333333, 
      "uncertainty": {
        "tot": [ 1.4559609274366607, 1.3012131092006245 ]
      }, 
      "uncertainty_sigma": 1, 
      "th_flat": true
    }, 
    {
      "observable_name": "mu_ggjjH_H_Zll_13", 
      "measurement_name": "mu_ggF-2j_H_ZZ_ATLAS_Run2", 
      "CDS": "http://cds.cern.ch/record/2273854", 
      "reportnumber": "ATLAS-CONF-2017-047", 
      "DOI": "", 
      "date": "2017/07/10", 
      "experiment": "CERN LHC Run 2, ATLAS", 
      "description": "Combined measurements of Higgs boson production and decay in the $H\\rightarrow ZZ^\\rightarrow4\\ell$ and $H\\rightarrow\\gamma\\gamma$ channels using $\\sqrt{s}=$ 13 TeV pp collision data collected with the ATLAS experiment ( Tab. 9 (None) )", 
      "value": 2.208333333333333, 
      "uncertainty": {
        "tot": [ 1.082065285738485, 0.9782073339307288 ]
      }, 
      "uncertainty_sigma": 1, 
      "th_flat": true
    }, 
    {
      "observable_name": "mu_ggjjH_ptG200_H_Zll_13", 
      "measurement_name": "mu_BSM-like_H_ZZ_ATLAS_Run2", 
      "CDS": "http://cds.cern.ch/record/2273854", 
      "reportnumber": "ATLAS-CONF-2017-047", 
      "DOI": "", 
      "date": "2017/07/10", 
      "experiment": "CERN LHC Run 2, ATLAS", 
      "description": "Combined measurements of Higgs boson production and decay in the $H\\rightarrow ZZ^\\rightarrow4\\ell$ and $H\\rightarrow\\gamma\\gamma$ channels using $\\sqrt{s}=$ 13 TeV pp collision data collected with the ATLAS experiment ( Tab. 9 (ggF+VBF pt>200GeV) )", 
      "value": 2.3456790123456788, 
      "uncertainty": {
        "tot": [ 1.1520950193494195, 1.0111831451611497 ]
      }, 
      "uncertainty_sigma": 1, 
      "th_flat": true
    }, 
    {
      "observable_name": "mu_VBF_ptjL200_H_Zll_13", 
      "measurement_name": "mu_VBF-pt-low_H_ZZ_ATLAS_Run2", 
      "CDS": "http://cds.cern.ch/record/2273854", 
      "reportnumber": "ATLAS-CONF-2017-047", 
      "DOI": "", 
      "date": "2017/07/10", 
      "experiment": "CERN LHC Run 2, ATLAS", 
      "description": "Combined measurements of Higgs boson production and decay in the $H\\rightarrow ZZ^\\rightarrow4\\ell$ and $H\\rightarrow\\gamma\\gamma$ channels using $\\sqrt{s}=$ 13 TeV pp collision data collected with the ATLAS experiment ( Tab. 9 (None) )", 
      "value": 2.139737991266376, 
      "uncertainty": {
        "tot": [ 0.9353803471111256, 0.7672534661265528 ]
      }, 
      "uncertainty_sigma": 1, 
      "th_flat": true
    }, 
    {
      "observable_name": "mu_VH_H_Zll_13", 
      "measurement_name": "mu_VH_H_ZZ_ATLAS_Run2", 
      "CDS": "http://cds.cern.ch/record/2273854", 
      "reportnumber": "ATLAS-CONF-2017-047", 
      "DOI": "", 
      "date": "2017/07/10", 
      "experiment": "CERN LHC Run 2, ATLAS", 
      "description": "Combined measurements of Higgs boson production and decay in the $H\\rightarrow ZZ^\\rightarrow4\\ell$ and $H\\rightarrow\\gamma\\gamma$ channels using $\\sqrt{s}=$ 13 TeV pp collision data collected with the ATLAS experiment ( Tab. 9 (None) )", 
      "value": 0.31746031746031744, 
      "uncertainty": {
        "tot": [ 1.3090097143334398, 1.155968454698247 ]
      }, 
      "uncertainty_sigma": 1, 
      "th_flat": true
    }, 
    {
      "observable_name": "mu_ttH_H_Zll_13", 
      "measurement_name": "mu_ttH_H_ZZ_ATLAS_Run2", 
      "CDS": "http://cds.cern.ch/record/2273854", 
      "reportnumber": "ATLAS-CONF-2017-047", 
      "DOI": "", 
      "date": "2017/07/10", 
      "experiment": "CERN LHC Run 2, ATLAS", 
      "description": "Combined measurements of Higgs boson production and decay in the $H\\rightarrow ZZ^\\rightarrow4\\ell$ and $H\\rightarrow\\gamma\\gamma$ channels using $\\sqrt{s}=$ 13 TeV pp collision data collected with the ATLAS experiment ( Tab. 9 (None) )", 
      "value": 0.5084745762711864, 
      "uncertainty": {
        "tot": [ 0.8649278493148288, 0.7001587335657606 ]
      }, 
      "uncertainty_sigma": 1, 
      "th_flat": true
    }
  ], 
  "correlation_matrix": [
  [ 1.0, -0.41, 0.06, -0.11, -0.23, -0.18, -0.4, -0.48, 0.02, -0.07 ],
 [ -0.41, 1.0, -0.39, 0.09, 0.17, 0.04, 0.18, 0.2, -0.04, 0.05 ],
 [ 0.06, -0.39, 1.0, -0.04, -0.05, 0.02, 0.01, -0.1, -0.01, -0.02 ],
 [ -0.11, 0.09, -0.04, 1.0, 0.12, -0.13, 0.1, -0.08, -0.03, 0.03 ],
 [ -0.23, 0.17, -0.05, 0.12, 1.0, -0.1, 0.08, 0.02, -0.03, 0.05 ],
 [ -0.18, 0.04, 0.02, -0.13, -0.1, 1.0, -0.03, -0.35, -0.02, -0.03 ],
 [ -0.4, 0.18, 0.01, 0.1, 0.08, -0.03, 1.0, 0.16, -0.03, -0.03 ],
 [ -0.48, 0.2, -0.1, -0.08, 0.02, -0.35, 0.16, 1.0, 0.0, 0.05 ],
 [ 0.02, -0.04, -0.01, -0.03, -0.03, -0.02, -0.03, 0.0, 1.0, -0.11 ],
 [ -0.07, 0.05, -0.02, 0.03, 0.05, -0.03, -0.03, 0.05, -0.11, 1.0 ]
  ]
}