{
  "observable_group_name": "LHC_Run1_Higgs_SignalStrengths", 
  "datafile": "", 
  "description": "ATLAS & CMS combinations of Run 1 Higgs production & decay signal strengths. Data & correlation matrix taken from 1606.02266.", 
  "observables": [
    {
      "observable_name": "mu_ggF_H_aa_8", 
      "measurement_name": "mu_ggF_H_aa_Run1", 
      "arxiv": "1606.02266", 
      "CDS": "http://cds.cern.ch/record/2158863", 
      "DOI": "10.1007/JHEP08(2016)045", 
      "date": "2016/08/05", 
      "experiment": "LHC Run 1", 
      "description": "Higgs bosons signal strength for gluon-gluon fusion production and decay to di-photon (Table 8)", 
      "value": 1.1, 
      "uncertainty": {
        "tot": [ 0.23, 0.22 ]
      }, 
      "uncertainty_sigma": 1, 
      "th_flat": true
    }, 
    {
      "observable_name": "mu_ggF_H_ZZ_8", 
      "measurement_name": "mu_ggF_H_ZZ_Run1", 
      "arxiv": "1606.02266", 
      "CDS": "http://cds.cern.ch/record/2158863", 
      "DOI": "10.1007/JHEP08(2016)045", 
      "date": "2016/08/05", 
      "experiment": "LHC Run 1", 
      "description": "Higgs bosons signal strength for gluon-gluon fusion production and decay to ZZ* (Table 8)", 
      "value": 1.13, 
      "uncertainty": {
        "tot": [ 0.34, 0.31 ]
      }, 
      "uncertainty_sigma": 1, 
      "th_flat": true
    }, 
    {
      "observable_name": "mu_ggF_H_WW_8", 
      "measurement_name": "mu_ggF_H_WW_Run1", 
      "arxiv": "1606.02266", 
      "CDS": "http://cds.cern.ch/record/2158863", 
      "DOI": "10.1007/JHEP08(2016)045", 
      "date": "2016/08/05", 
      "experiment": "LHC Run 1", 
      "description": "Higgs bosons signal strength for gluon-gluon fusion production and decay to WW* (Table 8)", 
      "value": 0.84, 
      "uncertainty": {
        "tot": [ 0.17, 0.17 ]
      }, 
      "uncertainty_sigma": 1, 
      "th_flat": true
    }, 
    {
      "observable_name": "mu_ggF_H_tata_8", 
      "measurement_name": "mu_ggF_H_tata_Run1", 
      "arxiv": "1606.02266", 
      "CDS": "http://cds.cern.ch/record/2158863", 
      "DOI": "10.1007/JHEP08(2016)045", 
      "date": "2016/08/05", 
      "experiment": "LHC Run 1", 
      "description": "Higgs bosons signal strength for gluon-gluon fusion production and decay to tau+ tau- (Table 8)", 
      "value": 1.0, 
      "uncertainty": {
        "tot": [ 0.6, 0.6 ]
      }, 
      "uncertainty_sigma": 1, 
      "th_flat": true
    }, 
    {
      "observable_name": "mu_VBF_H_aa_8", 
      "measurement_name": "mu_VBF_H_aa_Run1", 
      "arxiv": "1606.02266", 
      "CDS": "http://cds.cern.ch/record/2158863", 
      "DOI": "10.1007/JHEP08(2016)045", 
      "date": "2016/08/05", 
      "experiment": "LHC Run 1", 
      "description": "Higgs bosons signal strength for vector boson fusion production and decay to di-photon (Table 8)", 
      "value": 1.3, 
      "uncertainty": {
        "tot": [ 0.5, 0.5 ]
      }, 
      "uncertainty_sigma": 1, 
      "th_flat": true
    }, 
    {
      "observable_name": "mu_VBF_H_ZZ_8", 
      "measurement_name": "mu_VBF_H_ZZ_Run1", 
      "arxiv": "1606.02266", 
      "CDS": "http://cds.cern.ch/record/2158863", 
      "DOI": "10.1007/JHEP08(2016)045", 
      "date": "2016/08/05", 
      "experiment": "LHC Run 1", 
      "description": "Higgs bosons signal strength for vector boson fusion production and decay to ZZ* (Table 8)", 
      "value": 0.1, 
      "uncertainty": {
        "tot": [ 1.1, 0.6 ]
      }, 
      "uncertainty_sigma": 1, 
      "th_flat": true
    }, 
    {
      "observable_name": "mu_VBF_H_WW_8", 
      "measurement_name": "mu_VBF_H_WW_Run1", 
      "arxiv": "1606.02266", 
      "CDS": "http://cds.cern.ch/record/2158863", 
      "DOI": "10.1007/JHEP08(2016)045", 
      "date": "2016/08/05", 
      "experiment": "LHC Run 1", 
      "description": "Higgs bosons signal strength for vector boson fusion production and decay to WW* (Table 8)", 
      "value": 1.2, 
      "uncertainty": {
        "tot": [ 0.4, 0.4 ]
      }, 
      "uncertainty_sigma": 1, 
      "th_flat": true
    }, 
    {
      "observable_name": "mu_VBF_H_tata_8", 
      "measurement_name": "mu_VBF_H_tata_Run1", 
      "arxiv": "1606.02266", 
      "CDS": "http://cds.cern.ch/record/2158863", 
      "DOI": "10.1007/JHEP08(2016)045", 
      "date": "2016/08/05", 
      "experiment": "LHC Run 1", 
      "description": "Higgs bosons signal strength for vector boson fusion production and decay to tau+ tau- (Table 8)", 
      "value": 1.3, 
      "uncertainty": {
        "tot": [ 0.4, 0.4 ]
      }, 
      "uncertainty_sigma": 1, 
      "th_flat": true
    }, 
    {
      "observable_name": "mu_WH_H_aa_8", 
      "measurement_name": "mu_WH_H_aa_Run1", 
      "arxiv": "1606.02266", 
      "CDS": "http://cds.cern.ch/record/2158863", 
      "DOI": "10.1007/JHEP08(2016)045", 
      "date": "2016/08/05", 
      "experiment": "LHC Run 1", 
      "description": "Higgs bosons signal strength for W-associated production and decay to di-photon (Table 8)", 
      "value": 0.5, 
      "uncertainty": {
        "tot": [ 1.3, 1.2 ]
      }, 
      "uncertainty_sigma": 1, 
      "th_flat": true
    }, 
    {
      "observable_name": "mu_WH_H_WW_8", 
      "measurement_name": "mu_WH_H_WW_Run1", 
      "arxiv": "1606.02266", 
      "CDS": "http://cds.cern.ch/record/2158863", 
      "DOI": "10.1007/JHEP08(2016)045", 
      "date": "2016/08/05", 
      "experiment": "LHC Run 1", 
      "description": "Higgs bosons signal strength for W-associated production and decay to WW* (Table 8)", 
      "value": 1.6, 
      "uncertainty": {
        "tot": [ 1.2, 1.0 ]
      }, 
      "uncertainty_sigma": 1, 
      "th_flat": true
    }, 
    {
      "observable_name": "mu_WH_H_tata_8", 
      "measurement_name": "mu_WH_H_tata_Run1", 
      "arxiv": "1606.02266", 
      "CDS": "http://cds.cern.ch/record/2158863", 
      "DOI": "10.1007/JHEP08(2016)045", 
      "date": "2016/08/05", 
      "experiment": "LHC Run 1", 
      "description": "Higgs bosons signal strength for W-associated production and decay to tau+ tau- (Table 8)", 
      "value": -1.4, 
      "uncertainty": {
        "tot": [ 1.4, 1.4 ]
      }, 
      "uncertainty_sigma": 1, 
      "th_flat": true
    }, 
    {
      "observable_name": "mu_WH_H_bb_8", 
      "measurement_name": "mu_WH_H_bb_Run1", 
      "arxiv": "1606.02266", 
      "CDS": "http://cds.cern.ch/record/2158863", 
      "DOI": "10.1007/JHEP08(2016)045", 
      "date": "2016/08/05", 
      "experiment": "LHC Run 1", 
      "description": "Higgs bosons signal strength for W-associated production and decay to b-bbar (Table 8)", 
      "value": 1.0, 
      "uncertainty": {
        "tot": [ 0.5, 0.5 ]
      }, 
      "uncertainty_sigma": 1, 
      "th_flat": true
    }, 
    {
      "observable_name": "mu_ZH_H_aa_8", 
      "measurement_name": "mu_ZH_H_aa_Run1", 
      "arxiv": "1606.02266", 
      "CDS": "http://cds.cern.ch/record/2158863", 
      "DOI": "10.1007/JHEP08(2016)045", 
      "date": "2016/08/05", 
      "experiment": "LHC Run 1", 
      "description": "Higgs bosons signal strength for Z-associated production and decay to di-photon (Table 8)", 
      "value": 0.5, 
      "uncertainty": {
        "tot": [ 3.0, 2.5 ]
      }, 
      "uncertainty_sigma": 1, 
      "th_flat": true
    }, 
    {
      "observable_name": "mu_ZH_H_WW_8", 
      "measurement_name": "mu_ZH_H_WW_Run1", 
      "arxiv": "1606.02266", 
      "CDS": "http://cds.cern.ch/record/2158863", 
      "DOI": "10.1007/JHEP08(2016)045", 
      "date": "2016/08/05", 
      "experiment": "LHC Run 1", 
      "description": "Higgs bosons signal strength for Z-associated production and decay to WW* (Table 8)", 
      "value": 5.9, 
      "uncertainty": {
        "tot": [ 2.6, 2.2 ]
      }, 
      "uncertainty_sigma": 1, 
      "th_flat": true
    }, 
    {
      "observable_name": "mu_ZH_H_tata_8", 
      "measurement_name": "mu_ZH_H_tata_Run1", 
      "arxiv": "1606.02266", 
      "CDS": "http://cds.cern.ch/record/2158863", 
      "DOI": "10.1007/JHEP08(2016)045", 
      "date": "2016/08/05", 
      "experiment": "LHC Run 1", 
      "description": "Higgs bosons signal strength for Z-associated production and decay to tau+ tau- (Table 8)", 
      "value": 2.2, 
      "uncertainty": {
        "tot": [ 2.2, 1.8 ]
      }, 
      "uncertainty_sigma": 1, 
      "th_flat": true
    }, 
    {
      "observable_name": "mu_ZH_H_bb_8", 
      "measurement_name": "mu_ZH_H_bb_Run1", 
      "arxiv": "1606.02266", 
      "CDS": "http://cds.cern.ch/record/2158863", 
      "DOI": "10.1007/JHEP08(2016)045", 
      "date": "2016/08/05", 
      "experiment": "LHC Run 1", 
      "description": "Higgs bosons signal strength for Z-associated production and decay to b-bbar (Table 8)", 
      "value": 0.4, 
      "uncertainty": {
        "tot": [ 0.4, 0.4 ]
      }, 
      "uncertainty_sigma": 1, 
      "th_flat": true
    }, 
    {
      "observable_name": "mu_ttH_H_aa_8", 
      "measurement_name": "mu_ttH_H_aa_Run1", 
      "arxiv": "1606.02266", 
      "CDS": "http://cds.cern.ch/record/2158863", 
      "DOI": "10.1007/JHEP08(2016)045", 
      "date": "2016/08/05", 
      "experiment": "LHC Run 1", 
      "description": "Higgs bosons signal strength for top-pair-associated production and decay to di-photon (Table 8)", 
      "value": 2.2, 
      "uncertainty": {
        "tot": [ 1.6, 1.3 ]
      }, 
      "uncertainty_sigma": 1, 
      "th_flat": true
    }, 
    {
      "observable_name": "mu_ttH_H_WW_8", 
      "measurement_name": "mu_ttH_H_WW_Run1", 
      "arxiv": "1606.02266", 
      "CDS": "http://cds.cern.ch/record/2158863", 
      "DOI": "10.1007/JHEP08(2016)045", 
      "date": "2016/08/05", 
      "experiment": "LHC Run 1", 
      "description": "Higgs bosons signal strength for top-pair-associated production and decay to WW* (Table 8)", 
      "value": 5.0, 
      "uncertainty": {
        "tot": [ 1.8, 1.7 ]
      }, 
      "uncertainty_sigma": 1, 
      "th_flat": true
    }, 
    {
      "observable_name": "mu_ttH_H_tata_8", 
      "measurement_name": "mu_ttH_H_tata_Run1", 
      "arxiv": "1606.02266", 
      "CDS": "http://cds.cern.ch/record/2158863", 
      "DOI": "10.1007/JHEP08(2016)045", 
      "date": "2016/08/05", 
      "experiment": "LHC Run 1", 
      "description": "Higgs bosons signal strength for top-pair-associated production and decay to tau+ tau- (Table 8)", 
      "value": -1.9, 
      "uncertainty": {
        "tot": [ 3.7, 3.3 ]
      }, 
      "uncertainty_sigma": 1, 
      "th_flat": true
    }, 
    {
      "observable_name": "mu_ttH_H_bb_8", 
      "measurement_name": "mu_ttH_H_bb_Run1", 
      "arxiv": "1606.02266", 
      "CDS": "http://cds.cern.ch/record/2158863", 
      "DOI": "10.1007/JHEP08(2016)045", 
      "date": "2016/08/05", 
      "experiment": "LHC Run 1", 
      "description": "Higgs bosons signal strength for top-pair-associated production and decay to b-bbar (Table 8)", 
      "value": 1.1, 
      "uncertainty": {
        "tot": [ 1.0, 1.0 ]
      }, 
      "uncertainty_sigma": 1, 
      "th_flat": true
    }, 
    {
      "observable_name": "mu_H_mumu_8", 
      "measurement_name": "mu_H_mumu_Run1", 
      "datafile": "fitmaker/observables/Higgs/Run_1/mu_H_mumu_Run1.json", 
      "arxiv": "1606.02266", 
      "CDS": "http://cds.cern.ch/record/2158863", 
      "DOI": "10.1007/JHEP08(2016)045", 
      "date": "2016/08/05", 
      "experiment": "LHC Run 1", 
      "description": "Higgs bosons signal strength for decay to di-muon (Table 13). Assumes SM Higgs production rates.", 
      "value": 0.1, 
      "uncertainty": {
        "tot": [ 2.5, 2.5 ]
      }, 
      "uncertainty_sigma": 1, 
      "th_flat": true
    }, 
    {
      "observable_name": "mu_H_Za_8", 
      "measurement_name": "mu_H_Za_Run1", 
      "datafile": "fitmaker/observables/Higgs/Run_1/mu_H_Za_Run1.json", 
      "arxiv": "1507.04548", 
      "CDS": "http://cds.cern.ch/record/2034254", 
      "DOI": "10.1140/epjc/s10052-015-3769-y", 
      "date": "2016/01/05", 
      "experiment": "LHC Run 1", 
      "description": "Higgs bosons signal strength for decay to Z-photon (Figure 2). Assumes SM Higgs production rates.", 
      "value": 2.7, 
      "uncertainty": {
        "tot": [ 4.6, 4.5 ]
      }, 
      "uncertainty_sigma": 1, 
      "th_flat": true
    }
  ], 
  "correlation_matrix": [
  [ 1.0, 0.01, 0.0, 0.0, -0.25, -0.01, 0.0, 0.0, -0.03, 0.0, 0.0, 0.0, -0.14, 0.0, 0.0, 0.0, 0.01, 0.01, 0.0, 0.0, 0.0, 0.0 ],
 [ 0.01, 1.0, 0.03, 0.0, -0.01, -0.26, -0.01, -0.01, 0.0, 0.0, 0.01, 0.0, 0.0, 0.01, 0.01, 0.0, 0.0, -0.08, -0.02, -0.02, 0.0, 0.0 ],
 [ 0.0, 0.03, 1.0, -0.01, 0.01, 0.0, -0.16, 0.0, 0.0, -0.07, 0.02, 0.0, 0.0, -0.07, 0.01, 0.0, 0.0, 0.01, 0.0, 0.01, 0.0, 0.0 ],
 [ 0.0, 0.0, -0.01, 1.0, 0.01, 0.01, 0.01, -0.37, 0.0, 0.03, -0.25, 0.0, 0.0, 0.01, -0.21, 0.0, 0.0, 0.0, 0.0, 0.01, 0.0, 0.0 ],
 [ -0.25, -0.01, 0.01, 0.01, 1.0, 0.02, 0.02, 0.02, 0.0, 0.0, 0.0, 0.0, 0.01, 0.0, 0.0, 0.0, -0.01, 0.0, 0.0, 0.0, 0.0, 0.0 ],
 [ -0.01, -0.26, 0.0, 0.01, 0.02, 1.0, 0.02, 0.02, 0.0, 0.0, 0.0, 0.0, 0.0, 0.0, 0.0, 0.0, 0.0, 0.04, 0.01, 0.01, 0.0, 0.0 ],
 [ 0.0, -0.01, -0.16, 0.01, 0.02, 0.02, 1.0, 0.03, 0.0, 0.0, 0.0, 0.0, 0.0, 0.0, 0.0, 0.0, 0.0, 0.0, 0.0, -0.01, 0.0, 0.0 ],
 [ 0.0, -0.01, 0.0, -0.37, 0.02, 0.02, 0.03, 1.0, 0.0, -0.01, 0.05, 0.0, 0.0, 0.0, 0.04, 0.0, 0.0, 0.0, 0.0, -0.01, 0.0, 0.0 ],
 [ -0.03, 0.0, 0.0, 0.0, 0.0, 0.0, 0.0, 0.0, 1.0, 0.0, 0.0, 0.0, -0.64, 0.0, 0.0, 0.0, -0.03, 0.0, 0.0, 0.0, 0.0, 0.0 ],
 [ 0.0, 0.0, -0.07, 0.03, 0.0, 0.0, 0.0, -0.01, 0.0, 1.0, -0.12, 0.0, 0.0, -0.12, 0.01, 0.0, 0.0, 0.0, 0.0, 0.01, 0.0, 0.0 ],
 [ 0.0, 0.01, 0.02, -0.25, 0.0, 0.0, 0.0, 0.05, 0.0, -0.12, 1.0, 0.0, 0.0, 0.02, -0.02, 0.0, 0.0, 0.01, 0.0, 0.0, 0.0, 0.0 ],
 [ 0.0, 0.0, 0.0, 0.0, 0.0, 0.0, 0.0, 0.0, 0.0, 0.0, 0.0, 1.0, 0.0, 0.0, 0.0, -0.07, 0.0, 0.0, 0.0, 0.0, 0.0, 0.0 ],
 [ -0.14, 0.0, 0.0, 0.0, 0.01, 0.0, 0.0, 0.0, -0.64, 0.0, 0.0, 0.0, 1.0, 0.0, 0.0, 0.0, -0.11, 0.0, 0.0, 0.0, 0.0, 0.0 ],
 [ 0.0, 0.01, -0.07, 0.01, 0.0, 0.0, 0.0, 0.0, 0.0, -0.12, 0.02, 0.0, 0.0, 1.0, -0.05, 0.0, 0.0, 0.01, 0.0, 0.0, 0.0, 0.0 ],
 [ 0.0, 0.01, 0.01, -0.21, 0.0, 0.0, 0.0, 0.04, 0.0, 0.01, -0.02, 0.0, 0.0, -0.05, 1.0, 0.0, 0.0, 0.01, 0.0, 0.0, 0.0, 0.0 ],
 [ 0.0, 0.0, 0.0, 0.0, 0.0, 0.0, 0.0, 0.0, 0.0, 0.0, 0.0, -0.07, 0.0, 0.0, 0.0, 1.0, 0.0, 0.0, 0.0, 0.0, 0.0, 0.0 ],
 [ 0.01, 0.0, 0.0, 0.0, -0.01, 0.0, 0.0, 0.0, -0.03, 0.0, 0.0, 0.0, -0.11, 0.0, 0.0, 0.0, 1.0, 0.0, 0.0, 0.0, 0.0, 0.0 ],
 [ 0.01, -0.08, 0.01, 0.0, 0.0, 0.04, 0.0, 0.0, 0.0, 0.0, 0.01, 0.0, 0.0, 0.01, 0.01, 0.0, 0.0, 1.0, -0.47, 0.01, 0.0, 0.0 ],
 [ 0.0, -0.02, 0.0, 0.0, 0.0, 0.01, 0.0, 0.0, 0.0, 0.0, 0.0, 0.0, 0.0, 0.0, 0.0, 0.0, 0.0, -0.47, 1.0, 0.0, 0.0, 0.0 ],
 [ 0.0, -0.02, 0.01, 0.01, 0.0, 0.01, -0.01, -0.01, 0.0, 0.01, 0.0, 0.0, 0.0, 0.0, 0.0, 0.0, 0.0, 0.01, 0.0, 1.0, 0.0, 0.0 ],
 [ 0.0, 0.0, 0.0, 0.0, 0.0, 0.0, 0.0, 0.0, 0.0, 0.0, 0.0, 0.0, 0.0, 0.0, 0.0, 0.0, 0.0, 0.0, 0.0, 0.0, 1.0, 0.0 ],
 [ 0.0, 0.0, 0.0, 0.0, 0.0, 0.0, 0.0, 0.0, 0.0, 0.0, 0.0, 0.0, 0.0, 0.0, 0.0, 0.0, 0.0, 0.0, 0.0, 0.0, 0.0, 1.0 ]
  ]
}
