{
  "observable_group_name": "ATLAS_Run2_SigStrength_H_ZZ_4l_comb", 
  "datafile": "ATLAS_Run2_SigStrength_H_ZZ_4l_comb.json", 
  "observables": [
    {
      "observable_name": "mu_ggF_H_aa_13", 
      "measurement_name": "mu_ggF_H_aa_ATLAS_Run2", 
      "CDS": "https://cds.cern.ch/record/2688596", 
      "reportnumber": "CERN-EP-2019-097", 
      "DOI": "10.1103/PhysRevD.101.012002", 
      "date": "06/09/2019", 
      "experiment": "CERN LHC Run 2, ATLAS", 
      "description": " '''Higgs boson signal strength for gluon-gluon fusion production and decay to di-photon (Fig 5)'''", 
      "value": 0.96, 
      "uncertainty": {
        "tot": [
          0.14, 
          0.14
        ]
      }, 
      "uncertainty_sigma": 1, 
      "th_flat": true
    }, 
    {
      "observable_name": "mu_ggF_H_ZZ_13", 
      "measurement_name": "mu_ggF_H_ZZ_ATLAS_Run2", 
      "CDS": "https://cds.cern.ch/record/2688596", 
      "reportnumber": "CERN-EP-2019-097", 
      "DOI": "10.1103/PhysRevD.101.012002", 
      "date": "06/09/2019", 
      "experiment": "CERN LHC Run 2, ATLAS", 
      "description": " '''Higgs boson signal strength for gluon-gluon fusion production and decay to ZZ (Fig 5)'''", 
      "value": 1.04, 
      "uncertainty": {
        "tot": [
          0.16, 
          0.15
        ]
      }, 
      "uncertainty_sigma": 1, 
      "th_flat": true
    }, 
    {
      "observable_name": "mu_ggF_H_WW_13", 
      "measurement_name": "mu_ggF_H_WW_ATLAS_Run2", 
      "CDS": "https://cds.cern.ch/record/2688596", 
      "reportnumber": "CERN-EP-2019-097", 
      "DOI": "10.1103/PhysRevD.101.012002", 
      "date": "06/09/2019", 
      "experiment": "CERN LHC Run 2, ATLAS", 
      "description": " '''Higgs boson signal strength for gluon-gluon fusion production and decay to WW (Fig 5)'''", 
      "value": 1.08, 
      "uncertainty": {
        "tot": [
          0.19, 
          0.19
        ]
      }, 
      "uncertainty_sigma": 1, 
      "th_flat": true
    }, 
    {
      "observable_name": "mu_ggF_H_tata_13", 
      "measurement_name": "mu_ggF_H_tata_ATLAS_Run2", 
      "CDS": "https://cds.cern.ch/record/2688596", 
      "reportnumber": "CERN-EP-2019-097", 
      "DOI": "10.1103/PhysRevD.101.012002", 
      "date": "06/09/2019", 
      "experiment": "CERN LHC Run 2, ATLAS", 
      "description": " '''Higgs boson signal strength for gluon-gluon fusion production and decay to tau tau (Fig 5)'''", 
      "value": 0.96, 
      "uncertainty": {
        "tot": [
          0.59, 
          0.52
        ]
      }, 
      "uncertainty_sigma": 1, 
      "th_flat": true
    }, 
    {
      "observable_name": "mu_VBF_H_aa_13", 
      "measurement_name": "mu_VBF_H_aa_ATLAS_Run2", 
      "CDS": "https://cds.cern.ch/record/2688596", 
      "reportnumber": "CERN-EP-2019-097", 
      "DOI": "10.1103/PhysRevD.101.012002", 
      "date": "06/09/2019", 
      "experiment": "CERN LHC Run 2, ATLAS", 
      "description": " '''Higgs boson signal strength for vector boson fusion production and decay to di-photon (Fig 5)'''", 
      "value": 1.39, 
      "uncertainty": {
        "tot": [
          0.4, 
          0.35
        ]
      }, 
      "uncertainty_sigma": 1, 
      "th_flat": true
    }, 
    {
      "observable_name": "mu_VBF_H_ZZ_13", 
      "measurement_name": "mu_VBF_H_ZZ_ATLAS_Run2", 
      "CDS": "https://cds.cern.ch/record/2688596", 
      "reportnumber": "CERN-EP-2019-097", 
      "DOI": "10.1103/PhysRevD.101.012002", 
      "date": "06/09/2019", 
      "experiment": "CERN LHC Run 2, ATLAS", 
      "description": " '''Higgs boson signal strength for vector boson fusion production and decay to ZZ (Fig 5)'''", 
      "value": 2.68, 
      "uncertainty": {
        "tot": [
          0.98, 
          0.83
        ]
      }, 
      "uncertainty_sigma": 1, 
      "th_flat": true
    }, 
    {
      "observable_name": "mu_VBF_H_WW_13", 
      "measurement_name": "mu_VBF_H_WW_ATLAS_Run2", 
      "CDS": "https://cds.cern.ch/record/2688596", 
      "reportnumber": "CERN-EP-2019-097", 
      "DOI": "10.1103/PhysRevD.101.012002", 
      "date": "06/09/2019", 
      "experiment": "CERN LHC Run 2, ATLAS", 
      "description": " '''Higgs boson signal strength for vector boson fusion production and decay to WW (Fig 5)'''", 
      "value": 0.59, 
      "uncertainty": {
        "tot": [
          0.36, 
          0.35
        ]
      }, 
      "uncertainty_sigma": 1, 
      "th_flat": true
    }, 
    {
      "observable_name": "mu_VBF_H_tata_13", 
      "measurement_name": "mu_VBF_H_tata_ATLAS_Run2", 
      "CDS": "https://cds.cern.ch/record/2688596", 
      "reportnumber": "CERN-EP-2019-097", 
      "DOI": "10.1103/PhysRevD.101.012002", 
      "date": "06/09/2019", 
      "experiment": "CERN LHC Run 2, ATLAS", 
      "description": " '''Higgs boson signal strength for vector boson fusion production and decay to tau tau (Fig 5)'''", 
      "value": 1.16, 
      "uncertainty": {
        "tot": [
          0.58, 
          0.53
        ]
      }, 
      "uncertainty_sigma": 1, 
      "th_flat": true
    }, 
    {
      "observable_name": "mu_VBF_H_bb_13", 
      "measurement_name": "mu_VBF_H_bb_ATLAS_Run2", 
      "CDS": "https://cds.cern.ch/record/2688596", 
      "reportnumber": "CERN-EP-2019-097", 
      "DOI": "10.1103/PhysRevD.101.012002", 
      "date": "06/09/2019", 
      "experiment": "CERN LHC Run 2, ATLAS", 
      "description": " '''Higgs boson signal strength for vector boson fusion production and decay to bb (Fig 5)'''", 
      "value": 3.01, 
      "uncertainty": {
        "tot": [
          1.67, 
          1.61
        ]
      }, 
      "uncertainty_sigma": 1, 
      "th_flat": true
    }, 
    {
      "observable_name": "mu_VH_H_aa_13", 
      "measurement_name": "mu_VH_H_aa_ATLAS_Run2", 
      "CDS": "https://cds.cern.ch/record/2688596", 
      "reportnumber": "CERN-EP-2019-097", 
      "DOI": "10.1103/PhysRevD.101.012002", 
      "date": "06/09/2019", 
      "experiment": "CERN LHC Run 2, ATLAS", 
      "description": " '''Higgs boson signal strength for associated vector production and decay to di-photon (Fig 5)'''", 
      "value": 1.09, 
      "uncertainty": {
        "tot": [
          0.58, 
          0.54
        ]
      }, 
      "uncertainty_sigma": 1, 
      "th_flat": true
    }, 
    {
      "observable_name": "mu_VH_H_ZZ_13", 
      "measurement_name": "mu_VH_H_ZZ_ATLAS_Run2", 
      "CDS": "https://cds.cern.ch/record/2688596", 
      "reportnumber": "CERN-EP-2019-097", 
      "DOI": "10.1103/PhysRevD.101.012002", 
      "date": "06/09/2019", 
      "experiment": "CERN LHC Run 2, ATLAS", 
      "description": " '''Higgs boson signal strength for associated vector production and decay to ZZ (Fig 5)'''", 
      "value": 0.68, 
      "uncertainty": {
        "tot": [
          1.2, 
          0.78
        ]
      }, 
      "uncertainty_sigma": 1, 
      "th_flat": true
    }, 
    {
      "observable_name": "mu_VH_H_bb_13", 
      "measurement_name": "mu_VH_H_bb_ATLAS_Run2", 
      "CDS": "https://cds.cern.ch/record/2688596", 
      "reportnumber": "CERN-EP-2019-097", 
      "DOI": "10.1103/PhysRevD.101.012002", 
      "date": "06/09/2019", 
      "experiment": "CERN LHC Run 2, ATLAS", 
      "description": " '''Higgs boson signal strength for associated vector production and decay to bb (Fig 5)'''", 
      "value": 1.19, 
      "uncertainty": {
        "tot": [
          0.27, 
          0.25
        ]
      }, 
      "uncertainty_sigma": 1, 
      "th_flat": true
    }, 
    {
      "observable_name": "mu_ttH_H_aa_13", 
      "measurement_name": "mu_ttH_H_aa_ATLAS_Run2", 
      "CDS": "https://cds.cern.ch/record/2688596", 
      "reportnumber": "CERN-EP-2019-097", 
      "DOI": "10.1103/PhysRevD.101.012002", 
      "date": "06/09/2019", 
      "experiment": "CERN LHC Run 2, ATLAS", 
      "description": " '''Higgs boson signal strength for ttH production and decay to di-photon (Fig 5)'''", 
      "value": 1.1, 
      "uncertainty": {
        "tot": [
          0.41, 
          0.35
        ]
      }, 
      "uncertainty_sigma": 1, 
      "th_flat": true
    }, 
    {
      "observable_name": "mu_ttH_H_VV_13", 
      "measurement_name": "mu_ttH_H_VV_ATLAS_Run2", 
      "CDS": "https://cds.cern.ch/record/2688596", 
      "reportnumber": "CERN-EP-2019-097", 
      "DOI": "10.1103/PhysRevD.101.012002", 
      "date": "06/09/2019", 
      "experiment": "CERN LHC Run 2, ATLAS", 
      "description": " '''Higgs boson signal strength for ttH production and decay to VV (Fig 5)'''", 
      "value": 1.5, 
      "uncertainty": {
        "tot": [
          0.59, 
          0.57
        ]
      }, 
      "uncertainty_sigma": 1, 
      "th_flat": true
    }, 
    {
      "observable_name": "mu_ttH_H_tata_13", 
      "measurement_name": "mu_ttH_H_tata_ATLAS_Run2", 
      "CDS": "https://cds.cern.ch/record/2688596", 
      "reportnumber": "CERN-EP-2019-097", 
      "DOI": "10.1103/PhysRevD.101.012002", 
      "date": "06/09/2019", 
      "experiment": "CERN LHC Run 2, ATLAS", 
      "description": " '''Higgs boson signal strength for ttH production and decay to tau tau (Fig 5)'''", 
      "value": 1.38, 
      "uncertainty": {
        "tot": [
          1.13, 
          0.96
        ]
      }, 
      "uncertainty_sigma": 1, 
      "th_flat": true
    }, 
    {
      "observable_name": "mu_ttH_H_bb_13", 
      "measurement_name": "mu_ttH_H_bb_ATLAS_Run2", 
      "CDS": "https://cds.cern.ch/record/2688596", 
      "reportnumber": "CERN-EP-2019-097", 
      "DOI": "10.1103/PhysRevD.101.012002", 
      "date": "06/09/2019", 
      "experiment": "CERN LHC Run 2, ATLAS", 
      "description": " '''Higgs boson signal strength for ttH production and decay to bb (Fig 5)'''", 
      "value": 0.79, 
      "uncertainty": {
        "tot": [
          0.6, 
          0.59
        ]
      }, 
      "uncertainty_sigma": 1, 
      "th_flat": true
    }
  ], 
  "correlation_matrix": [
    [
      1.0, 
      0.05, 
      0.01, 
      0.03, 
      -0.22, 
      -0.01, 
      -0.01, 
      -0.02, 
      0.01, 
      -0.14, 
      0.0, 
      0.01, 
      0.1, 
      0.01, 
      0.0, 
      0.0
    ], 
    [
      0.05, 
      1.0, 
      0.01, 
      0.0, 
      -0.02, 
      -0.28, 
      0.0, 
      0.0, 
      0.0, 
      0.0, 
      -0.17, 
      0.02, 
      0.02, 
      0.02, 
      0.0, 
      0.0
    ], 
    [
      0.01, 
      0.01, 
      1.0, 
      -0.01, 
      0.0, 
      0.0, 
      -0.09, 
      0.04, 
      0.03, 
      -0.01, 
      -0.01, 
      0.01, 
      0.0, 
      0.02, 
      0.01, 
      -0.01
    ], 
    [
      0.03, 
      0.0, 
      -0.01, 
      1.0, 
      0.02, 
      0.03, 
      0.02, 
      -0.44, 
      0.0, 
      0.05, 
      0.03, 
      0.0, 
      0.0, 
      0.02, 
      -0.01, 
      0.01
    ], 
    [
      -0.22, 
      -0.02, 
      0.0, 
      0.02, 
      1.0, 
      0.11, 
      0.05, 
      0.05, 
      0.0, 
      0.02, 
      0.01, 
      0.01, 
      0.05, 
      0.01, 
      0.0, 
      0.0
    ], 
    [
      -0.01, 
      -0.28, 
      0.0, 
      0.03, 
      0.11, 
      1.0, 
      0.02, 
      0.01, 
      0.0, 
      0.02, 
      -0.06, 
      0.0, 
      0.01, 
      0.0, 
      0.0, 
      0.0
    ], 
    [
      -0.01, 
      0.0, 
      -0.09, 
      0.02, 
      0.05, 
      0.02, 
      1.0, 
      0.0, 
      0.0, 
      0.0, 
      0.0, 
      0.0, 
      0.0, 
      0.01, 
      0.0, 
      0.0
    ], 
    [
      -0.02, 
      0.0, 
      0.04, 
      -0.44, 
      0.05, 
      0.01, 
      0.0, 
      1.0, 
      0.02, 
      -0.01, 
      0.0, 
      0.0, 
      0.0, 
      0.01, 
      0.0, 
      -0.02
    ], 
    [
      0.01, 
      0.0, 
      0.03, 
      0.0, 
      0.0, 
      0.0, 
      0.0, 
      0.02, 
      1.0, 
      0.0, 
      0.0, 
      0.0, 
      0.0, 
      0.01, 
      0.0, 
      -0.01
    ], 
    [
      -0.14, 
      0.0, 
      -0.01, 
      0.05, 
      0.02, 
      0.02, 
      0.0, 
      -0.01, 
      0.0, 
      1.0, 
      0.02, 
      0.0, 
      -0.08, 
      0.01, 
      0.0, 
      0.0
    ], 
    [
      0.0, 
      -0.17, 
      -0.01, 
      0.03, 
      0.01, 
      -0.06, 
      0.0, 
      0.0, 
      0.0, 
      0.02, 
      1.0, 
      0.0, 
      0.0, 
      -0.08, 
      0.03, 
      0.0
    ], 
    [
      0.01, 
      0.02, 
      0.01, 
      0.0, 
      0.01, 
      0.0, 
      0.0, 
      0.0, 
      0.0, 
      0.0, 
      0.0, 
      1.0, 
      0.0, 
      0.01, 
      0.0, 
      0.0
    ], 
    [
      0.1, 
      0.02, 
      0.0, 
      0.0, 
      0.05, 
      0.01, 
      0.0, 
      0.0, 
      0.0, 
      -0.08, 
      0.0, 
      0.0, 
      1.0, 
      -0.01, 
      0.03, 
      0.03
    ], 
    [
      0.01, 
      0.02, 
      0.02, 
      0.02, 
      0.01, 
      0.0, 
      0.01, 
      0.01, 
      0.01, 
      0.01, 
      -0.08, 
      0.01, 
      -0.01, 
      1.0, 
      -0.45, 
      0.0
    ], 
    [
      0.0, 
      0.0, 
      0.01, 
      -0.01, 
      0.0, 
      0.0, 
      0.0, 
      0.0, 
      0.0, 
      0.0, 
      0.03, 
      0.0, 
      0.03, 
      -0.45, 
      1.0, 
      0.01
    ], 
    [
      0.0, 
      0.0, 
      -0.01, 
      0.01, 
      0.0, 
      0.0, 
      0.0, 
      -0.02, 
      -0.01, 
      0.0, 
      0.0, 
      0.0, 
      0.03, 
      0.0, 
      0.01, 
      1.0
    ]
  ]
}
