{
  "observable_name": "mu_ggF_H_tata_H_Zll_13", 
  "measurement_name": "mu_ggF_H_tata_H_Zll_ATLAS_Run2", 
  "CDS": "https://cds.cern.ch/record/2688596", 
  "reportnumber": "CERN-EP-2019-097", 
  "DOI": "10.1103/PhysRevD.101.012002", 
  "date": "06/09/2019", 
  "experiment": "CERN LHC Run 2, ATLAS", 
  "description": " '''Higgs boson signal strength for gluon-gluon fusion production and decay to tau tau (Fig 5)'''", 
  "value": 0.96, 
  "uncertainty": {
    "tot": [
      0.59, 
      0.52
    ]
  }, 
  "uncertainty_sigma": 1, 
  "th_flat": true
}