{
  "observable_name": "mu_ttH_H_aa_H_Zll_13", 
  "measurement_name": "mu_ttH_H_aa_H_Zll_ATLAS_Run2", 
  "CDS": "https://cds.cern.ch/record/2688596", 
  "reportnumber": "CERN-EP-2019-097", 
  "DOI": "10.1103/PhysRevD.101.012002", 
  "date": "06/09/2019", 
  "experiment": "CERN LHC Run 2, ATLAS", 
  "description": " '''Higgs boson signal strength for ttH production and decay to di-photon (Fig 5)'''", 
  "value": 1.1, 
  "uncertainty": {
    "tot": [
      0.41, 
      0.35
    ]
  }, 
  "uncertainty_sigma": 1, 
  "th_flat": true
}