{
  "name": "rGam_H",
  "params": [ "CHB", "CHW", "CHWB", "CHG", "CHbox", "CHD", "Cll", "CbH", "CcH", "CtaH", "CHl1", "CHl3", "CHe", "CHq1", "CHq3", "CHu", "CHd"],

  "linear": [ -1.40, -1.22,   2.89,  50.6,    1.83,  0.34,  0.70, "CbH", "CcH", "CtaH", "CHl1", "CHl3", "CHe", "CHq1", "CHq3", "CHu", "CHd"],

  "lambda_gen": 246.22,
  "doc": "SMEFT relative corrections to total Higgs width."
}