{
  "observable_group_name": "CMS_Run2_STXS1p0_H_aa_13_13param", 
  "datafile": "", 
  "description": "Measurements of Higgs boson production via gluon fusion and vector boson fusion in the diphoton decay channel at $\\sqrt{s} = 13$ TeV (STXS 13 parameter fit, Figure 12 / Table 7)", 
  "observables": [
    {
      "observable_name": "mu_ggF0j_H_aa_13", 
      "measurement_name": "STXS1p0_mu_ggF0j_H_aa_13_CMS_Run_2", 
      "CDS": "http://cds.cern.ch/record/2667225", 
      "reportnumber": "CMS-PAS-HIG-18-029", 
      "DOI": "", 
      "date": "2019/03/17", 
      "experiment": "CERN LHC Run 2, CMS", 
      "description": "13 parameter fit (Figure 12 / Table 7); STXS stage 1.0 bin: 0-jet gluon fusion ", 
      "value": 1.17, 
      "uncertainty": {
        "tot": [ 0.2, 0.2 ]
      }, 
      "uncertainty_sigma": 1, 
      "th_flat": true
    }, 
    {
      "observable_name": "mu_ggF1j_ptH_0T60_H_aa_13", 
      "measurement_name": "STXS1p0_mu_ggF1j_ptH_0T60_H_aa_13_CMS_Run_2", 
      "CDS": "http://cds.cern.ch/record/2667225", 
      "reportnumber": "CMS-PAS-HIG-18-029", 
      "DOI": "", 
      "date": "2019/03/17", 
      "experiment": "CERN LHC Run 2, CMS", 
      "description": "13 parameter fit (Figure 12 / Table 7); STXS stage 1.0 bin: 1-jet low-pT gluon fusion , Higgs pT [0-60]", 
      "value": 1.5, 
      "uncertainty": {
        "tot": [ 0.7, 0.6 ]
      }, 
      "uncertainty_sigma": 1, 
      "th_flat": true
    }, 
    {
      "observable_name": "mu_ggF1j_ptH_60T120_H_aa_13", 
      "measurement_name": "STXS1p0_mu_ggF1j_ptH_60T120_H_aa_13_CMS_Run_2", 
      "CDS": "http://cds.cern.ch/record/2667225", 
      "reportnumber": "CMS-PAS-HIG-18-029", 
      "DOI": "", 
      "date": "2019/03/17", 
      "experiment": "CERN LHC Run 2, CMS", 
      "description": "13 parameter fit (Figure 12 / Table 7); STXS stage 1.0 bin: 1-jet med-pT gluon fusion , Higgs pT [60-120]", 
      "value": 0.5, 
      "uncertainty": {
        "tot": [ 0.5, 0.4 ]
      }, 
      "uncertainty_sigma": 1, 
      "th_flat": true
    }, 
    {
      "observable_name": "mu_ggF1j_ptH_120T200_H_aa_13", 
      "measurement_name": "STXS1p0_mu_ggF1j_ptH_120T200_H_aa_13_CMS_Run_2", 
      "CDS": "http://cds.cern.ch/record/2667225", 
      "reportnumber": "CMS-PAS-HIG-18-029", 
      "DOI": "", 
      "date": "2019/03/17", 
      "experiment": "CERN LHC Run 2, CMS", 
      "description": "13 parameter fit (Figure 12 / Table 7); STXS stage 1.0 bin: 1-jet high-pT gluon fusion , Higgs pT [120-200]", 
      "value": 2.0, 
      "uncertainty": {
        "tot": [ 1.0, 0.7 ]
      }, 
      "uncertainty_sigma": 1, 
      "th_flat": true
    }, 
    {
      "observable_name": "mu_ggF1j_ptH_200Tinf_H_aa_13", 
      "measurement_name": "STXS1p0_mu_ggF1j_ptH_200Tinf_H_aa_13_CMS_Run_2", 
      "CDS": "http://cds.cern.ch/record/2667225", 
      "reportnumber": "CMS-PAS-HIG-18-029", 
      "DOI": "", 
      "date": "2019/03/17", 
      "experiment": "CERN LHC Run 2, CMS", 
      "description": "13 parameter fit (Figure 12 / Table 7); STXS stage 1.0 bin: 1-jet BSM gluon fusion , Higgs pT [200-]", 
      "value": 1.8, 
      "uncertainty": {
        "tot": [ 1.7, 1.5 ]
      }, 
      "uncertainty_sigma": 1, 
      "th_flat": true
    }, 
    {
      "observable_name": "mu_ggF2j_ptH_0T60_H_aa_13", 
      "measurement_name": "STXS1p0_mu_ggF2j_ptH_0T60_H_aa_13_CMS_Run_2", 
      "CDS": "http://cds.cern.ch/record/2667225", 
      "reportnumber": "CMS-PAS-HIG-18-029", 
      "DOI": "", 
      "date": "2019/03/17", 
      "experiment": "CERN LHC Run 2, CMS", 
      "description": "13 parameter fit (Figure 12 / Table 7); STXS stage 1.0 bin: 2-jet low-pT gluon fusion , Mjj [0-400], Higgs pT [0-60]", 
      "value": 0.3, 
      "uncertainty": {
        "tot": [ 1.5, 0.3 ]
      }, 
      "uncertainty_sigma": 1, 
      "th_flat": true
    }, 
    {
      "observable_name": "mu_ggF2j_ptH_60T120_H_aa_13", 
      "measurement_name": "STXS1p0_mu_ggF2j_ptH_60T120_H_aa_13_CMS_Run_2", 
      "CDS": "http://cds.cern.ch/record/2667225", 
      "reportnumber": "CMS-PAS-HIG-18-029", 
      "DOI": "", 
      "date": "2019/03/17", 
      "experiment": "CERN LHC Run 2, CMS", 
      "description": "13 parameter fit (Figure 12 / Table 7); STXS stage 1.0 bin: 2-jet med-pT gluon fusion , Mjj [0-400], Higgs pT [60-120]", 
      "value": 2.6, 
      "uncertainty": {
        "tot": [ 1.1, 1.1 ]
      }, 
      "uncertainty_sigma": 1, 
      "th_flat": true
    }, 
    {
      "observable_name": "mu_ggF2j_ptH_120T200_H_aa_13", 
      "measurement_name": "STXS1p0_mu_ggF2j_ptH_120T200_H_aa_13_CMS_Run_2", 
      "CDS": "http://cds.cern.ch/record/2667225", 
      "reportnumber": "CMS-PAS-HIG-18-029", 
      "DOI": "", 
      "date": "2019/03/17", 
      "experiment": "CERN LHC Run 2, CMS", 
      "description": "13 parameter fit (Figure 12 / Table 7); STXS stage 1.0 bin: 2-jet high-pT gluon fusion , Mjj [0-400], Higgs pT [120-200]", 
      "value": 0.6, 
      "uncertainty": {
        "tot": [ 0.8, 0.6 ]
      }, 
      "uncertainty_sigma": 1, 
      "th_flat": true
    }, 
    {
      "observable_name": "mu_ggF2j_ptH_200Tinf_H_aa_13", 
      "measurement_name": "STXS1p0_mu_ggF2j_ptH_200Tinf_H_aa_13_CMS_Run_2", 
      "CDS": "http://cds.cern.ch/record/2667225", 
      "reportnumber": "CMS-PAS-HIG-18-029", 
      "DOI": "", 
      "date": "2019/03/17", 
      "experiment": "CERN LHC Run 2, CMS", 
      "description": "13 parameter fit (Figure 12 / Table 7); STXS stage 1.0 bin: 2-jet BSM gluon fusion , Mjj [0-400], Higgs pT [200-]", 
      "value": 2.8, 
      "uncertainty": {
        "tot": [ 1.1, 1.2 ]
      }, 
      "uncertainty_sigma": 1, 
      "th_flat": true
    }, 
    {
      "observable_name": "mu_ggF2j_mjj_400Tinf_ptH_0T200_H_aa_13", 
      "measurement_name": "STXS1p0_mu_ggF2j_mjj_400Tinf_ptH_0T200_H_aa_13_CMS_Run_2", 
      "CDS": "http://cds.cern.ch/record/2667225", 
      "reportnumber": "CMS-PAS-HIG-18-029", 
      "DOI": "", 
      "date": "2019/03/17", 
      "experiment": "CERN LHC Run 2, CMS", 
      "description": "13 parameter fit (Figure 12 / Table 7); STXS stage 1.0 bin: 2-jet VBF-like gluon fusion  (merging of 2 VBF-like bins), Mjj [400-0], Higgs pT [0-200], |detajj| < 2.4", 
      "value": 0.0, 
      "uncertainty": {
        "tot": [ 0.5, 0.0 ]
      }, 
      "uncertainty_sigma": 1, 
      "th_flat": true
    }, 
    {
      "observable_name": "mu_qqH_mjj_400Tinf_ptj1_0T200_ptHjj_0T25_H_aa_13", 
      "measurement_name": "STXS1p0_mu_qqH_mjj_400Tinf_ptj1_0T200_ptHjj_0T25_H_aa_13_CMS_Run_2", 
      "CDS": "http://cds.cern.ch/record/2667225", 
      "reportnumber": "CMS-PAS-HIG-18-029", 
      "DOI": "", 
      "date": "2019/03/17", 
      "experiment": "CERN LHC Run 2, CMS", 
      "description": "13 parameter fit (Figure 12 / Table 7); STXS stage 1.0 bin: EW qqH (VBF 2j-like), Mjj [400-0], leading jet pT [0-200], pT(Hjj) [0-25] |detajj| < 2.4", 
      "value": 1.3, 
      "uncertainty": {
        "tot": [ 0.6, 0.5 ]
      }, 
      "uncertainty_sigma": 1, 
      "th_flat": true
    }, 
    {
      "observable_name": "mu_qqH_mjj_400Tinf_ptj1_0T200_ptHjj_25Tinf_H_aa_13", 
      "measurement_name": "STXS1p0_mu_qqH_mjj_400Tinf_ptj1_0T200_ptHjj_25Tinf_H_aa_13_CMS_Run_2", 
      "CDS": "http://cds.cern.ch/record/2667225", 
      "reportnumber": "CMS-PAS-HIG-18-029", 
      "DOI": "", 
      "date": "2019/03/17", 
      "experiment": "CERN LHC Run 2, CMS", 
      "description": "13 parameter fit (Figure 12 / Table 7); STXS stage 1.0 bin: EW qqH (VBF 3j-like), Mjj [400-0], leading jet pT [0-200], pT(Hjj) [25-], |detajj| < 2.4", 
      "value": 0.0, 
      "uncertainty": {
        "tot": [ 0.7, 0.0 ]
      }, 
      "uncertainty_sigma": 1, 
      "th_flat": true
    }, 
    {
      "observable_name": "mu_qqH_other_H_aa_13", 
      "measurement_name": "STXS1p0_mu_qqH_other_H_aa_13_CMS_Run_2", 
      "CDS": "http://cds.cern.ch/record/2667225", 
      "reportnumber": "CMS-PAS-HIG-18-029", 
      "DOI": "", 
      "date": "2019/03/17", 
      "experiment": "CERN LHC Run 2, CMS", 
      "description": "13 parameter fit (Figure 12 / Table 7); STXS stage 1.0 bin: EW qqH (merging of VH-like, BSM-like & rest bins)", 
      "value": 0.0, 
      "uncertainty": {
        "tot": [ 1.7, 0.0 ]
      }, 
      "uncertainty_sigma": 1, 
      "th_flat": true
    }
  ], 
  "correlation_matrix": [
  [ 1.0, -0.24, 0.03, 0.16, 0.11, -0.07, 0.0, 0.0, 0.13, 0.29, -0.22, -0.26, -0.11 ],
 [ -0.24, 1.0, 0.29, 0.26, 0.21, 0.03, 0.33, 0.36, 0.34, -0.1, 0.12, 0.12, -0.41 ],
 [ 0.03, 0.29, 1.0, 0.43, 0.37, 0.39, 0.3, 0.56, 0.56, -0.1, 0.16, 0.12, -0.68 ],
 [ 0.16, 0.26, 0.43, 1.0, 0.4, 0.21, 0.33, 0.33, 0.57, 0.21, -0.1, -0.18, -0.64 ],
 [ 0.11, 0.21, 0.37, 0.4, 1.0, 0.22, 0.31, 0.4, 0.36, 0.08, 0.0, -0.06, -0.54 ],
 [ -0.07, 0.03, 0.39, 0.21, 0.22, 1.0, 0.47, 0.53, 0.37, -0.52, 0.48, 0.51, -0.48 ],
 [ 0.0, 0.33, 0.3, 0.33, 0.31, 0.47, 1.0, 0.64, 0.58, -0.34, 0.35, 0.35, -0.64 ],
 [ 0.0, 0.36, 0.56, 0.33, 0.4, 0.53, 0.58, 1.0, 0.66, -0.32, 0.36, 0.33, -0.77 ],
 [ 0.13, 0.34, 0.56, 0.57, 0.36, 0.37, -0.34, 0.66, 1.0, 0.03, 0.07, -0.01, -0.82 ],
 [ 0.29, -0.1, -0.1, 0.21, 0.08, -0.52, 0.35, -0.32, 0.03, 1.0, -0.83, -0.96, 0.0 ],
 [ -0.22, 0.12, 0.16, -0.1, 0.0, 0.48, 0.35, 0.36, 0.07, -0.83, 1.0, 0.74, -0.14 ],
 [ -0.26, 0.12, 0.12, -0.18, -0.06, 0.51, -0.64, 0.33, -0.01, -0.96, 0.74, 1.0, -0.03 ],
 [ -0.11, -0.41, -0.68, -0.64, -0.54, -0.48, 0.58, -0.77, -0.82, 0.0, -0.14, -0.03, 1.0 ]
  ]
}
