{
  "observable_group_name": "CMS_Run2_Higgs_SignalStrengths", 
  "datafile": "", 
  "description": "Combined Higgs boson production and decay measurements with up to 137 fb-1 of proton-proton collision data at sqrts = 13 TeV", 
  "observables": [
    {
      "observable_name": "mu_ggF_H_aa_13", 
      "measurement_name": "mu_ggF_H_aa_CMS_Run2", 
      "CDS": "http://cds.cern.ch/record/2706103", 
      "reportnumber": "CMS-PAS-HIG-19-005", 
      "DOI": "", 
      "date": "2020/01/10", 
      "experiment": "CERN LHC Run 2, CMS", 
      "description": "Higgs boson signal strength for gluon-gluon fusion production and decay to di-photon (Table 4)", 
      "value": 1.09, 
      "uncertainty": {
        "tot": [ 0.15, 0.14 ]
      }, 
      "uncertainty_sigma": 1, 
      "th_flat": true
    }, 
    {
      "observable_name": "mu_ggF_H_ZZ_13", 
      "measurement_name": "mu_ggF_H_ZZ_CMS_Run2", 
      "CDS": "http://cds.cern.ch/record/2706103", 
      "reportnumber": "CMS-PAS-HIG-19-005", 
      "DOI": "", 
      "date": "2020/01/10", 
      "experiment": "CERN LHC Run 2, CMS", 
      "description": "Higgs boson signal strength for gluon-gluon fusion production and decay to ZZ* (Table 4)", 
      "value": 0.98, 
      "uncertainty": {
        "tot": [ 0.12, 0.11 ]
      }, 
      "uncertainty_sigma": 1, 
      "th_flat": true
    }, 
    {
      "observable_name": "mu_ggF_H_WW_13", 
      "measurement_name": "mu_ggF_H_WW_CMS_Run2", 
      "CDS": "http://cds.cern.ch/record/2706103", 
      "reportnumber": "CMS-PAS-HIG-19-005", 
      "DOI": "", 
      "date": "2020/01/10", 
      "experiment": "CERN LHC Run 2, CMS", 
      "description": "Higgs boson signal strength for gluon-gluon fusion production and decay to WW* (Table 4)", 
      "value": 1.28, 
      "uncertainty": {
        "tot": [ 0.2, 0.19 ]
      }, 
      "uncertainty_sigma": 1, 
      "th_flat": true
    }, 
    {
      "observable_name": "mu_ggF_H_tata_13", 
      "measurement_name": "mu_ggF_H_tata_CMS_Run2", 
      "CDS": "http://cds.cern.ch/record/2706103", 
      "reportnumber": "CMS-PAS-HIG-19-005", 
      "DOI": "", 
      "date": "2020/01/10", 
      "experiment": "CERN LHC Run 2, CMS", 
      "description": "Higgs boson signal strength for gluon-gluon fusion production and decay to tau+ tau- (Table 4)", 
      "value": 0.39, 
      "uncertainty": {
        "tot": [ 0.38, 0.39 ]
      }, 
      "uncertainty_sigma": 1, 
      "th_flat": true
    }, 
    {
      "observable_name": "mu_ggF_H_bb_13", 
      "measurement_name": "mu_ggF_H_bb_CMS_Run2", 
      "CDS": "http://cds.cern.ch/record/2706103", 
      "reportnumber": "CMS-PAS-HIG-19-005", 
      "DOI": "", 
      "date": "2020/01/10", 
      "experiment": "CERN LHC Run 2, CMS", 
      "description": "Higgs boson signal strength for gluon-gluon fusion production and decay to b-bbar (Table 4)", 
      "value": 2.45, 
      "uncertainty": {
        "tot": [ 2.53, 2.35 ]
      }, 
      "uncertainty_sigma": 1, 
      "th_flat": true
    }, 
    {
      "observable_name": "mu_ggF_H_mumu_13", 
      "measurement_name": "mu_ggF_H_mumu_CMS_Run2", 
      "CDS": "http://cds.cern.ch/record/2706103", 
      "reportnumber": "CMS-PAS-HIG-19-005", 
      "DOI": "", 
      "date": "2020/01/10", 
      "experiment": "CERN LHC Run 2, CMS", 
      "description": "Higgs boson signal strength for gluon-gluon fusion production and decay to di-muon (Table 4)", 
      "value": 0.31, 
      "uncertainty": {
        "tot": [ 1.82, 1.81 ]
      }, 
      "uncertainty_sigma": 1, 
      "th_flat": true
    }, 
    {
      "observable_name": "mu_VBF_H_aa_13", 
      "measurement_name": "mu_VBF_H_aa_CMS_Run2", 
      "CDS": "http://cds.cern.ch/record/2706103", 
      "reportnumber": "CMS-PAS-HIG-19-005", 
      "DOI": "", 
      "date": "2020/01/10", 
      "experiment": "CERN LHC Run 2, CMS", 
      "description": "Higgs boson signal strength for vector boson fusion production and decay to di-photon (Table 4)", 
      "value": 0.77, 
      "uncertainty": {
        "tot": [ 0.37, 0.29 ]
      }, 
      "uncertainty_sigma": 1, 
      "th_flat": true
    }, 
    {
      "observable_name": "mu_VBF_H_ZZ_13", 
      "measurement_name": "mu_VBF_H_ZZ_CMS_Run2", 
      "CDS": "http://cds.cern.ch/record/2706103", 
      "reportnumber": "CMS-PAS-HIG-19-005", 
      "DOI": "", 
      "date": "2020/01/10", 
      "experiment": "CERN LHC Run 2, CMS", 
      "description": "Higgs boson signal strength for vector boson fusion production and decay to ZZ* (Table 4)", 
      "value": 0.57, 
      "uncertainty": {
        "tot": [ 0.46, 0.36 ]
      }, 
      "uncertainty_sigma": 1, 
      "th_flat": true
    }, 
    {
      "observable_name": "mu_VBF_H_WW_13", 
      "measurement_name": "mu_VBF_H_WW_CMS_Run2", 
      "CDS": "http://cds.cern.ch/record/2706103", 
      "reportnumber": "CMS-PAS-HIG-19-005", 
      "DOI": "", 
      "date": "2020/01/10", 
      "experiment": "CERN LHC Run 2, CMS", 
      "description": "Higgs boson signal strength for vector boson fusion production and decay to WW* (Table 4)", 
      "value": 0.63, 
      "uncertainty": {
        "tot": [ 0.65, 0.61 ]
      }, 
      "uncertainty_sigma": 1, 
      "th_flat": true
    }, 
    {
      "observable_name": "mu_VBF_H_tata_13", 
      "measurement_name": "mu_VBF_H_tata_CMS_Run2", 
      "CDS": "http://cds.cern.ch/record/2706103", 
      "reportnumber": "CMS-PAS-HIG-19-005", 
      "DOI": "", 
      "date": "2020/01/10", 
      "experiment": "CERN LHC Run 2, CMS", 
      "description": "Higgs boson signal strength for vector boson fusion production and decay to tau+ tau- (Table 4)", 
      "value": 1.05, 
      "uncertainty": {
        "tot": [ 0.3, 0.29 ]
      }, 
      "uncertainty_sigma": 1, 
      "th_flat": true
    }, 
    {
      "observable_name": "mu_VBF_H_mumu_13", 
      "measurement_name": "mu_VBF_H_mumu_CMS_Run2", 
      "CDS": "http://cds.cern.ch/record/2706103", 
      "reportnumber": "CMS-PAS-HIG-19-005", 
      "DOI": "", 
      "date": "2020/01/10", 
      "experiment": "CERN LHC Run 2, CMS", 
      "description": "Higgs boson signal strength for vector boson fusion production and decay to di-muon (Table 4)", 
      "value": 3.18, 
      "uncertainty": {
        "tot": [ 8.22, 7.93 ]
      }, 
      "uncertainty_sigma": 1, 
      "th_flat": true
    }, 
    {
      "observable_name": "mu_VH_H_ZZ_13", 
      "measurement_name": "mu_VH_H_ZZ_CMS_Run2", 
      "CDS": "http://cds.cern.ch/record/2706103", 
      "reportnumber": "CMS-PAS-HIG-19-005", 
      "DOI": "", 
      "date": "2020/01/10", 
      "experiment": "CERN LHC Run 2, CMS", 
      "description": "Higgs boson signal strength for VH production and decay to ZZ* (Table 4)", 
      "value": 1.1, 
      "uncertainty": {
        "tot": [ 0.96, 0.74 ]
      }, 
      "uncertainty_sigma": 1, 
      "th_flat": true
    }, 
    {
      "observable_name": "mu_WH_H_WW_13", 
      "measurement_name": "mu_WH_H_WW_CMS_Run2", 
      "CDS": "http://cds.cern.ch/record/2706103", 
      "reportnumber": "CMS-PAS-HIG-19-005", 
      "DOI": "", 
      "date": "2020/01/10", 
      "experiment": "CERN LHC Run 2, CMS", 
      "description": "Higgs boson signal strength for W-associated production and decay to WW* (Table 4)", 
      "value": 2.85, 
      "uncertainty": {
        "tot": [ 2.11, 1.87 ]
      }, 
      "uncertainty_sigma": 1, 
      "th_flat": true
    }, 
    {
      "observable_name": "mu_WH_H_tata_13", 
      "measurement_name": "mu_WH_H_tata_CMS_Run2", 
      "CDS": "http://cds.cern.ch/record/2706103", 
      "reportnumber": "CMS-PAS-HIG-19-005", 
      "DOI": "", 
      "date": "2020/01/10", 
      "experiment": "CERN LHC Run 2, CMS", 
      "description": "Higgs boson signal strength for W-associated production and decay to tau+ tau- (Table 4)", 
      "value": 3.01, 
      "uncertainty": {
        "tot": [ 1.65, 1.51 ]
      }, 
      "uncertainty_sigma": 1, 
      "th_flat": true
    }, 
    {
      "observable_name": "mu_WH_H_bb_13", 
      "measurement_name": "mu_WH_H_bb_CMS_Run2", 
      "CDS": "http://cds.cern.ch/record/2706103", 
      "reportnumber": "CMS-PAS-HIG-19-005", 
      "DOI": "", 
      "date": "2020/01/10", 
      "experiment": "CERN LHC Run 2, CMS", 
      "description": "Higgs boson signal strength for W-associated production and decay to b-bbar (Table 4)", 
      "value": 1.27, 
      "uncertainty": {
        "tot": [ 0.42, 0.4 ]
      }, 
      "uncertainty_sigma": 1, 
      "th_flat": true
    }, 
    {
      "observable_name": "mu_ZH_H_WW_13", 
      "measurement_name": "mu_ZH_H_WW_CMS_Run2", 
      "CDS": "http://cds.cern.ch/record/2706103", 
      "reportnumber": "CMS-PAS-HIG-19-005", 
      "DOI": "", 
      "date": "2020/01/10", 
      "experiment": "CERN LHC Run 2, CMS", 
      "description": "Higgs boson signal strength for Z-associated production and decay to WW* (Table 4)", 
      "value": 0.9, 
      "uncertainty": {
        "tot": [ 1.77, 1.43 ]
      }, 
      "uncertainty_sigma": 1, 
      "th_flat": true
    }, 
    {
      "observable_name": "mu_ZH_H_tata_13", 
      "measurement_name": "mu_ZH_H_tata_CMS_Run2", 
      "CDS": "http://cds.cern.ch/record/2706103", 
      "reportnumber": "CMS-PAS-HIG-19-005", 
      "DOI": "", 
      "date": "2020/01/10", 
      "experiment": "CERN LHC Run 2, CMS", 
      "description": "Higgs boson signal strength for Z-associated production and decay to tau+ tau- (Table 4)", 
      "value": 1.53, 
      "uncertainty": {
        "tot": [ 1.6, 1.37 ]
      }, 
      "uncertainty_sigma": 1, 
      "th_flat": true
    }, 
    {
      "observable_name": "mu_ZH_H_bb_13", 
      "measurement_name": "mu_ZH_H_bb_CMS_Run2", 
      "CDS": "http://cds.cern.ch/record/2706103", 
      "reportnumber": "CMS-PAS-HIG-19-005", 
      "DOI": "", 
      "date": "2020/01/10", 
      "experiment": "CERN LHC Run 2, CMS", 
      "description": "Higgs boson signal strength for Z-associated production and decay to b-bbar (Table 4)", 
      "value": 0.93, 
      "uncertainty": {
        "tot": [ 0.33, 0.31 ]
      }, 
      "uncertainty_sigma": 1, 
      "th_flat": true
    }, 
    {
      "observable_name": "mu_ttH_H_aa_13", 
      "measurement_name": "mu_ttH_H_aa_CMS_Run2", 
      "CDS": "http://cds.cern.ch/record/2706103", 
      "reportnumber": "CMS-PAS-HIG-19-005", 
      "DOI": "", 
      "date": "2020/01/10", 
      "experiment": "CERN LHC Run 2, CMS", 
      "description": "Higgs boson signal strength for top-pair-associated production and decay to di-photon (Table 4)", 
      "value": 1.62, 
      "uncertainty": {
        "tot": [ 0.52, 0.43 ]
      }, 
      "uncertainty_sigma": 1, 
      "th_flat": true
    }, 
    {
      "observable_name": "mu_ttH_H_ZZ_13", 
      "measurement_name": "mu_ttH_H_ZZ_CMS_Run2", 
      "CDS": "http://cds.cern.ch/record/2706103", 
      "reportnumber": "CMS-PAS-HIG-19-005", 
      "DOI": "", 
      "date": "2020/01/10", 
      "experiment": "CERN LHC Run 2, CMS", 
      "description": "Higgs boson signal strength for top-pair-associated production and decay to ZZ* (Table 4)", 
      "value": 0.25, 
      "uncertainty": {
        "tot": [ 1.03, 0.25 ]
      }, 
      "uncertainty_sigma": 1, 
      "th_flat": true
    }, 
    {
      "observable_name": "mu_ttH_H_WW_13", 
      "measurement_name": "mu_ttH_H_WW_CMS_Run2", 
      "CDS": "http://cds.cern.ch/record/2706103", 
      "reportnumber": "CMS-PAS-HIG-19-005", 
      "DOI": "", 
      "date": "2020/01/10", 
      "experiment": "CERN LHC Run 2, CMS", 
      "description": "Higgs boson signal strength for top-pair-associated production and decay to WW* (Table 4)", 
      "value": 0.93, 
      "uncertainty": {
        "tot": [ 0.48, 0.45 ]
      }, 
      "uncertainty_sigma": 1, 
      "th_flat": true
    }, 
    {
      "observable_name": "mu_ttH_H_bb_13", 
      "measurement_name": "mu_ttH_H_bb_CMS_Run2", 
      "CDS": "http://cds.cern.ch/record/2706103", 
      "reportnumber": "CMS-PAS-HIG-19-005", 
      "DOI": "", 
      "date": "2020/01/10", 
      "experiment": "CERN LHC Run 2, CMS", 
      "description": "Higgs boson signal strength for top-pair-associated production and decay to b-bbar (Table 4)", 
      "value": 1.13, 
      "uncertainty": {
        "tot": [ 0.33, 0.3 ]
      }, 
      "uncertainty_sigma": 1, 
      "th_flat": true
    }, 
    {
      "observable_name": "mu_ttH_H_tata_13", 
      "measurement_name": "mu_ttH_H_tata_CMS_Run2", 
      "CDS": "http://cds.cern.ch/record/2706103", 
      "reportnumber": "CMS-PAS-HIG-19-005", 
      "DOI": "", 
      "date": "2020/01/10", 
      "experiment": "CERN LHC Run 2, CMS", 
      "description": "Higgs boson signal strength for top-pair-associated production and decay to tau+ tau- (Table 4)", 
      "value": 0.81, 
      "uncertainty": {
        "tot": [ 0.74, 0.67 ]
      }, 
      "uncertainty_sigma": 1, 
      "th_flat": true
    }
  ], 
  "correlation_matrix": [
  [ 1.0, 0.13, 0.17, 0.04, 0.0, 0.0, -0.2, -0.01, 0.0, 0.01, 0.02, 0.0, 0.01, 0.01, 0.0, 0.01, 0.01, 0.01, 0.04, 0.0, 0.01, 0.01, 0.0 ],
 [ 0.13, 1.0, 0.19, 0.04, 0.0, 0.0, 0.0, -0.28, 0.0, 0.01, 0.01, -0.09, 0.01, 0.02, 0.0, 0.01, 0.04, 0.0, 0.01, 0.02, 0.01, 0.01, 0.0 ],
 [ 0.17, 0.19, 1.0, 0.01, 0.0, 0.01, 0.01, 0.01, -0.21, 0.03, 0.01, 0.02, -0.11, 0.03, 0.0, -0.02, 0.04, 0.01, 0.01, 0.01, 0.01, 0.01, 0.0 ],
 [ 0.04, 0.04, 0.01, 1.0, 0.0, 0.0, -0.01, 0.0, 0.01, -0.43, 0.01, 0.0, 0.0, -0.02, 0.0, 0.01, -0.02, 0.0, 0.0, 0.0, 0.01, 0.0, -0.01 ],
 [ 0.0, 0.0, 0.0, 0.0, 1.0, 0.0, 0.0, 0.0, 0.0, 0.0, 0.0, 0.0, 0.0, 0.0, -0.01, 0.0, 0.0, -0.01, 0.0, 0.0, 0.0, 0.0, 0.0 ],
 [ 0.0, 0.0, 0.01, 0.0, 0.0, 1.0, 0.0, 0.0, 0.0, 0.0, -0.54, 0.0, 0.0, 0.0, 0.0, 0.0, 0.0, 0.0, 0.0, 0.0, 0.0, 0.0, 0.0 ],
 [ -0.2, 0.0, 0.01, -0.01, 0.0, 0.0, 1.0, -0.01, 0.01, 0.01, 0.0, 0.0, 0.01, 0.0, 0.0, 0.0, 0.0, 0.0, -0.02, 0.0, 0.0, 0.0, 0.0 ],
 [ -0.01, -0.28, 0.01, 0.0, 0.0, 0.0, -0.01, 1.0, -0.02, 0.0, 0.0, 0.02, 0.0, 0.0, 0.0, 0.0, 0.0, 0.0, 0.0, -0.05, 0.01, 0.0, 0.0 ],
 [ 0.0, 0.0, -0.21, 0.01, 0.0, 0.0, 0.01, -0.02, 1.0, -0.1, 0.0, 0.0, 0.01, 0.0, 0.0, 0.0, 0.0, 0.0, 0.0, 0.0, 0.0, 0.0, 0.0 ],
 [ 0.01, 0.01, 0.03, -0.43, 0.0, 0.0, 0.01, 0.0, -0.1, 1.0, 0.0, 0.0, 0.01, 0.01, 0.0, 0.0, 0.01, 0.0, 0.0, 0.0, 0.0, 0.0, 0.01 ],
 [ 0.02, 0.01, 0.01, 0.01, 0.0, -0.54, 0.0, 0.0, 0.0, 0.0, 1.0, 0.0, 0.0, 0.0, 0.0, 0.0, 0.0, 0.0, 0.0, 0.0, 0.0, 0.0, 0.0 ],
 [ 0.0, -0.09, 0.02, 0.0, 0.0, 0.0, 0.0, 0.02, 0.0, 0.0, 0.0, 1.0, 0.0, 0.0, 0.0, 0.0, 0.01, 0.0, 0.0, -0.14, 0.01, 0.0, 0.0 ],
 [ 0.01, 0.01, -0.11, 0.0, 0.0, 0.0, 0.01, 0.0, 0.01, 0.01, 0.0, 0.0, 1.0, -0.11, 0.0, -0.05, 0.01, 0.0, 0.0, 0.0, 0.0, 0.0, 0.0 ],
 [ 0.01, 0.02, 0.03, -0.02, 0.0, 0.0, 0.0, 0.0, 0.0, 0.01, 0.0, 0.0, -0.11, 1.0, 0.0, 0.01, -0.01, 0.0, 0.0, 0.0, 0.0, 0.0, 0.0 ],
 [ 0.0, 0.0, 0.0, 0.0, -0.01, 0.0, 0.0, 0.0, 0.0, 0.0, 0.0, 0.0, 0.0, 0.0, 1.0, 0.0, 0.0, -0.03, 0.0, 0.0, 0.0, 0.0, 0.0 ],
 [ 0.01, 0.01, -0.02, 0.01, 0.0, 0.0, 0.0, 0.0, 0.0, 0.0, 0.0, 0.0, -0.05, 0.01, 0.0, 1.0, -0.13, -0.01, 0.0, 0.0, 0.0, 0.0, 0.0 ],
 [ 0.01, 0.04, 0.04, -0.02, 0.0, 0.0, 0.0, 0.0, 0.0, 0.01, 0.0, 0.01, 0.01, -0.01, 0.0, -0.13, 1.0, 0.0, 0.0, 0.0, 0.0, 0.01, 0.0 ],
 [ 0.01, 0.0, 0.01, 0.0, -0.01, 0.0, 0.0, 0.0, 0.0, 0.0, 0.0, 0.0, 0.0, 0.0, -0.03, -0.01, 0.0, 1.0, 0.0, 0.0, 0.0, 0.0, 0.0 ],
 [ 0.04, 0.01, 0.01, 0.0, 0.0, 0.0, -0.02, 0.0, 0.0, 0.0, 0.0, 0.0, 0.0, 0.0, 0.0, 0.0, 0.0, 0.0, 1.0, 0.0, -0.03, -0.06, -0.02 ],
 [ 0.0, 0.02, 0.01, 0.0, 0.0, 0.0, 0.0, -0.05, 0.0, 0.0, 0.0, -0.14, 0.0, 0.0, 0.0, 0.0, 0.0, 0.0, 0.0, 1.0, -0.09, -0.02, 0.0 ],
 [ 0.01, 0.01, 0.01, 0.01, 0.0, 0.0, 0.0, 0.01, 0.0, 0.0, 0.0, 0.01, 0.0, 0.0, 0.0, 0.0, 0.0, 0.0, -0.03, -0.09, 1.0, 0.05, -0.33 ],
 [ 0.01, 0.01, 0.01, 0.0, 0.0, 0.0, 0.0, 0.0, 0.0, 0.0, 0.0, 0.0, 0.0, 0.0, 0.0, 0.0, 0.01, 0.0, -0.06, -0.02, 0.05, 1.0, 0.03 ],
 [ 0.0, 0.0, 0.0, -0.01, 0.0, 0.0, 0.0, 0.0, 0.0, 0.01, 0.0, 0.0, 0.0, 0.0, 0.0, 0.0, 0.0, 0.0, -0.02, 0.0, -0.33, 0.03, 1.0 ]
  ]
}