{
  "observable_name": "mu_ttH_ptH_0T60_H_Zll", 
  "measurement_name": "mu_ttH_ptH_0T60_H_Zll_ATLAS_Run2", 
  "CDS": "https://cdsweb.cern.ch/record/2725733", 
  "reportnumber": "ATLAS-CONF-2020-027", 
  "date": "03/08/2020", 
  "experiment": "CERN LHC Run 2, ATLAS", 
  "description": "STXS H -> 4l measurements (Fig. 9); STXS H -> 4l measurements (Fig. 9); STXS stage 1.2 bin: ttH, 0 < ptH < 60", 
  "value": 0.72, 
  "uncertainty": {
    "syst": [ 0.13, -0.08 ],
 
    "stat": [ 0.76, -0.64 ]
  }, 
  "uncertainty_sigma": 1, 
  "th_flat": true
}