{
  "observable_name": "mu_ZH_ptV_150T250_H_Zll", 
  "measurement_name": "mu_ZH_ptV_150T250_H_Zll_ATLAS_Run2", 
  "CDS": "https://cdsweb.cern.ch/record/2725733", 
  "reportnumber": "ATLAS-CONF-2020-027", 
  "date": "03/08/2020", 
  "experiment": "CERN LHC Run 2, ATLAS", 
  "description": "STXS H -> 4l measurements (Fig. 9); STXS H -> 4l measurements (Fig. 9); STXS stage 1.2 bin: qq->ZH, 150 < ptV < 250", 
  "value": 1.3, 
  "uncertainty": {
    "syst": [ 0.32, -0.21 ],
 
    "stat": [ 0.7, -0.52 ]
  }, 
  "uncertainty_sigma": 1, 
  "th_flat": true
}