{
   "observable": "mu_VBF_8",
   "params": ["CHl3","Cll","CHD","CHWB","CHu","CHd","CHq3","CHq1","CHbox","CHW","CHB"],
   "linear": [-0.445958,0.2223767,-0.1357524,-0.2642084,-0.01918937,0.005826968,-0.2763712,0.01061695,0.0971372,-0.03344817,-0.0003753538],
   "lambda_gen": 1000
}
