{
   "observable": "dsigma_VBF_13",
   "params": ["CHl3","Cll","CHD","CHWB","CHu","CHd","CHq3","CHq1","CHbox","CHW","CHB"],
   "linear": [-1.062089,0.5289123,-0.3229513,-0.6288939,-0.05180858,0.01694701,-0.7613804,0.02305011,0.2311955,-0.08406507,-0.0008353664],
   "lambda_gen": 1000,
   "doc": "'''SM Vector boson fusion Higgs production cross section @ 13 TeV in pb. Includes cuts on mmjj > 130 GeV & deltaeta > 3.'''"
}
