{
  "observable_name": "mu_dsig_dptZ_ttZ_13TeV_CMS", 
  "measurement_name": "mu_dsig_dptZ_ttZ_13TeV_CMS", 
  "arxiv": "1907.11270", 
  "CDS": "http://cds.cern.ch/record/2684052", 
  "reportnumber": "CMS-TOP-18-009", 
  "DOI": "10.1007/JHEP03(2020)056", 
  "date": "2019/07/26", 
  "experiment": "CERN LHC experiment. CMS collaboration.", 
  "description": "Measurement of top quark pair production in association with a Z boson in proton-proton collisions at $\\sqrt{s} = $ 13 TeV. Measured parton-level, absolute differential cross section with respect to Z-boson pT, Figure 5-a (http://cms-results.web.cern.ch/cms-results/public-results/publications/TOP-18-009/). Normalised to NLO + NNLL prediction on plot. Relative th. and exp. uncertainties combined for signal strength.", 
  "value": [1.063, 1.153, 1.11 , 0.943], 
  "uncertainty": {
    "tot": [0.198, 0.171, 0.173, 0.206]
  }, 
  "uncertainty_sigma": 1, 
  "th_flat": true
}
