{
  "observable_name": "mu_ttH_13TeV", 
  "measurement_name": "mu_ttH_13TeV_ATLAS", 
  "CDS": "https://cds.cern.ch/record/2688596", 
  "reportnumber": "CERN-EP-2019-097", 
  "DOI": "10.1103/PhysRevD.101.012002", 
  "date": "06/09/2019", 
  "experiment": "CERN LHC Run 2, ATLAS", 
  "description": "Higgs boson signal strength for top-pair-associated production (Table 2)", 
  "value": 1.14, 
  "uncertainty": {
    "stat": 0.13,
    "syst": [ 0.17, 0.15 ]
  }, 
  "uncertainty_sigma": 1, 
  "th_flat": true
}