{
  "observable_name": "mu_ttgamma_8TeV", 
  "measurement_name": "mu_ttgamma_8TeV_ATLAS", 
  "arxiv": "1706.03046", 
  "CDS": "http://cds.cern.ch/record/2268389", 
  "reportnumber": "CERN-EP-2017-086", 
  "DOI": "10.1007/JHEP11(2017)086", 
  "date": "2017/06/09", 
  "experiment": "CERN LHC experiment. ATLAS collaboration.", 
  "description": "Measurement of the ttgamma production cross section in proton-proton collisions at sqrt{s}=8 TeV with the ATLAS detector. http://cms-results.web.cern.ch/cms-results/public-results/publications/TOP-14-008/index.html. Measured ttgamma cross section in fiducial region (139+-7(stat.)+-17(syst.)fb), normalised to the quoted theory prediction (151 +- 24 fb), Section 9. Theory uncertainty included in systematics.",
  "value": 0.92,
  "uncertainty": { 
    "stat": 0.046, 
    "syst": 0.185
  },
  "uncertainty_sigma": 1, 
  "th_flat": true
}
