{
  "observable_name": "mu_ttbb_13TeV", 
  "measurement_name": "mu_ttbb_had_13TeV_CMS", 
  "arxiv": "1909.05306", 
  "CDS": "http://cds.cern.ch/record/2689102", 
  "reportnumber": "CMS-TOP-18-011", 
  "DOI": "10.1016/j.physletb.2020.135285", 
  "date": "2019/09/11", 
  "experiment": "CERN LHC Run 2, CMS", 
  "description": "Measurement of the $\\mathrm{t\\bar{t}}\\mathrm{b\\bar{b}}$ production cross section in the all-jet final state in pp collisions at $\\sqrt{s} = $ 13 TeV. Measured full phase space ttbb cross section normalised to MG5_aMC+FxFx (5FS) prediction, Table 2.", 
  "value": 1.53, 
  "uncertainty": {
    "stat": 0.083,
    "syst": [0.44, 0.36]
  }, 
  "uncertainty_sigma": 1, 
  "th_flat": true
}