{
  "observable_name": "mu_tttt_13TeV", 
  "measurement_name": "mu_tttt_SS_ML_13TeV_CMS", 
  "arxiv": "1908.06463", 
  "CDS": "http://cds.cern.ch/record/2686802", 
  "reportnumber": "CMS-TOP-18-003", 
  "DOI": [
    "10.1140/epjc/s10052-019-7593-7", 
    "10.1140/epjc/s10052-019-7593-7"
  ], 
  "date": "2019/08/18", 
  "experiment": "CERN LHC Run 2, CMS", 
  "description": "Search for production of four top quarks in final states with same-sign or multiple leptons in proton-proton collisions at $\\sqrt{s}= $ 13 TeV. Measured tttt cross section normalised to theory prediction of 12.0 fb in the paper.", 
  "value": 1.05, 
  "uncertainty": {
    "tot": [0.48, 0.43]
  }, 
  "uncertainty_sigma": 1, 
  "th_flat": true
}