{
  "observable_name": "mu_ttZ_13TeV", 
  "measurement_name": "mu_ttZ_13TeV_ATLAS", 
  "arxiv": "1901.03584", 
  "CDS": "http://cds.cern.ch/record/2653428", 
  "reportnumber": "CERN-EP-2018-331", 
  "DOI": "10.1103/PhysRevD.99.072009", 
  "date": "2019/01/11", 
  "experiment": "CERN LHC Run 2, ATLAS", 
  "description": "Measurement of the $t\\bar{t}Z$ and $t\\bar{t}W$ cross sections in proton-proton collisions at $\\sqrt{s}=13$ TeV with the ATLAS detector. Measured ttZ signal strength.", 
  "value": 1.08, 
  "uncertainty": {
    "tot": 0.14
  }, 
  "uncertainty_sigma": 1, 
  "th_flat": true
}