{
  "observable_name": "mu_ttH_13TeV", 
  "measurement_name": "mu_ttH_13TeV_CMS", 
  "arxiv": "1804.02610", 
  "CDS": "", 
  "reportnumber": "", 
  "DOI": "", 
  "date": "", 
  "experiment": "CERN LHC Run 2, CMS", 
  "description": "ttH signal strength from SMEFiT", 
  "value": 1.14, 
  "uncertainty": {
    "tot": [0.31,0.27]
  }, 
  "uncertainty_sigma": 1, 
  "th_flat": true
}
