{
  "observable_group_name": "comb_mu_ATLAS_Run2", 
  "datafile": "", 
  "description": "Combined measurements of Higgs boson production and decay using up to 80fb−1 of proton-proton collision data at $\\sqrt{s}$ = 13 TeV collected with the ATLAS experiment (Figs 20 & 21)",
  "observables": [
    {
      "observable_name": "mu_ggH_ZZ_ATLAS_Run2", 
      "measurement_name": "mu_ggF-0j_H_ZZ_ATLAS_Run2", 
      "datafile": "mu_ggF-0j_H_ZZ_ATLAS_Run2.json", 
      "CDS": "http://cds.cern.ch/record/2688596", 
      "reportnumber": "CERN-EP-2019-097", 
      "DOI": "10.1103/PhysRevD.101.012002", 
      "date": "2019/09/09", 
      "experiment": "CERN LHC Run 2, ATLAS", 
      "description": "Combined measurements of Higgs boson production and decay using up to 80fb−1 of proton-proton collision data at $\\sqrt{s}$ = 13 TeV collected with the ATLAS experiment",
      "value": 1.30, 
      "uncertainty": {
        "tot":0.185  
      }, 
      "uncertainty_sigma": 1, 
      "th_flat": true
    },
    { 
      "observable_name": "mu_ggjH_pt30T60_ZZ_ATLAS_Run2",              
      "measurement_name": "mu_ggF-1j-pt-low_H_ZZ_ATLAS_Run2",             
      "datafile": "mu_ggF-1j-pt-low_H_ZZ_ATLAS_Run2.json",             
      "CDS": "http://cds.cern.ch/record/2688596",
      "reportnumber": "CERN-EP-2019-097",   
      "DOI": "10.1103/PhysRevD.101.012002",
      "date": "2019/09/09", 
      "experiment": "CERN LHC Run 2, ATLAS", 
      "description": "Combined measurements of Higgs boson production and decay using up to 80fb−1 of proton-proton collision data at $\\sqrt{s}$ = 13 TeV collected with the ATLAS experiment",
      "value": 1.16,                  
      "uncertainty": {
        "tot": 0.55
      }, 
      "uncertainty_sigma": 1,
      "th_flat": true
    },
    {   
      "observable_name": "mu_ggjH_pt60T120_ZZ_ATLAS_Run2",
      "measurement_name": "mu_ggF-1j-pt-lowermed_H_ZZ_ATLAS_Run2",
      "datafile": "mu_ggF-1j-pt-lowermed_H_ZZ_ATLAS_Run2.json",
      "CDS": "http://cds.cern.ch/record/2688596",
      "reportnumber": "CERN-EP-2019-097",
      "DOI": "10.1103/PhysRevD.101.012002",
      "date": "2019/09/09",
      "experiment": "CERN LHC Run 2, ATLAS",
      "description": "Combined measurements of Higgs boson production and decay using up to 80fb−1 of proton-proton collision data at $\\sqrt{s}$ = 13 TeV collected with the ATLAS experiment",
      "value": 1.36,
      "uncertainty": {
        "tot":0.58
      },
      "uncertainty_sigma": 1,
      "th_flat": true
    },
    {   
      "observable_name": "mu_ggjH_pt120T200_ZZ_ATLAS_Run2",
      "measurement_name": "mu_ggF-1j-pt-uppermed_H_ZZ_ATLAS_Run2",
      "datafile": "mu_ggF-1j-pt-uppermed_H_ZZ_ATLAS_Run2.json",
      "CDS": "http://cds.cern.ch/record/2688596",
      "reportnumber": "CERN-EP-2019-097",
      "DOI": "10.1103/PhysRevD.101.012002",
      "date": "2019/09/09",
      "experiment": "CERN LHC Run 2, ATLAS",
      "description": "Combined measurements of Higgs boson production and decay using up to 80fb−1 of proton-proton collision data at $\\sqrt{s}$ = 13 TeV collected with the ATLAS experiment",
      "value": 2.39,
      "uncertainty": {
        "tot":1.035
      },
      "uncertainty_sigma": 1,
      "th_flat": true
    },
    {   
      "observable_name": "mu_ggjH_ptG200_ZZ_ATLAS_Run2",
      "measurement_name": "mu_ggF-1j-pt-high_H_ZZ_ATLAS_Run2",
      "datafile": "mu_ggF-1j-pt-high_H_ZZ_ATLAS_Run2.json",
      "CDS": "http://cds.cern.ch/record/2688596",
      "reportnumber": "CERN-EP-2019-097",
      "DOI": "10.1103/PhysRevD.101.012002",
      "date": "2019/09/09",
      "experiment": "CERN LHC Run 2, ATLAS",
      "description": "Combined measurements of Higgs boson production and decay using up to 80fb−1 of proton-proton collision data at $\\sqrt{s}$ = 13 TeV collected with the ATLAS experiment",
      "value": 1.52,
      "uncertainty": {
        "tot":1.235
      },
      "uncertainty_sigma": 1,
      "th_flat": true
    },
    {   
      "observable_name": "mu_ggjjH_pt30T60_ZZ_ATLAS_Run2",
      "measurement_name": "mu_ggF-2j-pt-low_H_ZZ_ATLAS_Run2",
      "datafile": "mu_ggF-2j-pt-low_H_ZZ_ATLAS_Run2.json",
      "CDS": "http://cds.cern.ch/record/2688596",
      "reportnumber": "CERN-EP-2019-097",
      "DOI": "10.1103/PhysRevD.101.012002",
      "date": "2019/09/09",
      "experiment": "CERN LHC Run 2, ATLAS",
      "description": "Combined measurements of Higgs boson production and decay using up to 80fb−1 of proton-proton collision data at $\\sqrt{s}$ = 13 TeV collected with the ATLAS experiment",
      "value": 0.71 ,
      "uncertainty": {
        "tot": 2.22
      },
      "uncertainty_sigma": 1,
      "th_flat": true
    },
    {   
      "observable_name": "mu_ggjjH_pt60T120_ZZ_ATLAS_Run2",
      "measurement_name": "mu_ggF-2j-pt-lowermed_H_ZZ_ATLAS_Run2",
      "datafile": "mu_ggF-2j-pt-lowermed_H_ZZ_ATLAS_Run2.json",
      "CDS": "http://cds.cern.ch/record/2688596",
      "reportnumber": "CERN-EP-2019-097",
      "DOI": "10.1103/PhysRevD.101.012002",
      "date": "2019/09/09",
      "experiment": "CERN LHC Run 2, ATLAS",
      "description": "Combined measurements of Higgs boson production and decay using up to 80fb−1 of proton-proton collision data at $\\sqrt{s}$ = 13 TeV collected with the ATLAS experiment",
      "value": 2.12,
      "uncertainty": {
        "tot": 1.215
      },
      "uncertainty_sigma": 1,
      "th_flat": true
    },
    {
      "observable_name": "mu_ggjjH_pt120T200_ZZ_ATLAS_Run2",
      "measurement_name": "mu_ggF-2j-pt-uppermed_H_ZZ_ATLAS_Run2",
      "datafile": "mu_ggF-2j-pt-uppermed_H_ZZ_ATLAS_Run2.json",
      "CDS": "http://cds.cern.ch/record/2688596",
      "reportnumber": "CERN-EP-2019-097",
      "DOI": "10.1103/PhysRevD.101.012002",
      "date": "2019/09/09",
      "experiment": "CERN LHC Run 2, ATLAS",
      "description": "Combined measurements of Higgs boson production and decay using up to 80fb−1 of proton-proton collision data at $\\sqrt{s}$ = 13 TeV collected with the ATLAS experiment", 
      "value": 1.21,
      "uncertainty": {
        "tot": 0.99
      },
      "uncertainty_sigma": 1,
      "th_flat": true
    },
    {
      "observable_name": "mu_ggjjH_ptG200_ZZ_ATLAS_Run2",
      "measurement_name": "mu_ggF-2j-pt-high_H_ZZ_ATLAS_Run2",
      "datafile": "mu_ggF-2j-pt-high_H_ZZ_ATLAS_Run2.json",
      "CDS": "http://cds.cern.ch/record/2688596",
      "reportnumber": "CERN-EP-2019-097",
      "DOI": "10.1103/PhysRevD.101.012002",
      "date": "2019/09/09",
      "experiment": "CERN LHC Run 2, ATLAS",
      "description": "Combined measurements of Higgs boson production and decay using up to 80fb−1 of proton-proton collision data at $\\sqrt{s}$ = 13 TeV collected with the ATLAS experiment", 
      "value": 3.19,
      "uncertainty": {
        "tot": 1.17
      },
      "uncertainty_sigma": 1,
      "th_flat": true
    },
    {
      "observable_name": "mu_gg_VBF_H_ZZ_ATLAS_Run2",
      "measurement_name": "mu_gg_VBF_H_ZZ_ATLAS_Run2",
      "datafile": "mu_gg_VBF_H_ZZ_ATLAS_Run2.json",
      "CDS": "http://cds.cern.ch/record/2688596",
      "reportnumber": "CERN-EP-2019-097",
      "DOI": "10.1103/PhysRevD.101.012002",
      "date": "2019/09/09",
      "experiment": "CERN LHC Run 2, ATLAS",
      "description": "Combined measurements of Higgs boson production and decay using up to 80fb−1 of proton-proton collision data at $\\sqrt{s}$ = 13 TeV collected with the ATLAS experiment", 
      "value": 6.90,
      "uncertainty": {
        "tot": 2.79
      },
      "uncertainty_sigma": 1,
      "th_flat": true
    },
    {
      "observable_name": "mu_qq_VBF_H_ZZ_ATLAS_Run2",
      "measurement_name": "mu_qq_VBF_H_ZZ_ATLAS_Run2",
      "datafile": "mu_qq_VBF_H_ZZ_ATLAS_Run2.json",
      "CDS": "http://cds.cern.ch/record/2688596",
      "reportnumber": "CERN-EP-2019-097",
      "DOI": "10.1103/PhysRevD.101.012002",
      "date": "2019/09/09",
      "experiment": "CERN LHC Run 2, ATLAS",
      "description": "Combined measurements of Higgs boson production and decay using up to 80fb−1 of proton-proton collision data at $\\sqrt{s}$ = 13 TeV collected with the ATLAS experiment",
      "value": 0.92,
      "uncertainty": {
        "tot": 0.45
      },
      "uncertainty_sigma": 1,
      "th_flat": true
    },
    {
      "observable_name": "mu_qq_VH_H_ZZ_ATLAS_Run2",
      "measurement_name": "mu_qq_VH_H_ZZ_ATLAS_Run2",
      "datafile": "mu_qq_VH_H_ZZ_ATLAS_Run2.json",
      "CDS": "http://cds.cern.ch/record/2688596",
      "reportnumber": "CERN-EP-2019-097",
      "DOI": "10.1103/PhysRevD.101.012002",
      "date": "2019/09/09",
      "experiment": "CERN LHC Run 2, ATLAS",
      "description": "Combined measurements of Higgs boson production and decay using up to 80fb−1 of proton-proton collision data at $\\sqrt{s}$ = 13 TeV collected with the ATLAS experiment",
      "value": -0.34,
      "uncertainty": { 
        "tot": 1.415
      },
      "uncertainty_sigma": 1,
      "th_flat": true
    },
    {
      "observable_name": "mu_qqHjj_H_ZZ_ATLAS_Run2",
      "measurement_name": "mu_qqHjj_H_ZZ_ATLAS_Run2",
      "datafile": "mu_qqHjj_H_ZZ_ATLAS_Run2.json",
      "CDS": "http://cds.cern.ch/record/2688596",
      "reportnumber": "CERN-EP-2019-097",
      "DOI": "10.1103/PhysRevD.101.012002",
      "date": "2019/09/09",
      "experiment": "CERN LHC Run 2, ATLAS",
      "description": "Combined measurements of Higgs boson production and decay using up to 80fb−1 of proton-proton collision data at $\\sqrt{s}$ = 13 TeV collected with the ATLAS experiment",
      "value": -2.70,
      "uncertainty": {
        "tot": 2.695
      },
      "uncertainty_sigma": 1,
      "th_flat": true
    },
    {
      "observable_name": "mu_qqHjj_ptG250_H_ZZ_ATLAS_Run2",
      "measurement_name": "mu_qq_Hqq-pt-high_H_ZZ_ATLAS_Run2",
      "datafile": "mu_qq_Hqq-pt-high_H_ZZ_ATLAS_Run2.json",
      "CDS": "http://cds.cern.ch/record/2688596",
      "reportnumber": "CERN-EP-2019-097",
      "DOI": "10.1103/PhysRevD.101.012002",
      "date": "2019/09/09",
      "experiment": "CERN LHC Run 2, ATLAS",
      "description": "Combined measurements of Higgs boson production and decay using up to 80fb−1 of proton-proton collision data at $\\sqrt{s}$ = 13 TeV collected with the ATLAS experiment",
      "value": -1.67,
      "uncertainty": {
        "tot": 1.79
      },
      "uncertainty_sigma": 1,
      "th_flat": true
    },
    {
      "observable_name": "mu_VH_pt150T250_V_lv_H_ZZ_ATLAS_Run2",
      "measurement_name": "mu_VH-pt-med_V_lv_H_ZZ_ATLAS_Run2",
      "datafile": "mu_VH-pt-med_V_lv_H_ZZ_ATLAS_Run2.json",
      "CDS": "http://cds.cern.ch/record/2688596",
      "reportnumber": "CERN-EP-2019-097",
      "DOI": "10.1103/PhysRevD.101.012002",
      "date": "2019/09/09",
      "experiment": "CERN LHC Run 2, ATLAS",
      "description": "Combined measurements of Higgs boson production and decay using up to 80fb−1 of proton-proton collision data at $\\sqrt{s}$ = 13 TeV collected with the ATLAS experiment",
      "value": 2.20,
      "uncertainty": {
        "tot": 1.87
      },
      "uncertainty_sigma": 1,
      "th_flat": true
    },
    {
      "observable_name": "mu_VH_ptG250_V_lv_H_ZZ_ATLAS_Run2",
      "measurement_name": "mu_VH-pt-high_V_lv_H_ZZ_ATLAS_Run2",
      "datafile": "mu_VH-pt-high_V_lv_H_ZZ_ATLAS_Run2.json",
      "CDS": "http://cds.cern.ch/record/2688596",
      "reportnumber": "CERN-EP-2019-097",
      "DOI": "10.1103/PhysRevD.101.012002",
      "date": "2019/09/09",
      "experiment": "CERN LHC Run 2, ATLAS",
      "description": "Combined measurements of Higgs boson production and decay using up to 80fb−1 of proton-proton collision data at $\\sqrt{s}$ = 13 TeV collected with the ATLAS experiment",
      "value": 1.99,
      "uncertainty": {
        "tot": 1.86
      },
      "uncertainty_sigma": 1,
      "th_flat": true
    },
    {
      "observable_name": "mu_VH_pt30T150_V_lv_H_ZZ_ATLAS_Run2",
      "measurement_name": "mu_VH-pt-low_V_lv_H_ZZ_ATLAS_Run2",
      "datafile": "mu_VH-pt-low_V_lv_H_ZZ_ATLAS_Run2.json",
      "CDS": "http://cds.cern.ch/record/2688596",
      "reportnumber": "CERN-EP-2019-097",
      "DOI": "10.1103/PhysRevD.101.012002",
      "date": "2019/09/09",
      "experiment": "CERN LHC Run 2, ATLAS",
      "description": "Combined measurements of Higgs boson production and decay using up to 80fb−1 of proton-proton collision data at $\\sqrt{s}$ = 13 TeV collected with the ATLAS experiment",
      "value": 2.57,
      "uncertainty": {
        "tot": 1.705
      },
      "uncertainty_sigma": 1,
      "th_flat": true
    },
    {
      "observable_name": "mu_VH_pt30T150_V_ll_H_ZZ_ATLAS_Run2",
      "measurement_name": "mu_VH_pt-low_V_ll_H_ZZ_ATLAS_Run2",
      "datafile": "mu_VH-pt-low_V_ll_H_ZZ_ATLAS_Run2.json",
      "CDS": "http://cds.cern.ch/record/2688596",
      "reportnumber": "CERN-EP-2019-097",
      "DOI": "10.1103/PhysRevD.101.012002",
      "date": "2019/09/09",
      "experiment": "CERN LHC Run 2, ATLAS",
      "description": "Combined measurements of Higgs boson production and decay using up to 80fb−1 of proton-proton collision data at $\\sqrt{s}$ = 13 TeV collected with the ATLAS experiment",
      "value": 0.89,
      "uncertainty": {
        "tot": 1.495
      },
      "uncertainty_sigma": 1,
      "th_flat": true
    },
    {
      "observable_name": "mu_VH_pt150T250_V_ll_H_ZZ_ATLAS_Run2",
      "measurement_name": "mu_VH-pt-med_V_ll_H_ZZ_ATLAS_Run2",
      "datafile": "mu_VH-pt-med_V_ll_H_ZZ_ATLAS_Run2.json",
      "CDS": "http://cds.cern.ch/record/2688596",
      "reportnumber": "CERN-EP-2019-097",
      "DOI": "10.1103/PhysRevD.101.012002",
      "date": "2019/09/09",
      "experiment": "CERN LHC Run 2, ATLAS",
      "description": "Combined measurements of Higgs boson production and decay using up to 80fb−1 of proton-proton collision data at $\\sqrt{s}$ = 13 TeV collected with the ATLAS experiment",
      "value": 0.90,
      "uncertainty": {
        "tot": 1.275
      },
      "uncertainty_sigma": 1,
      "th_flat": true
    },
    {
      "observable_name": "mu_VH_ptG250_V_ll_H_ZZ_ATLAS_Run2",
      "measurement_name": "mu_VH-pt-high_V_ll_H_ZZ_ATLAS_Run2",
      "datafile": "mu_VH-pt-high_V_ll_H_ZZ_ATLAS_Run2.json",
      "CDS": "http://cds.cern.ch/record/2688596",
      "reportnumber": "CERN-EP-2019-097",
      "DOI": "10.1103/PhysRevD.101.012002",
      "date": "2019/09/09",
      "experiment": "CERN LHC Run 2, ATLAS",
      "description": "Combined measurements of Higgs boson production and decay using up to 80fb−1 of proton-proton collision data at $\\sqrt{s}$ = 13 TeV collected with the ATLAS experiment",
      "value": 2.99,
      "uncertainty": {
        "tot": 2.52
      },
      "uncertainty_sigma": 1,
      "th_flat": true
    },
    {
      "observable_name": "mu_ttH_H_ZZ_ATLAS_Run2",
      "measurement_name": "mu_ttH_H_ZZ_ATLAS_Run2",
      "datafile": "mu_ttH_H_ZZ_ATLAS_Run2.json",
      "CDS": "http://cds.cern.ch/record/2688596",
      "reportnumber": "CERN-EP-2019-097",
      "DOI": "10.1103/PhysRevD.101.012002",
      "date": "2019/09/09",
      "experiment": "CERN LHC Run 2, ATLAS",
      "description": "Combined measurements of Higgs boson production and decay using up to 80fb−1 of proton-proton collision data at $\\sqrt{s}$ = 13 TeV collected with the ATLAS experiment",
      "value": 1.48,
      "uncertainty": {
        "tot": 0.37
      },
      "uncertainty_sigma": 1,
      "th_flat": true
    },
    {  
      "observable_name": "mu_aaOverZZ_ATLAS_Run2",
      "measurement_name": "mu_aaOverZZ_ATLAS_80fb-1_Run2",
      "datafile": "mu_aaOverZZ_ATLAS_Run2.json",
      "CDS": "http://cds.cern.ch/record/2688596",
      "reportnumber": "CERN-EP-2019-097",
      "DOI": "10.1103/PhysRevD.101.012002",
      "date": "2019/09/09",
      "experiment": "CERN LHC Run 2, ATLAS",
      "description": "Combined measurements of Higgs boson production and decay using up to 80fb−1 of proton-proton collision data at $\\sqrt{s}$ = 13 TeV collected with the ATLAS experiment",
      "value": 0.81,
      "uncertainty": {
        "tot": 0.13
      },
      "uncertainty_sigma": 1,
      "th_flat": true
    },
    {   
      "observable_name": "mu_bbOverZZ_ATLAS_Run2",
      "measurement_name": "mu_bbOverZZ_ATLAS_80fb-1_Run2",
      "datafile": "mu_bbOverZZ_ATLAS_Run2.json",
      "CDS": "http://cds.cern.ch/record/2688596",
      "reportnumber": "CERN-EP-2019-097",
      "DOI": "10.1103/PhysRevD.101.012002",
      "date": "2019/09/09", 
      "experiment": "CERN LHC Run 2, ATLAS",
      "description": "Combined measurements of Higgs boson production and decay using up to 80fb−1 of proton-proton collision data at $\\sqrt{s}$ = 13 TeV collected with the ATLAS experiment",
      "value": 0.61,
      "uncertainty": { 
        "tot": 0.34
      },
      "uncertainty_sigma": 1,
      "th_flat": true
    },
    {
      "observable_name": "mu_WWOverZZ_ATLAS_Run2",
      "measurement_name": "mu_WWOverZZ_ATLAS_80fb-1_Run2",
      "datafile": "mu_WWOverZZ_ATLAS_Run2.json",
      "CDS": "http://cds.cern.ch/record/2688596",
      "reportnumber": "CERN-EP-2019-097",
      "DOI": "10.1103/PhysRevD.101.012002",
      "date": "2019/09/09",
      "experiment": "CERN LHC Run 2, ATLAS",
      "description": "Combined measurements of Higgs boson production and decay using up to 80fb−1 of proton-proton collision data at $\\sqrt{s}$ = 13 TeV collected with the ATLAS experiment",
      "value": 0.93,
      "uncertainty": {
        "tot": 0.185
      },
      "uncertainty_sigma": 1,
      "th_flat": true
    },
    {
      "observable_name": "mu_tataOverZZ_ATLAS_Run2",
      "measurement_name": "mu_tataOverZZ_ATLAS_80fb-1_Run2",
      "datafile": "mu_tataOverZZ_ATLAS_Run2.json",
      "CDS": "http://cds.cern.ch/record/2688596",
      "reportnumber": "CERN-EP-2019-097",
      "DOI": "10.1103/PhysRevD.101.012002",
      "date": "2019/09/09",
      "experiment": "CERN LHC Run 2, ATLAS",
      "description": "Combined measurements of Higgs boson production and decay using up to 80fb−1 of proton-proton collision data at $\\sqrt{s}$ = 13 TeV collected with the ATLAS experiment",
      "value": 0.78,
      "uncertainty": {
        "tot": 0.26
      },
      "uncertainty_sigma": 1,
      "th_flat": true
    }
  ],
  "correlation_matrix": [[ 1.0, -0.05,  0.29,  0.28,  0.12, -0.06,  0.04,  0.12,  0.25,
         0.1 ,  0.22, -0.03, -0.15, -0.06,  0.09,  0.15,  0.15,  0.03,
         0.09,  0.16,  0.37, -0.53, -0.19, -0.55, -0.24],
       [-0.05,  1.0  ,  0.32,  0.32,  0.13,  0.0  ,  0.4 ,  0.38,  0.32,
         0.38,  0.07, -0.22, -0.59, -0.21,  0.02,  0.04,  0.05,  0.01,
         0.02,  0.06,  0.14, -0.2 , -0.07, -0.09, -0.15],
       [ 0.29,  0.32,  1.0  ,  0.51,  0.18,  0.27,  0.08,  0.45,  0.36,
         0.28,  0.14, -0.21, -0.74, -0.21,  0.03,  0.07,  0.07,  0.01,
         0.04,  0.08,  0.17, -0.26, -0.09, -0.16, -0.15],
       [ 0.28,  0.32,  0.51,  1.0  ,  0.08,  0.18,  0.27,  0.21,  0.35,
         0.27,  0.12, -0.16, -0.63, -0.17,  0.04,  0.07,  0.08,  0.01,
         0.05,  0.09,  0.2 , -0.29, -0.11, -0.15, -0.22],
       [ 0.12,  0.13,  0.18,  0.08,  1.0  ,  0.06,  0.1 ,  0.16,  0.14,
         0.14,  0.15, -0.08, -0.22, -0.41,  0.03,  0.02,  0.03,  0.02,
         0.02,  0.03,  0.11, -0.18, -0.04, -0.06, -0.2 ],
       [-0.06,  0.0  ,  0.27,  0.18,  0.06,  1.0 ,  0.0  ,  0.15,  0.1 ,
         0.14,  0.05, -0.13, -0.37, -0.12, -0.02, -0.01, -0.01, -0.01,
        -0.01, -0.01, -0.03,  0.02,  0.01,  0.1 , -0.01],
       [ 0.04,  0.4 ,  0.08,  0.27,  0.1 ,  0.0  ,  1.0  ,  0.19,  0.24,
         0.29,  0.07, -0.33, -0.46, -0.19,  0.03,  0.04,  0.04,  0.02,
         0.02,  0.05,  0.09, -0.18, -0.06,  0.0, -0.06],
       [ 0.12,  0.38,  0.45,  0.21,  0.16,  0.15,  0.19,  1.0  ,  0.25,
         0.27,  0.11, -0.48, -0.57, -0.22,  0.03,  0.04,  0.05,  0.01,
         0.03,  0.05,  0.11, -0.21, -0.06, -0.03, -0.2 ],
       [ 0.25,  0.32,  0.36,  0.35,  0.14,  0.1 ,  0.24,  0.25,  1.0  ,
         0.29,  0.18, -0.29, -0.44, -0.52,  0.08,  0.08,  0.09,  0.04,
         0.05,  0.1 ,  0.23, -0.42, -0.12, -0.13, -0.42],
       [ 0.1 ,  0.38,  0.28,  0.27,  0.14,  0.14,  0.29,  0.27,  0.29,
         1.0  , -0.49, -0.1 , -0.49, -0.19,  0.07,  0.08,  0.08,  0.03,
         0.05,  0.1 ,  0.19, -0.38, -0.12,  0.01, -0.29],
       [ 0.22,  0.07,  0.14,  0.12,  0.15,  0.05,  0.07,  0.11,  0.18,
        -0.49,  1.0  , -0.08, -0.08, -0.27,  0.03,  0.04,  0.05,  0.02,
         0.03,  0.05,  0.15, -0.16, -0.06, -0.31, -0.06],
       [-0.03, -0.22, -0.21, -0.16, -0.08, -0.13, -0.33, -0.48, -0.29,
        -0.1 , -0.08,  1.0  ,  0.33,  0.18, -0.01, -0.01, -0.01, -0.01,
        -0.01, -0.01, -0.03,  0.07,  0.02, -0.01,  0.06],
       [-0.15, -0.59, -0.74, -0.63, -0.22, -0.37, -0.46, -0.57, -0.44,
        -0.49, -0.08,  0.33,  1.0  ,  0.32, -0.04, -0.05, -0.05, -0.01,
        -0.03, -0.06, -0.12,  0.21,  0.07,  0.0  ,  0.17],
       [-0.06, -0.21, -0.21, -0.17, -0.41, -0.12, -0.19, -0.22, -0.52,
        -0.19, -0.27,  0.18,  0.32,  1.0  , -0.04, -0.03, -0.03, -0.02,
        -0.02, -0.04, -0.08,  0.17,  0.05, -0.03,  0.04],
       [ 0.09,  0.02,  0.03,  0.04,  0.03, -0.02,  0.03,  0.03,  0.08,
         0.07,  0.03, -0.01, -0.04, -0.04,  1.0  , -0.11,  0.0  , -0.05,
         0.0  , -0.03,  0.04, -0.16,  0.04, -0.06, -0.06],
       [ 0.15,  0.04,  0.07,  0.07,  0.02, -0.01,  0.04,  0.04,  0.08,
         0.08,  0.04, -0.01, -0.05, -0.03, -0.11,  1.0  ,  0.19, -0.14,
         0.1 ,  0.54,  0.22, -0.2 , -0.61, -0.12, -0.1 ],
       [ 0.15,  0.05,  0.07,  0.08,  0.03, -0.01,  0.04,  0.05,  0.09,
         0.08,  0.05, -0.01, -0.05, -0.03,  0.0  ,  0.19,  1.0  , -0.19,
         0.24,  0.51,  0.26, -0.2 , -0.72, -0.13, -0.11],
       [ 0.03,  0.01,  0.01,  0.01,  0.02, -0.01,  0.02,  0.01,  0.04,
         0.03,  0.02, -0.01, -0.01, -0.02, -0.05, -0.14, -0.19,  1.0  ,
        -0.06, -0.2 , -0.02, -0.08,  0.25, -0.02, -0.02],
       [ 0.09,  0.02,  0.04,  0.05,  0.02, -0.01,  0.02,  0.03,  0.05,
         0.05,  0.03, -0.01, -0.03, -0.02,  0.0  ,  0.1 ,  0.24, -0.06,
         1.0  , -0.12,  0.12, -0.13, -0.26, -0.07, -0.06],
       [ 0.16,  0.06,  0.08,  0.09,  0.03, -0.01,  0.05,  0.05,  0.1 ,
         0.1 ,  0.05, -0.01, -0.06, -0.04, -0.03,  0.54,  0.51, -0.2 ,
        -0.12,  1.0  ,  0.29, -0.21, -0.8 , -0.14, -0.12],
       [ 0.37,  0.14,  0.17,  0.2 ,  0.11, -0.03,  0.09,  0.11,  0.23,
         0.19,  0.15, -0.03, -0.12, -0.08,  0.04,  0.22,  0.26, -0.02,
         0.12,  0.29,  1.0  , -0.46, -0.36, -0.41, -0.34],
       [-0.53, -0.2 , -0.26, -0.29, -0.18,  0.02, -0.18, -0.21, -0.42,
        -0.38, -0.16,  0.07,  0.21,  0.17, -0.16, -0.2 , -0.2 , -0.08,
        -0.13, -0.21, -0.46,  1.0  ,  0.27,  0.41,  0.41],
       [-0.19, -0.07, -0.09, -0.11, -0.04,  0.01, -0.06, -0.06, -0.12,
        -0.12, -0.06,  0.02,  0.07,  0.05,  0.04, -0.61, -0.72,  0.25,
        -0.26, -0.8 , -0.36,  0.27,  1.0  ,  0.18,  0.15],
       [-0.55, -0.09, -0.16, -0.15, -0.06,  0.1 ,  0.0  , -0.03, -0.13,
         0.01, -0.31, -0.01,  0.0  , -0.03, -0.06, -0.12, -0.13, -0.02,
        -0.07, -0.14, -0.41,  0.41,  0.18,  1.0  ,  0.19],
       [-0.24, -0.15, -0.15, -0.22, -0.2 , -0.01, -0.06, -0.2 , -0.42,
        -0.29, -0.06,  0.06,  0.17,  0.04, -0.06, -0.1 , -0.11, -0.02,
        -0.06, -0.12, -0.34,  0.41,  0.15,  0.19,  1.0  ]]
}
