{
   "observable_name": "mu_qq_VH_H_ZZ_ATLAS_Run2", 
   "measurement_name": "mu_qq_VH_H_ZZ_ATLAS_Run2", 
   "datafile": "mu_qq_VH_H_ZZ_ATLAS_Run2.json", 
   "CDS": "http://cds.cern.ch/record/2688596", 
   "reportnumber": "CERN-EP-2019-097", 
   "DOI": "10.1103/PhysRevD.101.012002", 
   "date": "2019/09/09", 
   "experiment": "CERN LHC Run 2, ATLAS", 
   "description": "Combined measurements of Higgs boson production and decay using up to 80fb\u22121 of proton-proton collision data at $\\sqrt{s}$ = 13 TeV collected with the ATLAS experiment", 
   "value": -0.34, 
   "uncertainty": {
      "tot": 1.415
   }, 
   "uncertainty_sigma": 1, 
   "th_flat": true
}