{
   "observable_name": "mu_ZH_H_WW_lvlv_ATLAS_Run2", 
   "measurement_name": "mu_ZH_H_WW_lvlv_ATLAS_Run2", 
   "datafile": "mu_ZH_H_WW_lvlv_ATLAS_Run2.json", 
   "CDS": "http://cds.cern.ch/record/2668720", 
   "reportnumber": "CERN-EP-2019-038", 
   "DOI": "10.1016/j.physletb.2019.134949 ", 
   "date": "2019/03/24", 
   "experiment": "CERN LHC Run 2, ATLAS", 
   "description": "Measurement of the production cross section for a Higgs boson in association with a vector boson in the $H \\rightarrow $WW^{\\ast} \\to \\ell\\nu\\ell\\nu$ channel in pp collisions at $\\sqrt{s}$=13 TeV with the ATLAS detector",
   "value": 2.9, 
   "uncertainty": {
      "tot": 1.6
   }, 
   "uncertainty_sigma": 1, 
   "th_flat": true
}
