{
  "observable_name": "mu_ggF1j_ptH_120T200_H_Zll_13", 
  "measurement_name": "mu_ggF1j_ptH_120T200_H_Zll_ATLAS_Run2", 
  "CDS": "https://cds.cern.ch/record/2688596", 
  "reportnumber": "CERN-EP-2019-097", 
  "DOI": "10.1103/PhysRevD.101.012002", 
  "date": "06/09/2019", 
  "experiment": "CERN LHC Run 2, ATLAS", 
  "description": "  STXS H -> 4l measurements (Fig. 20); STXS stage 1.0 bin: 1-jet gluon fusion, 120 < ptH < 200 ", 
  "value": 2.39, 
  "uncertainty": {
    "tot": [
      1.08, 
      0.99
    ]
  }, 
  "uncertainty_sigma": 1, 
  "th_flat": true
}