{
  "observable_name":"WW_xs_qqqq_L3",
  "measurement_name":"WW_xs_qqqq_L3",
  "arxiv":"hep-ex/0409016", 
  "CDS": "http://cds.cern.ch/record/791445", 
  "reportnumber": "CERN-PH-EP-2004-026", 
  "DOI": "10.1016/j.physletb.2004.08.060", 
  "date": "2004/09/07", 
  "experiment": "CERN LEP experiment. L3 collaboration.", 
  "description": "$W^+\\,W^-$ total cross section measurements at L3 in the $qqqq$ final state for 8 energies. (hep-ex/0409016 Table 3, 1606.06693 Table 12).",   
  "value": [7.17, 6.78, 6.92, 7.91, 7.09, 7.66, 8.07, 7.29],
  "uncertainty_sigma":1,
  "uncertainty":{
    "stat": [0.24, 0.56, 0.34, 0.36, 0.52, 0.37, 0.29, 1.16],
    "syst": [0.12, 0.12, 0.11, 0.13, 0.12, 0.13, 0.13, 0.11]
  }
}