{
  "observable_name": "mu_ggF_H_tata_13", 
  "measurement_name": "mu_ggF_H_tata_CMS_Run2", 
  "CDS": "http://cds.cern.ch/record/2706103", 
  "reportnumber": "CMS-PAS-HIG-19-005", 
  "DOI": "", 
  "date": "2020/01/10", 
  "experiment": "CERN LHC Run 2, CMS", 
  "description": "Higgs boson signal strength for gluon-gluon fusion production and decay to tau+ tau- (Table 4)", 
  "value": 0.39, 
  "uncertainty": {
    "tot": [ 0.38, 0.39 ]
  }, 
  "uncertainty_sigma": 1, 
  "th_flat": true
}