{
  "observable_name": "mu_ggF_H_bb_13", 
  "measurement_name": "mu_ggF_H_bb_CMS_Run2", 
  "CDS": "http://cds.cern.ch/record/2706103", 
  "reportnumber": "CMS-PAS-HIG-19-005", 
  "DOI": "", 
  "date": "2020/01/10", 
  "experiment": "CERN LHC Run 2, CMS", 
  "description": "Higgs boson signal strength for gluon-gluon fusion production and decay to b-bbar (Table 4)", 
  "value": 2.45, 
  "uncertainty": {
    "tot": [ 2.53, 2.35 ]
  }, 
  "uncertainty_sigma": 1, 
  "th_flat": true
}