{
  "observable_name": "mu_ttH_H_aa_13", 
  "measurement_name": "mu_ttH_H_aa_CMS_Run2", 
  "CDS": "http://cds.cern.ch/record/2706103", 
  "reportnumber": "CMS-PAS-HIG-19-005", 
  "DOI": "", 
  "date": "2020/01/10", 
  "experiment": "CERN LHC Run 2, CMS", 
  "description": "Higgs boson signal strength for top-pair-associated production and decay to di-photon (Table 4)", 
  "value": 1.62, 
  "uncertainty": {
    "tot": [ 0.52, 0.43 ]
  }, 
  "uncertainty_sigma": 1, 
  "th_flat": true
}