{
  "observable_name": "mu_ttH_H_ZZ_13", 
  "measurement_name": "mu_ttH_H_ZZ_CMS_Run2", 
  "CDS": "http://cds.cern.ch/record/2706103", 
  "reportnumber": "CMS-PAS-HIG-19-005", 
  "DOI": "", 
  "date": "2020/01/10", 
  "experiment": "CERN LHC Run 2, CMS", 
  "description": "Higgs boson signal strength for top-pair-associated production and decay to ZZ* (Table 4)", 
  "value": 0.25, 
  "uncertainty": {
    "tot": [ 1.03, 0.25 ]
  }, 
  "uncertainty_sigma": 1, 
  "th_flat": true
}