{
  "observable_name": "mu_WH_H_WW_13", 
  "measurement_name": "mu_WH_H_WW_CMS_Run2", 
  "CDS": "http://cds.cern.ch/record/2706103", 
  "reportnumber": "CMS-PAS-HIG-19-005", 
  "DOI": "", 
  "date": "2020/01/10", 
  "experiment": "CERN LHC Run 2, CMS", 
  "description": "Higgs boson signal strength for W-associated production and decay to WW* (Table 4)", 
  "value": 2.85, 
  "uncertainty": {
    "tot": [ 2.11, 1.87 ]
  }, 
  "uncertainty_sigma": 1, 
  "th_flat": true
}