{
   "observable": "VH_ptV_150Tinf",
   "params": ["CHbox","CHD","CHW","CHB","CHWB","CHl1","CHe","CHq1","CHq3","CHu","CHd","Cll","CHl3"],
   "linear": [0.1303966,-0.1973532,1.115319,0.0189627,-0.3209911,0.01988954,-0.01768056,-0.06083473,6.309551,0.2016605,-0.06901236,0.3027575,-0.4738713],
   "lambda_gen": 1000
}
