{
   "observable": "WH0j_ptV_0T150",
   "params": ["Cll","CHD","CHbox","CHW","CHWB","CHl3","CHq3"],
   "linear": [0.3011444,-0.2130153,0.1256306,0.8998317,-0.4065827,-0.4800844,1.496438],
   "lambda_gen": 1000
}