{
   "observable": "WH0j_ptV_150T250",
   "params": ["Cll","CHD","CHbox","CHW","CHWB","CHl3","CHq3"],
   "linear": [0.3043944,-0.2146282,0.1265006,1.095244,-0.410045,-0.4821756,4.292932],
   "lambda_gen": 1000
}
