{
   "observable": "WH0j_ptV_0T75",
   "params": ["Cll","CHD","CHbox","CHW","CHWB","CHl3","CHq3"],
   "linear": [0.301043,-0.2128647,0.1254464,0.8475733,-0.4064794,-0.4801923,1.171078],
   "lambda_gen": 1000
}
