{
  "observable_name": "mu_boosted_H_tata_CMS_Run2", 
  "measurement_name": "mu_boosted_H_tata_CMS_Run2", 
  "arxiv": "1708.00373", 
  "CDS": "http://cds.cern.ch/record/2276465", 
  "reportnumber": "CMS-HIG-16-043", 
  "DOI": "10.1016/j.physletb.2018.02.004", 
  "date": "2017/08/01", 
  "experiment": "CERN LHC Run 2, CMS", 
  "description": "Observation of the Higgs boson decay to a pair of $\\tau$ leptons with the CMS detector ( Fig.21,Sec.6 (\"boosted\" == 0.79*\"ggjH\" + 0.12*\"VBF\" + 0.06*\"VH\") )", 
  "value": 1.17, 
  "uncertainty": {
    "tot": [ 0.47, 0.4 ]
  }, 
  "uncertainty_sigma": 1, 
  "th_flat": true
}