{
  "observable_name": "mu_ggF_H_Zll_13", 
  "measurement_name": "mu_ggF_H_ZZ_CMS_Run2", 
  "arxiv": "1706.09936", 
  "CDS": "http://cds.cern.ch/record/2272260", 
  "reportnumber": "CMS-HIG-16-041", 
  "DOI": [
    "10.1007/JHEP11(2017)047", 
    "10.1007/JHEP11(2017)047"
  ], 
  "date": "2017/06/30", 
  "experiment": "CERN LHC Run 2, CMS", 
  "description": "Measurements of properties of the Higgs boson decaying into the four-lepton final state in pp collisions at sqrt(s) = 13 TeV ( Fig.8R (None) )", 
  "value": 1.2, 
  "uncertainty": {
    "tot": [ 0.22, 0.21 ]
  }, 
  "uncertainty_sigma": 1, 
  "th_flat": true
}