{
  "observable_name": "mu_ggF_H_Wlvl_13", 
  "measurement_name": "mu_ggF_H_WW_ATLAS_Run2", 
  "CDS": "http://cds.cern.ch/record/2308392", 
  "reportnumber": "ATLAS-CONF-2018-004", 
  "DOI": "", 
  "date": "2018/03/13", 
  "experiment": "CERN LHC Run 2, ATLAS", 
  "description": "Measurement of gluon fusion and vector boson fusion Higgs boson production cross-sections in the $H \\to WW^{*} \\to e\\nu\\mu\\nu$ decay channel in pp collisions at $\\sqrt{s} = 13$ TeV with the ATLAS detector ( (None) )", 
  "superseded_by": [
    "http://cds.cern.ch/record/2636382"
  ], 
  "value": 1.21, 
  "uncertainty": {
    "tot": [ 0.22, 0.21 ]
  }, 
  "uncertainty_sigma": 1, 
  "th_flat": true
}