{
  "observable_name": "mu_pp_H_mumu_13", 
  "measurement_name": "mu_pp_H_mumu_ATLAS_Run2", 
  "arxiv": "1705.04582", 
  "CDS": "http://cds.cern.ch/record/2263640", 
  "reportnumber": "CERN-EP-2017-078", 
  "DOI": "10.1103/PhysRevLett.119.051802", 
  "date": "2017/05/11", 
  "experiment": "CERN LHC Run 2, ATLAS", 
  "description": "Search for the dimuon decay of the Higgs boson in $pp$ collisions at $\\sqrt{s}$ = 13 TeV with the ATLAS detector ( (None) )", 
  "value": -0.1, 
  "uncertainty": {
    "tot": [ 1.5, 1.5 ]
  }, 
  "uncertainty_sigma": 1, 
  "th_flat": true
}