{
  "observable_name": "mu_ttH_H_2lSS1ta-h_ATLAS_Run2", 
  "measurement_name": "mu_ttH_H_2lSS1ta-h_ATLAS_Run2", 
  "arxiv": "1712.08891", 
  "CDS": "http://cds.cern.ch/record/2299050", 
  "reportnumber": "CERN-EP-2017-281", 
  "DOI": "10.1103/PhysRevD.97.072003", 
  "date": "2017/12/24", 
  "experiment": "CERN LHC Run 2, ATLAS", 
  "description": "Evidence for the associated production of the Higgs boson and a top quark pair with the ATLAS detector ( Figs.4L,13 (0.40393467901558533*\"WW\" + 0.009562961019271746*\"ZZ\" + 0.586502359965143*\"tata\") )", 
  "value": 3.5, 
  "uncertainty": {
    "tot": [ 1.7, 1.3 ]
  }, 
  "uncertainty_sigma": 1, 
  "th_flat": true
}