{
  "observable_name": "mu_ttH_H_3l_CMS_Run2", 
  "measurement_name": "mu_ttH_H_3l_CMS_Run2", 
  "arxiv": "1803.05485", 
  "CDS": "http://cds.cern.ch/record/2308650", 
  "reportnumber": "CMS-HIG-17-018", 
  "DOI": "10.1007/JHEP08(2018)066", 
  "date": "2018/03/14", 
  "experiment": "CERN LHC Run 2, CMS", 
  "description": "Evidence for associated production of a Higgs boson with a top quark pair in final states with electrons, muons, and hadronically decaying $\\tau$ leptons at $\\sqrt{s} = $ 13 TeV ( Fig.6 (\"3l\" == 0.74*\"WW\" + 0.04*\"ZZ\" + 0.2*\"tata\") )", 
  "value": 0.82, 
  "uncertainty": {
    "tot": [ 0.77, 0.71 ]
  }, 
  "uncertainty_sigma": 1, 
  "th_flat": true
}