{
  "observable_name": "mu_VBF_H_tata_13", 
  "measurement_name": "mu_VBF_H_tata_CMS_Run2", 
  "arxiv": "1708.00373", 
  "CDS": "http://cds.cern.ch/record/2276465", 
  "reportnumber": "CMS-HIG-16-043", 
  "DOI": "10.1016/j.physletb.2018.02.004", 
  "date": "2017/08/01", 
  "experiment": "CERN LHC Run 2, CMS", 
  "description": "Observation of the Higgs boson decay to a pair of $\\tau$ leptons with the CMS detector ( Fig.21 ({\"2 jets w/ pt > 30 GeV, mjj > 300 GeV\", \"I am currently using my VBF prediction w/ mjj>130GeV, |detajj|>3.0\"}) )", 
  "value": 1.11, 
  "uncertainty": {
    "tot": [ 0.34, 0.35 ]
  }, 
  "uncertainty_sigma": 1, 
  "th_flat": true
}