{
  "observable_group_name": "CMS_Run2_SignalStrengths_Nature",
  "datafile": "",
  "description": "CMS Run 2 Higgs legacy signal strength measurements, Nature paper.",
  "observables": [
    {
      "observable_name": "mu_ggF_H_aa_13",
      "measurement_name": "mu_ggF_H_aa_13_CMS_Nature",
      "datafile": "/Users/ken/Work/Projects/SMEFT_FIT/repo/fitrepo/observable_scripts/mu_H_CMS_Nature/SignalStrengths/HEPData/../mu_ggF_H_aa_13_CMS_Nature.json",
      "arxiv": "2207.00043",
      "CDS": "http://cds.cern.ch/record/2814513",
      "reportnumber": "CMS-HIG-22-001",
      "DOI": "10.1038/s41586-022-04892-x",
      "date": "2022/07/02",
      "experiment": "CERN LHC experiment. CMS collaboration.",
      "description": "A portrait of the Higgs boson by the CMS experiment ten years after the discovery",
      "value": 1.08,
      "uncertainty": {
        "stat": [ -0.09, 0.09 ],
        "syst": [ -0.07, 0.08 ]
      },
      "uncertainty_sigma": 1,
      "th_flat": true
    },
    {
      "observable_name": "mu_ggF_H_ZZ_13",
      "measurement_name": "mu_ggF_H_ZZ_13_CMS_Nature",
      "datafile": "/Users/ken/Work/Projects/SMEFT_FIT/repo/fitrepo/observable_scripts/mu_H_CMS_Nature/SignalStrengths/HEPData/../mu_ggF_H_ZZ_13_CMS_Nature.json",
      "arxiv": "2207.00043",
      "CDS": "http://cds.cern.ch/record/2814513",
      "reportnumber": "CMS-HIG-22-001",
      "DOI": "10.1038/s41586-022-04892-x",
      "date": "2022/07/02",
      "experiment": "CERN LHC experiment. CMS collaboration.",
      "description": "A portrait of the Higgs boson by the CMS experiment ten years after the discovery",
      "value": 0.93,
      "uncertainty": {
        "stat": [ -0.1, 0.1 ],
        "syst": [ -0.09, 0.11 ]
      },
      "uncertainty_sigma": 1,
      "th_flat": true
    },
    {
      "observable_name": "mu_ggF_H_WW_13",
      "measurement_name": "mu_ggF_H_WW_13_CMS_Nature",
      "datafile": "/Users/ken/Work/Projects/SMEFT_FIT/repo/fitrepo/observable_scripts/mu_H_CMS_Nature/SignalStrengths/HEPData/../mu_ggF_H_WW_13_CMS_Nature.json",
      "arxiv": "2207.00043",
      "CDS": "http://cds.cern.ch/record/2814513",
      "reportnumber": "CMS-HIG-22-001",
      "DOI": "10.1038/s41586-022-04892-x",
      "date": "2022/07/02",
      "experiment": "CERN LHC experiment. CMS collaboration.",
      "description": "A portrait of the Higgs boson by the CMS experiment ten years after the discovery",
      "value": 0.9,
      "uncertainty": {
        "stat": [ -0.05, 0.05 ],
        "syst": [ -0.09, 0.09 ]
      },
      "uncertainty_sigma": 1,
      "th_flat": true
    },
    {
      "observable_name": "mu_ggF_H_tata_13",
      "measurement_name": "mu_ggF_H_tata_13_CMS_Nature",
      "datafile": "/Users/ken/Work/Projects/SMEFT_FIT/repo/fitrepo/observable_scripts/mu_H_CMS_Nature/SignalStrengths/HEPData/../mu_ggF_H_tata_13_CMS_Nature.json",
      "arxiv": "2207.00043",
      "CDS": "http://cds.cern.ch/record/2814513",
      "reportnumber": "CMS-HIG-22-001",
      "DOI": "10.1038/s41586-022-04892-x",
      "date": "2022/07/02",
      "experiment": "CERN LHC experiment. CMS collaboration.",
      "description": "A portrait of the Higgs boson by the CMS experiment ten years after the discovery",
      "value": 0.66,
      "uncertainty": {
        "stat": [ -0.09, 0.09 ],
        "syst": [ -0.18, 0.19 ]
      },
      "uncertainty_sigma": 1,
      "th_flat": true
    },
    {
      "observable_name": "mu_ggF_H_bb_13",
      "measurement_name": "mu_ggF_H_bb_13_CMS_Nature",
      "datafile": "/Users/ken/Work/Projects/SMEFT_FIT/repo/fitrepo/observable_scripts/mu_H_CMS_Nature/SignalStrengths/HEPData/../mu_ggF_H_bb_13_CMS_Nature.json",
      "arxiv": "2207.00043",
      "CDS": "http://cds.cern.ch/record/2814513",
      "reportnumber": "CMS-HIG-22-001",
      "DOI": "10.1038/s41586-022-04892-x",
      "date": "2022/07/02",
      "experiment": "CERN LHC experiment. CMS collaboration.",
      "description": "A portrait of the Higgs boson by the CMS experiment ten years after the discovery",
      "value": 5.31,
      "uncertainty": {
        "stat": [ -2.09, 2.09 ],
        "syst": [ -1.45, 2.11 ]
      },
      "uncertainty_sigma": 1,
      "th_flat": true
    },
    {
      "observable_name": "mu_ggF_H_mumu_13",
      "measurement_name": "mu_ggF_H_mumu_13_CMS_Nature",
      "datafile": "/Users/ken/Work/Projects/SMEFT_FIT/repo/fitrepo/observable_scripts/mu_H_CMS_Nature/SignalStrengths/HEPData/../mu_ggF_H_mumu_13_CMS_Nature.json",
      "arxiv": "2207.00043",
      "CDS": "http://cds.cern.ch/record/2814513",
      "reportnumber": "CMS-HIG-22-001",
      "DOI": "10.1038/s41586-022-04892-x",
      "date": "2022/07/02",
      "experiment": "CERN LHC experiment. CMS collaboration.",
      "description": "A portrait of the Higgs boson by the CMS experiment ten years after the discovery",
      "value": 0.33,
      "uncertainty": {
        "stat": [ -0.69, 0.71 ],
        "syst": [ -0.12, 0.2 ]
      },
      "uncertainty_sigma": 1,
      "th_flat": true
    },
    {
      "observable_name": "mu_ggF_H_Za_13",
      "measurement_name": "mu_ggF_H_Za_13_CMS_Nature",
      "datafile": "/Users/ken/Work/Projects/SMEFT_FIT/repo/fitrepo/observable_scripts/mu_H_CMS_Nature/SignalStrengths/HEPData/../mu_ggF_H_Za_13_CMS_Nature.json",
      "arxiv": "2207.00043",
      "CDS": "http://cds.cern.ch/record/2814513",
      "reportnumber": "CMS-HIG-22-001",
      "DOI": "10.1038/s41586-022-04892-x",
      "date": "2022/07/02",
      "experiment": "CERN LHC experiment. CMS collaboration.",
      "description": "A portrait of the Higgs boson by the CMS experiment ten years after the discovery",
      "value": 3.86,
      "uncertainty": {
        "stat": [ -1.18, 1.26 ],
        "syst": [ -0.36, 0.6 ]
      },
      "uncertainty_sigma": 1,
      "th_flat": true
    },
    {
      "observable_name": "mu_VBF_H_aa_13",
      "measurement_name": "mu_VBF_H_aa_13_CMS_Nature",
      "datafile": "/Users/ken/Work/Projects/SMEFT_FIT/repo/fitrepo/observable_scripts/mu_H_CMS_Nature/SignalStrengths/HEPData/../mu_VBF_H_aa_13_CMS_Nature.json",
      "arxiv": "2207.00043",
      "CDS": "http://cds.cern.ch/record/2814513",
      "reportnumber": "CMS-HIG-22-001",
      "DOI": "10.1038/s41586-022-04892-x",
      "date": "2022/07/02",
      "experiment": "CERN LHC experiment. CMS collaboration.",
      "description": "A portrait of the Higgs boson by the CMS experiment ten years after the discovery",
      "value": 1.0,
      "uncertainty": {
        "stat": [ -0.29, 0.32 ],
        "syst": [ -0.11, 0.15 ]
      },
      "uncertainty_sigma": 1,
      "th_flat": true
    },
    {
      "observable_name": "mu_VBF_H_ZZ_13",
      "measurement_name": "mu_VBF_H_ZZ_13_CMS_Nature",
      "datafile": "/Users/ken/Work/Projects/SMEFT_FIT/repo/fitrepo/observable_scripts/mu_H_CMS_Nature/SignalStrengths/HEPData/../mu_VBF_H_ZZ_13_CMS_Nature.json",
      "arxiv": "2207.00043",
      "CDS": "http://cds.cern.ch/record/2814513",
      "reportnumber": "CMS-HIG-22-001",
      "DOI": "10.1038/s41586-022-04892-x",
      "date": "2022/07/02",
      "experiment": "CERN LHC experiment. CMS collaboration.",
      "description": "A portrait of the Higgs boson by the CMS experiment ten years after the discovery",
      "value": 0.32,
      "uncertainty": {
        "stat": [ 0.0, 0.44 ],
        "syst": [ 0.0, 0.18 ]
      },
      "uncertainty_sigma": 1,
      "th_flat": true
    },
    {
      "observable_name": "mu_VBF_H_WW_13",
      "measurement_name": "mu_VBF_H_WW_13_CMS_Nature",
      "datafile": "/Users/ken/Work/Projects/SMEFT_FIT/repo/fitrepo/observable_scripts/mu_H_CMS_Nature/SignalStrengths/HEPData/../mu_VBF_H_WW_13_CMS_Nature.json",
      "arxiv": "2207.00043",
      "CDS": "http://cds.cern.ch/record/2814513",
      "reportnumber": "CMS-HIG-22-001",
      "DOI": "10.1038/s41586-022-04892-x",
      "date": "2022/07/02",
      "experiment": "CERN LHC experiment. CMS collaboration.",
      "description": "A portrait of the Higgs boson by the CMS experiment ten years after the discovery",
      "value": 0.73,
      "uncertainty": {
        "stat": [ -0.19, 0.2 ],
        "syst": [ -0.15, 0.19 ]
      },
      "uncertainty_sigma": 1,
      "th_flat": true
    },
    {
      "observable_name": "mu_VBF_H_tata_13",
      "measurement_name": "mu_VBF_H_tata_13_CMS_Nature",
      "datafile": "/Users/ken/Work/Projects/SMEFT_FIT/repo/fitrepo/observable_scripts/mu_H_CMS_Nature/SignalStrengths/HEPData/../mu_VBF_H_tata_13_CMS_Nature.json",
      "arxiv": "2207.00043",
      "CDS": "http://cds.cern.ch/record/2814513",
      "reportnumber": "CMS-HIG-22-001",
      "DOI": "10.1038/s41586-022-04892-x",
      "date": "2022/07/02",
      "experiment": "CERN LHC experiment. CMS collaboration.",
      "description": "A portrait of the Higgs boson by the CMS experiment ten years after the discovery",
      "value": 0.86,
      "uncertainty": {
        "stat": [ -0.14, 0.14 ],
        "syst": [ -0.09, 0.09 ]
      },
      "uncertainty_sigma": 1,
      "th_flat": true
    },
    {
      "observable_name": "mu_VBF_H_mumu_13",
      "measurement_name": "mu_VBF_H_mumu_13_CMS_Nature",
      "datafile": "/Users/ken/Work/Projects/SMEFT_FIT/repo/fitrepo/observable_scripts/mu_H_CMS_Nature/SignalStrengths/HEPData/../mu_VBF_H_mumu_13_CMS_Nature.json",
      "arxiv": "2207.00043",
      "CDS": "http://cds.cern.ch/record/2814513",
      "reportnumber": "CMS-HIG-22-001",
      "DOI": "10.1038/s41586-022-04892-x",
      "date": "2022/07/02",
      "experiment": "CERN LHC experiment. CMS collaboration.",
      "description": "A portrait of the Higgs boson by the CMS experiment ten years after the discovery",
      "value": 1.55,
      "uncertainty": {
        "stat": [ -0.69, 0.75 ],
        "syst": [ -0.24, 0.4 ]
      },
      "uncertainty_sigma": 1,
      "th_flat": true
    },
    {
      "observable_name": "mu_VBF_H_Za_13",
      "measurement_name": "mu_VBF_H_Za_13_CMS_Nature",
      "datafile": "/Users/ken/Work/Projects/SMEFT_FIT/repo/fitrepo/observable_scripts/mu_H_CMS_Nature/SignalStrengths/HEPData/../mu_VBF_H_Za_13_CMS_Nature.json",
      "arxiv": "2207.00043",
      "CDS": "http://cds.cern.ch/record/2814513",
      "reportnumber": "CMS-HIG-22-001",
      "DOI": "10.1038/s41586-022-04892-x",
      "date": "2022/07/02",
      "experiment": "CERN LHC experiment. CMS collaboration.",
      "description": "A portrait of the Higgs boson by the CMS experiment ten years after the discovery",
      "value": -4.43,
      "uncertainty": {
        "stat": [ -2.68, 3.77 ],
        "syst": [ -1.08, 0.6 ]
      },
      "uncertainty_sigma": 1,
      "th_flat": true
    },
    {
      "observable_name": "mu_WH_H_aa_13",
      "measurement_name": "mu_WH_H_aa_13_CMS_Nature",
      "datafile": "/Users/ken/Work/Projects/SMEFT_FIT/repo/fitrepo/observable_scripts/mu_H_CMS_Nature/SignalStrengths/HEPData/../mu_WH_H_aa_13_CMS_Nature.json",
      "arxiv": "2207.00043",
      "CDS": "http://cds.cern.ch/record/2814513",
      "reportnumber": "CMS-HIG-22-001",
      "DOI": "10.1038/s41586-022-04892-x",
      "date": "2022/07/02",
      "experiment": "CERN LHC experiment. CMS collaboration.",
      "description": "A portrait of the Higgs boson by the CMS experiment ten years after the discovery",
      "value": 1.43,
      "uncertainty": {
        "stat": [ -0.47, 0.53 ],
        "syst": [ -0.05, 0.09 ]
      },
      "uncertainty_sigma": 1,
      "th_flat": true
    },
    {
      "observable_name": "mu_WH_H_ZZ_13",
      "measurement_name": "mu_WH_H_ZZ_13_CMS_Nature",
      "datafile": "/Users/ken/Work/Projects/SMEFT_FIT/repo/fitrepo/observable_scripts/mu_H_CMS_Nature/SignalStrengths/HEPData/../mu_WH_H_ZZ_13_CMS_Nature.json",
      "arxiv": "2207.00043",
      "CDS": "http://cds.cern.ch/record/2814513",
      "reportnumber": "CMS-HIG-22-001",
      "DOI": "10.1038/s41586-022-04892-x",
      "date": "2022/07/02",
      "experiment": "CERN LHC experiment. CMS collaboration.",
      "description": "A portrait of the Higgs boson by the CMS experiment ten years after the discovery",
      "value": 0.0,
      "uncertainty": {
        "stat": [ 0.0, 1.5 ],
        "syst": [ 0.0, 0.4 ]
      },
      "uncertainty_sigma": 1,
      "th_flat": true
    },
    {
      "observable_name": "mu_WH_H_WW_13",
      "measurement_name": "mu_WH_H_WW_13_CMS_Nature",
      "datafile": "/Users/ken/Work/Projects/SMEFT_FIT/repo/fitrepo/observable_scripts/mu_H_CMS_Nature/SignalStrengths/HEPData/../mu_WH_H_WW_13_CMS_Nature.json",
      "arxiv": "2207.00043",
      "CDS": "http://cds.cern.ch/record/2814513",
      "reportnumber": "CMS-HIG-22-001",
      "DOI": "10.1038/s41586-022-04892-x",
      "date": "2022/07/02",
      "experiment": "CERN LHC experiment. CMS collaboration.",
      "description": "A portrait of the Higgs boson by the CMS experiment ten years after the discovery",
      "value": 2.41,
      "uncertainty": {
        "stat": [ -0.51, 0.52 ],
        "syst": [ -0.48, 0.5 ]
      },
      "uncertainty_sigma": 1,
      "th_flat": true
    },
    {
      "observable_name": "mu_WH_H_tata_13",
      "measurement_name": "mu_WH_H_tata_13_CMS_Nature",
      "datafile": "/Users/ken/Work/Projects/SMEFT_FIT/repo/fitrepo/observable_scripts/mu_H_CMS_Nature/SignalStrengths/HEPData/../mu_WH_H_tata_13_CMS_Nature.json",
      "arxiv": "2207.00043",
      "CDS": "http://cds.cern.ch/record/2814513",
      "reportnumber": "CMS-HIG-22-001",
      "DOI": "10.1038/s41586-022-04892-x",
      "date": "2022/07/02",
      "experiment": "CERN LHC experiment. CMS collaboration.",
      "description": "A portrait of the Higgs boson by the CMS experiment ten years after the discovery",
      "value": 1.33,
      "uncertainty": {
        "stat": [ -0.49, 0.51 ],
        "syst": [ -0.29, 0.34 ]
      },
      "uncertainty_sigma": 1,
      "th_flat": true
    },
    {
      "observable_name": "mu_WH_H_bb_13",
      "measurement_name": "mu_WH_H_bb_13_CMS_Nature",
      "datafile": "/Users/ken/Work/Projects/SMEFT_FIT/repo/fitrepo/observable_scripts/mu_H_CMS_Nature/SignalStrengths/HEPData/../mu_WH_H_bb_13_CMS_Nature.json",
      "arxiv": "2207.00043",
      "CDS": "http://cds.cern.ch/record/2814513",
      "reportnumber": "CMS-HIG-22-001",
      "DOI": "10.1038/s41586-022-04892-x",
      "date": "2022/07/02",
      "experiment": "CERN LHC experiment. CMS collaboration.",
      "description": "A portrait of the Higgs boson by the CMS experiment ten years after the discovery",
      "value": 1.26,
      "uncertainty": {
        "stat": [ -0.32, 0.33 ],
        "syst": [ -0.26, 0.26 ]
      },
      "uncertainty_sigma": 1,
      "th_flat": true
    },
    {
      "observable_name": "mu_ZH_H_aa_13",
      "measurement_name": "mu_ZH_H_aa_13_CMS_Nature",
      "datafile": "/Users/ken/Work/Projects/SMEFT_FIT/repo/fitrepo/observable_scripts/mu_H_CMS_Nature/SignalStrengths/HEPData/../mu_ZH_H_aa_13_CMS_Nature.json",
      "arxiv": "2207.00043",
      "CDS": "http://cds.cern.ch/record/2814513",
      "reportnumber": "CMS-HIG-22-001",
      "DOI": "10.1038/s41586-022-04892-x",
      "date": "2022/07/02",
      "experiment": "CERN LHC experiment. CMS collaboration.",
      "description": "A portrait of the Higgs boson by the CMS experiment ten years after the discovery",
      "value": 1.19,
      "uncertainty": {
        "stat": [ -0.61, 0.7 ],
        "syst": [ -0.07, 0.14 ]
      },
      "uncertainty_sigma": 1,
      "th_flat": true
    },
    {
      "observable_name": "mu_ZH_H_ZZ_13",
      "measurement_name": "mu_ZH_H_ZZ_13_CMS_Nature",
      "datafile": "/Users/ken/Work/Projects/SMEFT_FIT/repo/fitrepo/observable_scripts/mu_H_CMS_Nature/SignalStrengths/HEPData/../mu_ZH_H_ZZ_13_CMS_Nature.json",
      "arxiv": "2207.00043",
      "CDS": "http://cds.cern.ch/record/2814513",
      "reportnumber": "CMS-HIG-22-001",
      "DOI": "10.1038/s41586-022-04892-x",
      "date": "2022/07/02",
      "experiment": "CERN LHC experiment. CMS collaboration.",
      "description": "A portrait of the Higgs boson by the CMS experiment ten years after the discovery",
      "value": 12.24,
      "uncertainty": {
        "stat": [ -4.13, 4.4 ],
        "syst": [ -3.91, 4.91 ]
      },
      "uncertainty_sigma": 1,
      "th_flat": true
    },
    {
      "observable_name": "mu_ZH_H_WW_13",
      "measurement_name": "mu_ZH_H_WW_13_CMS_Nature",
      "datafile": "/Users/ken/Work/Projects/SMEFT_FIT/repo/fitrepo/observable_scripts/mu_H_CMS_Nature/SignalStrengths/HEPData/../mu_ZH_H_WW_13_CMS_Nature.json",
      "arxiv": "2207.00043",
      "CDS": "http://cds.cern.ch/record/2814513",
      "reportnumber": "CMS-HIG-22-001",
      "DOI": "10.1038/s41586-022-04892-x",
      "date": "2022/07/02",
      "experiment": "CERN LHC experiment. CMS collaboration.",
      "description": "A portrait of the Higgs boson by the CMS experiment ten years after the discovery",
      "value": 1.76,
      "uncertainty": {
        "stat": [ -0.62, 0.66 ],
        "syst": [ -0.27, 0.36 ]
      },
      "uncertainty_sigma": 1,
      "th_flat": true
    },
    {
      "observable_name": "mu_ZH_H_tata_13",
      "measurement_name": "mu_ZH_H_tata_13_CMS_Nature",
      "datafile": "/Users/ken/Work/Projects/SMEFT_FIT/repo/fitrepo/observable_scripts/mu_H_CMS_Nature/SignalStrengths/HEPData/../mu_ZH_H_tata_13_CMS_Nature.json",
      "arxiv": "2207.00043",
      "CDS": "http://cds.cern.ch/record/2814513",
      "reportnumber": "CMS-HIG-22-001",
      "DOI": "10.1038/s41586-022-04892-x",
      "date": "2022/07/02",
      "experiment": "CERN LHC experiment. CMS collaboration.",
      "description": "A portrait of the Higgs boson by the CMS experiment ten years after the discovery",
      "value": 1.89,
      "uncertainty": {
        "stat": [ -0.51, 0.54 ],
        "syst": [ -0.25, 0.36 ]
      },
      "uncertainty_sigma": 1,
      "th_flat": true
    },
    {
      "observable_name": "mu_ZH_H_bb_13",
      "measurement_name": "mu_ZH_H_bb_13_CMS_Nature",
      "datafile": "/Users/ken/Work/Projects/SMEFT_FIT/repo/fitrepo/observable_scripts/mu_H_CMS_Nature/SignalStrengths/HEPData/../mu_ZH_H_bb_13_CMS_Nature.json",
      "arxiv": "2207.00043",
      "CDS": "http://cds.cern.ch/record/2814513",
      "reportnumber": "CMS-HIG-22-001",
      "DOI": "10.1038/s41586-022-04892-x",
      "date": "2022/07/02",
      "experiment": "CERN LHC experiment. CMS collaboration.",
      "description": "A portrait of the Higgs boson by the CMS experiment ten years after the discovery",
      "value": 0.9,
      "uncertainty": {
        "stat": [ -0.26, 0.27 ],
        "syst": [ -0.21, 0.25 ]
      },
      "uncertainty_sigma": 1,
      "th_flat": true
    },
    {
      "observable_name": "mu_VH_H_mumu_13",
      "measurement_name": "mu_VH_H_mumu_13_CMS_Nature",
      "datafile": "/Users/ken/Work/Projects/SMEFT_FIT/repo/fitrepo/observable_scripts/mu_H_CMS_Nature/SignalStrengths/HEPData/../mu_VH_H_mumu_13_CMS_Nature.json",
      "arxiv": "2207.00043",
      "CDS": "http://cds.cern.ch/record/2814513",
      "reportnumber": "CMS-HIG-22-001",
      "DOI": "10.1038/s41586-022-04892-x",
      "date": "2022/07/02",
      "experiment": "CERN LHC experiment. CMS collaboration.",
      "description": "A portrait of the Higgs boson by the CMS experiment ten years after the discovery",
      "value": 5.63,
      "uncertainty": {
        "stat": [ -3.01, 3.28 ],
        "syst": [ -0.45, 0.71 ]
      },
      "uncertainty_sigma": 1,
      "th_flat": true
    },
    {
      "observable_name": "mu_ttH+tH_H_aa_13",
      "measurement_name": "mu_ttH+tH_H_aa_13_CMS_Nature",
      "datafile": "/Users/ken/Work/Projects/SMEFT_FIT/repo/fitrepo/observable_scripts/mu_H_CMS_Nature/SignalStrengths/HEPData/../mu_ttH+tH_H_aa_13_CMS_Nature.json",
      "arxiv": "2207.00043",
      "CDS": "http://cds.cern.ch/record/2814513",
      "reportnumber": "CMS-HIG-22-001",
      "DOI": "10.1038/s41586-022-04892-x",
      "date": "2022/07/02",
      "experiment": "CERN LHC experiment. CMS collaboration.",
      "description": "A portrait of the Higgs boson by the CMS experiment ten years after the discovery",
      "value": 1.38,
      "uncertainty": {
        "stat": [ -0.26, 0.28 ],
        "syst": [ -0.12, 0.19 ]
      },
      "uncertainty_sigma": 1,
      "th_flat": true
    },
    {
      "observable_name": "mu_ttH+tH_H_ZZ_13",
      "measurement_name": "mu_ttH+tH_H_ZZ_13_CMS_Nature",
      "datafile": "/Users/ken/Work/Projects/SMEFT_FIT/repo/fitrepo/observable_scripts/mu_H_CMS_Nature/SignalStrengths/HEPData/../mu_ttH+tH_H_ZZ_13_CMS_Nature.json",
      "arxiv": "2207.00043",
      "CDS": "http://cds.cern.ch/record/2814513",
      "reportnumber": "CMS-HIG-22-001",
      "DOI": "10.1038/s41586-022-04892-x",
      "date": "2022/07/02",
      "experiment": "CERN LHC experiment. CMS collaboration.",
      "description": "A portrait of the Higgs boson by the CMS experiment ten years after the discovery",
      "value": 0.0,
      "uncertainty": {
        "stat": [ 0.0, 0.68 ],
        "syst": [ 0.0, 0.27 ]
      },
      "uncertainty_sigma": 1,
      "th_flat": true
    },
    {
      "observable_name": "mu_ttH+tH_H_WW_13",
      "measurement_name": "mu_ttH+tH_H_WW_13_CMS_Nature",
      "datafile": "/Users/ken/Work/Projects/SMEFT_FIT/repo/fitrepo/observable_scripts/mu_H_CMS_Nature/SignalStrengths/HEPData/../mu_ttH+tH_H_WW_13_CMS_Nature.json",
      "arxiv": "2207.00043",
      "CDS": "http://cds.cern.ch/record/2814513",
      "reportnumber": "CMS-HIG-22-001",
      "DOI": "10.1038/s41586-022-04892-x",
      "date": "2022/07/02",
      "experiment": "CERN LHC experiment. CMS collaboration.",
      "description": "A portrait of the Higgs boson by the CMS experiment ten years after the discovery",
      "value": 1.44,
      "uncertainty": {
        "stat": [ -0.29, 0.29 ],
        "syst": [ -0.13, 0.14 ]
      },
      "uncertainty_sigma": 1,
      "th_flat": true
    },
    {
      "observable_name": "mu_ttH+tH_H_tata_13",
      "measurement_name": "mu_ttH+tH_H_tata_13_CMS_Nature",
      "datafile": "/Users/ken/Work/Projects/SMEFT_FIT/repo/fitrepo/observable_scripts/mu_H_CMS_Nature/SignalStrengths/HEPData/../mu_ttH+tH_H_tata_13_CMS_Nature.json",
      "arxiv": "2207.00043",
      "CDS": "http://cds.cern.ch/record/2814513",
      "reportnumber": "CMS-HIG-22-001",
      "DOI": "10.1038/s41586-022-04892-x",
      "date": "2022/07/02",
      "experiment": "CERN LHC experiment. CMS collaboration.",
      "description": "A portrait of the Higgs boson by the CMS experiment ten years after the discovery",
      "value": 0.35,
      "uncertainty": {
        "stat": [ -0.28, 0.3 ],
        "syst": [ -0.23, 0.32 ]
      },
      "uncertainty_sigma": 1,
      "th_flat": true
    },
    {
      "observable_name": "mu_ttH+tH_H_bb_13",
      "measurement_name": "mu_ttH+tH_H_bb_13_CMS_Nature",
      "datafile": "/Users/ken/Work/Projects/SMEFT_FIT/repo/fitrepo/observable_scripts/mu_H_CMS_Nature/SignalStrengths/HEPData/../mu_ttH+tH_H_bb_13_CMS_Nature.json",
      "arxiv": "2207.00043",
      "CDS": "http://cds.cern.ch/record/2814513",
      "reportnumber": "CMS-HIG-22-001",
      "DOI": "10.1038/s41586-022-04892-x",
      "date": "2022/07/02",
      "experiment": "CERN LHC experiment. CMS collaboration.",
      "description": "A portrait of the Higgs boson by the CMS experiment ten years after the discovery",
      "value": 0.9,
      "uncertainty": {
        "stat": [ -0.24, 0.24 ],
        "syst": [ -0.37, 0.4 ]
      },
      "uncertainty_sigma": 1,
      "th_flat": true
    },
    {
      "observable_name": "mu_ttH+tH_H_mumu_13",
      "measurement_name": "mu_ttH+tH_H_mumu_13_CMS_Nature",
      "datafile": "/Users/ken/Work/Projects/SMEFT_FIT/repo/fitrepo/observable_scripts/mu_H_CMS_Nature/SignalStrengths/HEPData/../mu_ttH+tH_H_mumu_13_CMS_Nature.json",
      "arxiv": "2207.00043",
      "CDS": "http://cds.cern.ch/record/2814513",
      "reportnumber": "CMS-HIG-22-001",
      "DOI": "10.1038/s41586-022-04892-x",
      "date": "2022/07/02",
      "experiment": "CERN LHC experiment. CMS collaboration.",
      "description": "A portrait of the Higgs boson by the CMS experiment ten years after the discovery",
      "value": 3.07,
      "uncertainty": {
        "stat": [ -2.2, 2.5 ],
        "syst": [ -0.19, 0.81 ]
      },
      "uncertainty_sigma": 1,
      "th_flat": true
    }
  ],
  "correlation_matrix": [
  [ 1.0, 0.169, 0.225, 0.1, -0.003, 0.01, 0.066, -0.198, 0.017, 0.018, 0.014, 0.008, -0.001, -0.036, 0.011, 0.021, 0.024, 0.001, -0.022, 0.014, 0.013, 0.024, 0.001, 0.005, 0.029, -0.001, 0.007, 0.002, -0.001, 0.004 ],
 [ 0.169, 1.0, 0.128, 0.055, 0.0, 0.005, 0.034, 0.017, -0.254, 0.007, 0.015, 0.004, -0.002, 0.007, -0.035, 0.01, 0.007, -0.001, 0.006, -0.239, 0.006, 0.01, -0.002, 0.003, 0.008, 0.081, -0.016, 0.004, -0.002, 0.002 ],
 [ 0.225, 0.128, 1.0, 0.099, -0.002, 0.013, 0.081, 0.014, -0.004, -0.109, 0.013, 0.009, -0.004, 0.009, 0.006, -0.035, 0.025, 0.002, 0.006, 0.001, 0.017, 0.046, 0.005, 0.005, 0.014, 0.004, 0.004, 0.002, -0.001, 0.005 ],
 [ 0.1, 0.055, 0.099, 1.0, -0.001, 0.005, 0.032, 0.038, 0.014, -0.001, -0.312, 0.0, -0.002, 0.01, 0.005, 0.017, -0.161, 0.0, 0.01, 0.007, 0.012, -0.089, -0.001, 0.001, 0.007, -0.004, 0.005, -0.013, -0.0, 0.001 ],
 [ -0.003, 0.0, -0.002, -0.001, 1.0, -0.0, -0.001, -0.001, -0.001, -0.0, -0.002, -0.001, 0.0, -0.001, -0.001, -0.001, -0.001, -0.018, -0.001, -0.005, -0.002, -0.001, -0.007, -0.001, -0.002, 0.001, -0.002, -0.0, -0.004, -0.0 ],
 [ 0.01, 0.005, 0.013, 0.005, -0.0, 1.0, -0.007, 0.001, 0.0, 0.001, 0.0, -0.233, -0.001, 0.001, -0.0, 0.001, 0.001, 0.001, 0.001, 0.001, 0.001, 0.001, 0.0, -0.122, 0.001, -0.0, -0.0, 0.0, 0.0, 0.006 ],
 [ 0.066, 0.034, 0.081, 0.032, -0.001, -0.007, 1.0, 0.006, 0.001, 0.003, 0.002, 0.004, -0.405, 0.003, 0.002, 0.005, 0.005, 0.0, 0.003, 0.002, 0.004, 0.005, 0.001, 0.001, 0.005, 0.0, 0.002, 0.001, -0.0, 0.001 ],
 [ -0.198, 0.017, 0.014, 0.038, -0.001, 0.001, 0.006, 1.0, 0.026, 0.013, 0.019, 0.002, -0.013, 0.026, 0.009, 0.01, 0.019, 0.0, 0.007, 0.013, 0.005, 0.017, 0.0, 0.002, -0.001, -0.005, 0.004, 0.003, -0.0, 0.001 ],
 [ 0.017, -0.254, -0.004, 0.014, -0.001, 0.0, 0.001, 0.026, 1.0, 0.007, 0.017, 0.0, 0.001, 0.006, -0.065, 0.006, 0.007, -0.002, 0.007, 0.117, 0.002, 0.005, -0.001, -0.001, 0.003, -0.112, 0.02, -0.003, 0.001, 0.001 ],
 [ 0.018, 0.007, -0.109, -0.001, -0.0, 0.001, 0.003, 0.013, 0.007, 1.0, -0.028, 0.004, -0.004, 0.005, -0.001, -0.002, 0.006, 0.004, 0.004, 0.004, -0.0, 0.004, 0.001, 0.004, 0.005, -0.001, -0.001, -0.002, -0.0, 0.001 ],
 [ 0.014, 0.015, 0.013, -0.312, -0.002, 0.0, 0.002, 0.019, 0.017, -0.028, 1.0, 0.011, -0.006, 0.008, -0.001, 0.015, 0.033, 0.007, 0.008, 0.006, 0.007, 0.029, 0.002, 0.007, 0.009, -0.002, 0.002, 0.008, -0.001, 0.002 ],
 [ 0.008, 0.004, 0.009, 0.0, -0.001, -0.233, 0.004, 0.002, 0.0, 0.004, 0.011, 1.0, -0.007, 0.003, -0.0, 0.005, 0.004, 0.001, 0.002, 0.001, 0.003, 0.006, 0.001, 0.022, 0.004, 0.0, 0.003, 0.002, 0.0, 0.001 ],
 [ -0.001, -0.002, -0.004, -0.002, 0.0, -0.001, -0.405, -0.013, 0.001, -0.004, -0.006, -0.007, 1.0, -0.003, 0.002, -0.004, -0.002, -0.002, -0.001, -0.001, -0.003, -0.002, -0.001, -0.001, -0.0, 0.0, -0.001, -0.0, 0.0, -0.001 ],
 [ -0.036, 0.007, 0.009, 0.01, -0.001, 0.001, 0.003, 0.026, 0.006, 0.005, 0.008, 0.003, -0.003, 1.0, 0.003, 0.005, 0.009, 0.0, -0.248, 0.004, 0.004, 0.009, 0.001, 0.001, -0.044, -0.001, 0.002, -0.001, -0.002, -0.0 ],
 [ 0.011, -0.035, 0.006, 0.005, -0.001, -0.0, 0.002, 0.009, -0.065, -0.001, -0.001, -0.0, 0.002, 0.003, 1.0, -0.031, 0.005, -0.004, 0.002, -0.63, -0.008, 0.008, -0.001, -0.002, 0.001, 0.22, -0.042, 0.009, -0.004, -0.004 ],
 [ 0.021, 0.01, -0.035, 0.017, -0.001, 0.001, 0.005, 0.01, 0.006, -0.002, 0.015, 0.005, -0.004, 0.005, -0.031, 1.0, -0.076, 0.005, 0.003, 0.028, -0.036, 0.014, 0.002, 0.004, 0.006, -0.007, 0.023, -0.0, -0.0, 0.003 ],
 [ 0.024, 0.007, 0.025, -0.161, -0.001, 0.001, 0.005, 0.019, 0.007, 0.006, 0.033, 0.004, -0.002, 0.009, 0.005, -0.076, 1.0, 0.002, 0.007, 0.007, -0.008, -0.017, 0.001, 0.002, 0.007, -0.002, 0.01, -0.002, 0.0, 0.001 ],
 [ 0.001, -0.001, 0.002, 0.0, -0.018, 0.001, 0.0, 0.0, -0.002, 0.004, 0.007, 0.001, -0.002, 0.0, -0.004, 0.005, 0.002, 1.0, 0.0, -0.001, 0.002, 0.002, -0.036, 0.002, 0.0, -0.0, -0.002, -0.0, 0.002, 0.0 ],
 [ -0.022, 0.006, 0.006, 0.01, -0.001, 0.001, 0.003, 0.007, 0.007, 0.004, 0.008, 0.002, -0.001, -0.248, 0.002, 0.003, 0.007, 0.0, 1.0, 0.004, 0.004, 0.026, 0.003, 0.001, -0.036, -0.002, 0.002, 0.0, -0.001, 0.0 ],
 [ 0.014, -0.239, 0.001, 0.007, -0.005, 0.001, 0.002, 0.013, 0.117, 0.004, 0.006, 0.001, -0.001, 0.004, -0.63, 0.028, 0.007, -0.001, 0.004, 1.0, 0.005, -0.001, -0.001, 0.0, 0.004, -0.363, 0.085, -0.015, 0.006, 0.005 ],
 [ 0.013, 0.006, 0.017, 0.012, -0.002, 0.001, 0.004, 0.005, 0.002, -0.0, 0.007, 0.003, -0.003, 0.004, -0.008, -0.036, -0.008, 0.002, 0.004, 0.005, 1.0, -0.067, 0.011, 0.003, 0.005, -0.002, 0.005, 0.007, -0.0, 0.003 ],
 [ 0.024, 0.01, 0.046, -0.089, -0.001, 0.001, 0.005, 0.017, 0.005, 0.004, 0.029, 0.006, -0.002, 0.009, 0.008, 0.014, -0.017, 0.002, 0.026, -0.001, -0.067, 1.0, 0.023, 0.004, 0.009, 0.001, 0.002, -0.004, 0.0, 0.002 ],
 [ 0.001, -0.002, 0.005, -0.001, -0.007, 0.0, 0.001, 0.0, -0.001, 0.001, 0.002, 0.001, -0.001, 0.001, -0.001, 0.002, 0.001, -0.036, 0.003, -0.001, 0.011, 0.023, 1.0, 0.001, 0.001, 0.0, -0.002, -0.0, 0.001, 0.0 ],
 [ 0.005, 0.003, 0.005, 0.001, -0.001, -0.122, 0.001, 0.002, -0.001, 0.004, 0.007, 0.022, -0.001, 0.001, -0.002, 0.004, 0.002, 0.002, 0.001, 0.0, 0.003, 0.004, 0.001, 1.0, 0.001, 0.0, 0.005, -0.0, -0.001, -0.075 ],
 [ 0.029, 0.008, 0.014, 0.007, -0.002, 0.001, 0.005, -0.001, 0.003, 0.005, 0.009, 0.004, -0.0, -0.044, 0.001, 0.006, 0.007, 0.0, -0.036, 0.004, 0.005, 0.009, 0.001, 0.001, 1.0, -0.003, 0.007, 0.067, 0.084, 0.058 ],
 [ -0.001, 0.081, 0.004, -0.004, 0.001, -0.0, 0.0, -0.005, -0.112, -0.001, -0.002, 0.0, 0.0, -0.001, 0.22, -0.007, -0.002, -0.0, -0.002, -0.363, -0.002, 0.001, 0.0, 0.0, -0.003, 1.0, -0.155, 0.023, -0.014, -0.004 ],
 [ 0.007, -0.016, 0.004, 0.005, -0.002, -0.0, 0.002, 0.004, 0.02, -0.001, 0.002, 0.003, -0.001, 0.002, -0.042, 0.023, 0.01, -0.002, 0.002, 0.085, 0.005, 0.002, -0.002, 0.005, 0.007, -0.155, 1.0, -0.22, -0.002, -0.051 ],
 [ 0.002, 0.004, 0.002, -0.013, -0.0, 0.0, 0.001, 0.003, -0.003, -0.002, 0.008, 0.002, -0.0, -0.001, 0.009, -0.0, -0.002, -0.0, 0.0, -0.015, 0.007, -0.004, -0.0, -0.0, 0.067, 0.023, -0.22, 1.0, 0.03, 0.029 ],
 [ -0.001, -0.002, -0.001, -0.0, -0.004, 0.0, -0.0, -0.0, 0.001, -0.0, -0.001, 0.0, 0.0, -0.002, -0.004, -0.0, 0.0, 0.002, -0.001, 0.006, -0.0, 0.0, 0.001, -0.001, 0.084, -0.014, -0.002, 0.03, 1.0, 0.029 ],
 [ 0.004, 0.002, 0.005, 0.001, -0.0, 0.006, 0.001, 0.001, 0.001, 0.001, 0.002, 0.001, -0.001, -0.0, -0.004, 0.003, 0.001, 0.0, 0.0, 0.005, 0.003, 0.002, 0.0, -0.075, 0.058, -0.004, -0.051, 0.029, 0.029, 1.0 ]
  ]
}