{
  "observable_name": "mu_ttH+tH_H_WW_13",
  "measurement_name": "mu_ttH+tH_H_WW_13_CMS_Nature",
  "arxiv": "2207.00043",
  "CDS": "http://cds.cern.ch/record/2814513",
  "reportnumber": "CMS-HIG-22-001",
  "DOI": "10.1038/s41586-022-04892-x",
  "date": "2022/07/02",
  "experiment": "CERN LHC experiment. CMS collaboration.",
  "description": "A portrait of the Higgs boson by the CMS experiment ten years after the discovery",
  "value": 1.44,
  "uncertainty": {
    "stat": [-0.29, 0.29],
    "syst": [-0.13, 0.14]
  },
  "uncertainty_sigma": 1,
  "th_flat": true
}