{
  "observable_group_name": "ttbar_whelicity", 
  "datafile": "", 
  "description": "Latest top data, ttbar_whelicity", 
  "observables": [
    {
      "observable_name": "w_helicity_F0FLFR", 
      "measurement_name": "ttbar_whel_8TeV_comb", 
      "datafile": "ttbar/w_helicity_fractions/ttbar_whel_8TeV_comb.json", 
      "arxiv": "2005.03799", 
      "CDS": "http://cds.cern.ch/record/2717564", 
      "reportnumber": "CMS-TOP-19-004", 
      "DOI": "", 
      "date": "2020/05/08", 
      "experiment": "CERN LHC Run 2, CMS", 
      "description": "Combination of the W boson polarization measurements in top quark decays using ATLAS and CMS data at $\\sqrt{s} = $ 8 TeV. Leptonic analyser F0,FL & correlation values from Table 7.", 
      "value": [ 0.693, 0.315, -0.008 ],
 
      "uncertainty": {
        "syst": [ 0.011, 0.009, 0.006 ],
 
        "stat": [ 0.009, 0.006, 0.005 ]
      }, 
      "uncertainty_sigma": 1, 
      "th_flat": true, 
      "correlation_matrix": [
  [ 1.0, -0.85, -0.66 ],
 [ -0.85, 1.0, 0.17 ],
 [ -0.66, 0.17, 1.0 ]
      ]
    }
  ], 
  "correlation_matrix": [
  [ 1.0 ]
  ]
}