{
  "observable_name": "mu_dsig_dpt_ttbar_ljets_13TeV_ATLAS", 
  "measurement_name": "mu_dsig_dpt_ttbar_ljets_13TeV_ATLAS", 
  "arxiv": "1908.07305", 
  "CDS": "http://cds.cern.ch/record/2687052", 
  "reportnumber": "CERN-EP-2019-149", 
  "DOI": "10.1140/epjc/s10052-019-7525-6", 
  "date": "2019/08/20", 
  "experiment": "CERN LHC Run 2, ATLAS", 
  "description": "Measurements of top-quark pair differential and double-differential cross-sections in the l+jets channel with p p collisions at $\\sqrt{s}=13$ TeV using the ATLAS detector. Absolute differential cross section in top pT & covariance matrix obtained from hepdata record:https://www.hepdata.net/record/95758. Data & errors obtained from HepData (Table 611), corresponding to auxillary fig 28a of https://atlas.web.cern.ch/Atlas/GROUPS/PHYSICS/PAPERS/TOPQ-2018-15/. Correlation matrix computed from covariance matrix from HepData (Table 612). Result is normalised by PWG+PY8 prediction provided in Hepdata record, (no th. error included, it is subdominant to the syst. err.). bin edges: [  0.,  50., 100., 160., 225., 300., 360., 475., 1000.]", 
  "value": [1.018, 1.004, 0.977, 0.946, 0.949, 0.906, 1.0   , 1.079], 
  "uncertainty": {
    "stat": [0.004, 0.002, 0.002, 0.003, 0.005, 0.009, 0.02 , 0.081],
    "syst": [[0.188, 0.188], [0.145, 0.144], [0.099, 0.098], [0.09 , 0.088], [0.085, 0.084], [0.091, 0.09 ], [0.111, 0.1  ], [0.174, 0.312]]
  }, 
  "uncertainty_sigma": 1, 
  "th_flat": true,
  "correlation_matrix":[
    [1.000, 0.961, 0.728, 0.699, 0.731, 0.716, 0.577, 0.44 ],
    [0.989, 1.000, 0.847, 0.787, 0.79 , 0.726, 0.584, 0.455],
    [0.791, 0.894, 1.000, 0.919, 0.854, 0.659, 0.63 , 0.443],
    [0.81 , 0.888, 0.981, 1.000, 0.966, 0.742, 0.798, 0.583],
    [0.842, 0.886, 0.906, 0.96 , 1.000, 0.809, 0.876, 0.651],
    [0.906, 0.892, 0.767, 0.809, 0.888, 1.000, 0.819, 0.658],
    [0.598, 0.588, 0.601, 0.713, 0.788, 0.672, 1.000, 0.551],
    [0.392, 0.394, 0.363, 0.448, 0.503, 0.463, 0.473, 1.000]
  ]
}

