{
  "observable_group_name": "ATLAS_Run2_SignalStrengths_Nature",
  "datafile": "",
  "description": "ATLAS Run 2 Higgs legacy signal strength measurements, Nature paper.",
  "observables": [
    {
      "observable_name": "mu_ggF_H_aa_13",
      "measurement_name": "mu_ggF_H_aa_13_ATLAS_Nature",
      "datafile": "/Users/ken/Work/Projects/SMEFT_FIT/repo/fitrepo/observable_scripts/mu_H_ATLAS_Nature/SignalStrengths/HEPData/../mu_ggF_H_aa_13_ATLAS_Nature.json",
      "arxiv": "2207.00092",
      "CDS": "http://cds.cern.ch/record/2814946",
      "reportnumber": "CERN-EP-2022-057",
      "DOI": "10.1038/s41586-022-04893-w",
      "date": "2022/07/06",
      "experiment": "CERN LHC experiment. ATLAS collaboration.",
      "description": "A detailed map of Higgs boson interactions by the ATLAS experiment ten years after the discovery",
      "value": 1.0377,
      "uncertainty": {
        "stat": [ 0.0824, 0.0826 ],
        "syst": [ -0.0552, 0.0616 ]
      },
      "uncertainty_sigma": 1,
      "th_flat": true
    },
    {
      "observable_name": "mu_VBF_H_aa_13",
      "measurement_name": "mu_VBF_H_aa_13_ATLAS_Nature",
      "datafile": "/Users/ken/Work/Projects/SMEFT_FIT/repo/fitrepo/observable_scripts/mu_H_ATLAS_Nature/SignalStrengths/HEPData/../mu_VBF_H_aa_13_ATLAS_Nature.json",
      "arxiv": "2207.00092",
      "CDS": "http://cds.cern.ch/record/2814946",
      "reportnumber": "CERN-EP-2022-057",
      "DOI": "10.1038/s41586-022-04893-w",
      "date": "2022/07/06",
      "experiment": "CERN LHC experiment. ATLAS collaboration.",
      "description": "A detailed map of Higgs boson interactions by the ATLAS experiment ten years after the discovery",
      "value": 1.3576,
      "uncertainty": {
        "stat": [ 0.1974, 0.2061 ],
        "syst": [ -0.1766, 0.2137 ]
      },
      "uncertainty_sigma": 1,
      "th_flat": true
    },
    {
      "observable_name": "mu_WH_H_aa_13",
      "measurement_name": "mu_WH_H_aa_13_ATLAS_Nature",
      "datafile": "/Users/ken/Work/Projects/SMEFT_FIT/repo/fitrepo/observable_scripts/mu_H_ATLAS_Nature/SignalStrengths/HEPData/../mu_WH_H_aa_13_ATLAS_Nature.json",
      "arxiv": "2207.00092",
      "CDS": "http://cds.cern.ch/record/2814946",
      "reportnumber": "CERN-EP-2022-057",
      "DOI": "10.1038/s41586-022-04893-w",
      "date": "2022/07/06",
      "experiment": "CERN LHC experiment. ATLAS collaboration.",
      "description": "A detailed map of Higgs boson interactions by the ATLAS experiment ten years after the discovery",
      "value": 1.528,
      "uncertainty": {
        "stat": [ 0.5002, 0.5467 ],
        "syst": [ -0.085, 0.1232 ]
      },
      "uncertainty_sigma": 1,
      "th_flat": true
    },
    {
      "observable_name": "mu_ZH_H_aa_13",
      "measurement_name": "mu_ZH_H_aa_13_ATLAS_Nature",
      "datafile": "/Users/ken/Work/Projects/SMEFT_FIT/repo/fitrepo/observable_scripts/mu_H_ATLAS_Nature/SignalStrengths/HEPData/../mu_ZH_H_aa_13_ATLAS_Nature.json",
      "arxiv": "2207.00092",
      "CDS": "http://cds.cern.ch/record/2814946",
      "reportnumber": "CERN-EP-2022-057",
      "DOI": "10.1038/s41586-022-04893-w",
      "date": "2022/07/06",
      "experiment": "CERN LHC experiment. ATLAS collaboration.",
      "description": "A detailed map of Higgs boson interactions by the ATLAS experiment ten years after the discovery",
      "value": -0.2212,
      "uncertainty": {
        "stat": [ 0.5203, 0.5937 ],
        "syst": [ -0.1465, 0.1195 ]
      },
      "uncertainty_sigma": 1,
      "th_flat": true
    },
    {
      "observable_name": "mu_ttH_H_aa_13",
      "measurement_name": "mu_ttH_H_aa_13_ATLAS_Nature",
      "datafile": "/Users/ken/Work/Projects/SMEFT_FIT/repo/fitrepo/observable_scripts/mu_H_ATLAS_Nature/SignalStrengths/HEPData/../mu_ttH_H_aa_13_ATLAS_Nature.json",
      "arxiv": "2207.00092",
      "CDS": "http://cds.cern.ch/record/2814946",
      "reportnumber": "CERN-EP-2022-057",
      "DOI": "10.1038/s41586-022-04893-w",
      "date": "2022/07/06",
      "experiment": "CERN LHC experiment. ATLAS collaboration.",
      "description": "A detailed map of Higgs boson interactions by the ATLAS experiment ten years after the discovery",
      "value": 0.901,
      "uncertainty": {
        "stat": [ 0.3045, 0.3186 ],
        "syst": [ -0.0501, 0.076 ]
      },
      "uncertainty_sigma": 1,
      "th_flat": true
    },
    {
      "observable_name": "mu_tH_H_aa_13",
      "measurement_name": "mu_tH_H_aa_13_ATLAS_Nature",
      "datafile": "/Users/ken/Work/Projects/SMEFT_FIT/repo/fitrepo/observable_scripts/mu_H_ATLAS_Nature/SignalStrengths/HEPData/../mu_tH_H_aa_13_ATLAS_Nature.json",
      "arxiv": "2207.00092",
      "CDS": "http://cds.cern.ch/record/2814946",
      "reportnumber": "CERN-EP-2022-057",
      "DOI": "10.1038/s41586-022-04893-w",
      "date": "2022/07/06",
      "experiment": "CERN LHC experiment. ATLAS collaboration.",
      "description": "A detailed map of Higgs boson interactions by the ATLAS experiment ten years after the discovery",
      "value": 2.6099,
      "uncertainty": {
        "stat": [ 3.2584, 4.0069 ],
        "syst": [ -0.8924, 1.3429 ]
      },
      "uncertainty_sigma": 1,
      "th_flat": true
    },
    {
      "observable_name": "mu_ggF_H_ZZ_13",
      "measurement_name": "mu_ggF_H_ZZ_13_ATLAS_Nature",
      "datafile": "/Users/ken/Work/Projects/SMEFT_FIT/repo/fitrepo/observable_scripts/mu_H_ATLAS_Nature/SignalStrengths/HEPData/../mu_ggF_H_ZZ_13_ATLAS_Nature.json",
      "arxiv": "2207.00092",
      "CDS": "http://cds.cern.ch/record/2814946",
      "reportnumber": "CERN-EP-2022-057",
      "DOI": "10.1038/s41586-022-04893-w",
      "date": "2022/07/06",
      "experiment": "CERN LHC experiment. ATLAS collaboration.",
      "description": "A detailed map of Higgs boson interactions by the ATLAS experiment ten years after the discovery",
      "value": 0.9516,
      "uncertainty": {
        "stat": [ 0.0995, 0.1031 ],
        "syst": [ -0.0325, 0.038 ]
      },
      "uncertainty_sigma": 1,
      "th_flat": true
    },
    {
      "observable_name": "mu_VBF_H_ZZ_13",
      "measurement_name": "mu_VBF_H_ZZ_13_ATLAS_Nature",
      "datafile": "/Users/ken/Work/Projects/SMEFT_FIT/repo/fitrepo/observable_scripts/mu_H_ATLAS_Nature/SignalStrengths/HEPData/../mu_VBF_H_ZZ_13_ATLAS_Nature.json",
      "arxiv": "2207.00092",
      "CDS": "http://cds.cern.ch/record/2814946",
      "reportnumber": "CERN-EP-2022-057",
      "DOI": "10.1038/s41586-022-04893-w",
      "date": "2022/07/06",
      "experiment": "CERN LHC experiment. ATLAS collaboration.",
      "description": "A detailed map of Higgs boson interactions by the ATLAS experiment ten years after the discovery",
      "value": 1.3313,
      "uncertainty": {
        "stat": [ 0.4255, 0.508 ],
        "syst": [ -0.0768, 0.1084 ]
      },
      "uncertainty_sigma": 1,
      "th_flat": true
    },
    {
      "observable_name": "mu_VH_H_ZZ_13",
      "measurement_name": "mu_VH_H_ZZ_13_ATLAS_Nature",
      "datafile": "/Users/ken/Work/Projects/SMEFT_FIT/repo/fitrepo/observable_scripts/mu_H_ATLAS_Nature/SignalStrengths/HEPData/../mu_VH_H_ZZ_13_ATLAS_Nature.json",
      "arxiv": "2207.00092",
      "CDS": "http://cds.cern.ch/record/2814946",
      "reportnumber": "CERN-EP-2022-057",
      "DOI": "10.1038/s41586-022-04893-w",
      "date": "2022/07/06",
      "experiment": "CERN LHC experiment. ATLAS collaboration.",
      "description": "A detailed map of Higgs boson interactions by the ATLAS experiment ten years after the discovery",
      "value": 1.4999,
      "uncertainty": {
        "stat": [ 0.9254, 1.144 ],
        "syst": [ -0.1584, 0.2273 ]
      },
      "uncertainty_sigma": 1,
      "th_flat": true
    },
    {
      "observable_name": "mu_ttH+tH_H_ZZ_13",
      "measurement_name": "mu_ttH+tH_H_ZZ_13_ATLAS_Nature",
      "datafile": "/Users/ken/Work/Projects/SMEFT_FIT/repo/fitrepo/observable_scripts/mu_H_ATLAS_Nature/SignalStrengths/HEPData/../mu_ttH+tH_H_ZZ_13_ATLAS_Nature.json",
      "arxiv": "2207.00092",
      "CDS": "http://cds.cern.ch/record/2814946",
      "reportnumber": "CERN-EP-2022-057",
      "DOI": "10.1038/s41586-022-04893-w",
      "date": "2022/07/06",
      "experiment": "CERN LHC experiment. ATLAS collaboration.",
      "description": "A detailed map of Higgs boson interactions by the ATLAS experiment ten years after the discovery",
      "value": 1.6832,
      "uncertainty": {
        "stat": [ 1.0946, 1.6453 ],
        "syst": [ -0.1616, 0.3501 ]
      },
      "uncertainty_sigma": 1,
      "th_flat": true
    },
    {
      "observable_name": "mu_ggF_H_WW_13",
      "measurement_name": "mu_ggF_H_WW_13_ATLAS_Nature",
      "datafile": "/Users/ken/Work/Projects/SMEFT_FIT/repo/fitrepo/observable_scripts/mu_H_ATLAS_Nature/SignalStrengths/HEPData/../mu_ggF_H_WW_13_ATLAS_Nature.json",
      "arxiv": "2207.00092",
      "CDS": "http://cds.cern.ch/record/2814946",
      "reportnumber": "CERN-EP-2022-057",
      "DOI": "10.1038/s41586-022-04893-w",
      "date": "2022/07/06",
      "experiment": "CERN LHC experiment. ATLAS collaboration.",
      "description": "A detailed map of Higgs boson interactions by the ATLAS experiment ten years after the discovery",
      "value": 1.1402,
      "uncertainty": {
        "stat": [ 0.0597, 0.0599 ],
        "syst": [ -0.1108, 0.1156 ]
      },
      "uncertainty_sigma": 1,
      "th_flat": true
    },
    {
      "observable_name": "mu_VBF_H_WW_13",
      "measurement_name": "mu_VBF_H_WW_13_ATLAS_Nature",
      "datafile": "/Users/ken/Work/Projects/SMEFT_FIT/repo/fitrepo/observable_scripts/mu_H_ATLAS_Nature/SignalStrengths/HEPData/../mu_VBF_H_WW_13_ATLAS_Nature.json",
      "arxiv": "2207.00092",
      "CDS": "http://cds.cern.ch/record/2814946",
      "reportnumber": "CERN-EP-2022-057",
      "DOI": "10.1038/s41586-022-04893-w",
      "date": "2022/07/06",
      "experiment": "CERN LHC experiment. ATLAS collaboration.",
      "description": "A detailed map of Higgs boson interactions by the ATLAS experiment ten years after the discovery",
      "value": 1.1284,
      "uncertainty": {
        "stat": [ 0.1485, 0.1552 ],
        "syst": [ -0.1078, 0.1173 ]
      },
      "uncertainty_sigma": 1,
      "th_flat": true
    },
    {
      "observable_name": "mu_WH_H_WW_13",
      "measurement_name": "mu_WH_H_WW_13_ATLAS_Nature",
      "datafile": "/Users/ken/Work/Projects/SMEFT_FIT/repo/fitrepo/observable_scripts/mu_H_ATLAS_Nature/SignalStrengths/HEPData/../mu_WH_H_WW_13_ATLAS_Nature.json",
      "arxiv": "2207.00092",
      "CDS": "http://cds.cern.ch/record/2814946",
      "reportnumber": "CERN-EP-2022-057",
      "DOI": "10.1038/s41586-022-04893-w",
      "date": "2022/07/06",
      "experiment": "CERN LHC experiment. ATLAS collaboration.",
      "description": "A detailed map of Higgs boson interactions by the ATLAS experiment ten years after the discovery",
      "value": 2.2639,
      "uncertainty": {
        "stat": [ 0.9066, 1.0462 ],
        "syst": [ -0.4713, 0.6111 ]
      },
      "uncertainty_sigma": 1,
      "th_flat": true
    },
    {
      "observable_name": "mu_ZH_H_WW_13",
      "measurement_name": "mu_ZH_H_WW_13_ATLAS_Nature",
      "datafile": "/Users/ken/Work/Projects/SMEFT_FIT/repo/fitrepo/observable_scripts/mu_H_ATLAS_Nature/SignalStrengths/HEPData/../mu_ZH_H_WW_13_ATLAS_Nature.json",
      "arxiv": "2207.00092",
      "CDS": "http://cds.cern.ch/record/2814946",
      "reportnumber": "CERN-EP-2022-057",
      "DOI": "10.1038/s41586-022-04893-w",
      "date": "2022/07/06",
      "experiment": "CERN LHC experiment. ATLAS collaboration.",
      "description": "A detailed map of Higgs boson interactions by the ATLAS experiment ten years after the discovery",
      "value": 2.8611,
      "uncertainty": {
        "stat": [ 1.2712, 1.6586 ],
        "syst": [ -0.407, 0.7876 ]
      },
      "uncertainty_sigma": 1,
      "th_flat": true
    },
    {
      "observable_name": "mu_ttH+tH_H_WW_13",
      "measurement_name": "mu_ttH+tH_H_WW_13_ATLAS_Nature",
      "datafile": "/Users/ken/Work/Projects/SMEFT_FIT/repo/fitrepo/observable_scripts/mu_H_ATLAS_Nature/SignalStrengths/HEPData/../mu_ttH+tH_H_WW_13_ATLAS_Nature.json",
      "arxiv": "2207.00092",
      "CDS": "http://cds.cern.ch/record/2814946",
      "reportnumber": "CERN-EP-2022-057",
      "DOI": "10.1038/s41586-022-04893-w",
      "date": "2022/07/06",
      "experiment": "CERN LHC experiment. ATLAS collaboration.",
      "description": "A detailed map of Higgs boson interactions by the ATLAS experiment ten years after the discovery",
      "value": 1.639,
      "uncertainty": {
        "stat": [ 0.4296, 0.4426 ],
        "syst": [ -0.4381, 0.4754 ]
      },
      "uncertainty_sigma": 1,
      "th_flat": true
    },
    {
      "observable_name": "mu_ggF_H_tata_13",
      "measurement_name": "mu_ggF_H_tata_13_ATLAS_Nature",
      "datafile": "/Users/ken/Work/Projects/SMEFT_FIT/repo/fitrepo/observable_scripts/mu_H_ATLAS_Nature/SignalStrengths/HEPData/../mu_ggF_H_tata_13_ATLAS_Nature.json",
      "arxiv": "2207.00092",
      "CDS": "http://cds.cern.ch/record/2814946",
      "reportnumber": "CERN-EP-2022-057",
      "DOI": "10.1038/s41586-022-04893-w",
      "date": "2022/07/06",
      "experiment": "CERN LHC experiment. ATLAS collaboration.",
      "description": "A detailed map of Higgs boson interactions by the ATLAS experiment ten years after the discovery",
      "value": 0.8979,
      "uncertainty": {
        "stat": [ 0.1553, 0.1556 ],
        "syst": [ -0.204, 0.2459 ]
      },
      "uncertainty_sigma": 1,
      "th_flat": true
    },
    {
      "observable_name": "mu_VBF_H_tata_13",
      "measurement_name": "mu_VBF_H_tata_13_ATLAS_Nature",
      "datafile": "/Users/ken/Work/Projects/SMEFT_FIT/repo/fitrepo/observable_scripts/mu_H_ATLAS_Nature/SignalStrengths/HEPData/../mu_VBF_H_tata_13_ATLAS_Nature.json",
      "arxiv": "2207.00092",
      "CDS": "http://cds.cern.ch/record/2814946",
      "reportnumber": "CERN-EP-2022-057",
      "DOI": "10.1038/s41586-022-04893-w",
      "date": "2022/07/06",
      "experiment": "CERN LHC experiment. ATLAS collaboration.",
      "description": "A detailed map of Higgs boson interactions by the ATLAS experiment ten years after the discovery",
      "value": 0.9978,
      "uncertainty": {
        "stat": [ 0.1348, 0.1403 ],
        "syst": [ -0.1232, 0.1517 ]
      },
      "uncertainty_sigma": 1,
      "th_flat": true
    },
    {
      "observable_name": "mu_VH_H_tata_13",
      "measurement_name": "mu_VH_H_tata_13_ATLAS_Nature",
      "datafile": "/Users/ken/Work/Projects/SMEFT_FIT/repo/fitrepo/observable_scripts/mu_H_ATLAS_Nature/SignalStrengths/HEPData/../mu_VH_H_tata_13_ATLAS_Nature.json",
      "arxiv": "2207.00092",
      "CDS": "http://cds.cern.ch/record/2814946",
      "reportnumber": "CERN-EP-2022-057",
      "DOI": "10.1038/s41586-022-04893-w",
      "date": "2022/07/06",
      "experiment": "CERN LHC experiment. ATLAS collaboration.",
      "description": "A detailed map of Higgs boson interactions by the ATLAS experiment ten years after the discovery",
      "value": 1.0037,
      "uncertainty": {
        "stat": [ 0.499, 0.52 ],
        "syst": [ -0.3236, 0.3455 ]
      },
      "uncertainty_sigma": 1,
      "th_flat": true
    },
    {
      "observable_name": "mu_ttH+tH_H_tata_13",
      "measurement_name": "mu_ttH+tH_H_tata_13_ATLAS_Nature",
      "datafile": "/Users/ken/Work/Projects/SMEFT_FIT/repo/fitrepo/observable_scripts/mu_H_ATLAS_Nature/SignalStrengths/HEPData/../mu_ttH+tH_H_tata_13_ATLAS_Nature.json",
      "arxiv": "2207.00092",
      "CDS": "http://cds.cern.ch/record/2814946",
      "reportnumber": "CERN-EP-2022-057",
      "DOI": "10.1038/s41586-022-04893-w",
      "date": "2022/07/06",
      "experiment": "CERN LHC experiment. ATLAS collaboration.",
      "description": "A detailed map of Higgs boson interactions by the ATLAS experiment ten years after the discovery",
      "value": 1.3731,
      "uncertainty": {
        "stat": [ 0.6129, 0.6635 ],
        "syst": [ -0.437, 0.5461 ]
      },
      "uncertainty_sigma": 1,
      "th_flat": true
    },
    {
      "observable_name": "mu_WH_H_bb_13",
      "measurement_name": "mu_WH_H_bb_13_ATLAS_Nature",
      "datafile": "/Users/ken/Work/Projects/SMEFT_FIT/repo/fitrepo/observable_scripts/mu_H_ATLAS_Nature/SignalStrengths/HEPData/../mu_WH_H_bb_13_ATLAS_Nature.json",
      "arxiv": "2207.00092",
      "CDS": "http://cds.cern.ch/record/2814946",
      "reportnumber": "CERN-EP-2022-057",
      "DOI": "10.1038/s41586-022-04893-w",
      "date": "2022/07/06",
      "experiment": "CERN LHC experiment. ATLAS collaboration.",
      "description": "A detailed map of Higgs boson interactions by the ATLAS experiment ten years after the discovery",
      "value": 1.0585,
      "uncertainty": {
        "stat": [ 0.189, 0.1932 ],
        "syst": [ -0.1844, 0.2077 ]
      },
      "uncertainty_sigma": 1,
      "th_flat": true
    },
    {
      "observable_name": "mu_ZH_H_bb_13",
      "measurement_name": "mu_ZH_H_bb_13_ATLAS_Nature",
      "datafile": "/Users/ken/Work/Projects/SMEFT_FIT/repo/fitrepo/observable_scripts/mu_H_ATLAS_Nature/SignalStrengths/HEPData/../mu_ZH_H_bb_13_ATLAS_Nature.json",
      "arxiv": "2207.00092",
      "CDS": "http://cds.cern.ch/record/2814946",
      "reportnumber": "CERN-EP-2022-057",
      "DOI": "10.1038/s41586-022-04893-w",
      "date": "2022/07/06",
      "experiment": "CERN LHC experiment. ATLAS collaboration.",
      "description": "A detailed map of Higgs boson interactions by the ATLAS experiment ten years after the discovery",
      "value": 1.0008,
      "uncertainty": {
        "stat": [ 0.1685, 0.1718 ],
        "syst": [ -0.1501, 0.1759 ]
      },
      "uncertainty_sigma": 1,
      "th_flat": true
    },
    {
      "observable_name": "mu_ttH+tH_H_bb_13",
      "measurement_name": "mu_ttH+tH_H_bb_13_ATLAS_Nature",
      "datafile": "/Users/ken/Work/Projects/SMEFT_FIT/repo/fitrepo/observable_scripts/mu_H_ATLAS_Nature/SignalStrengths/HEPData/../mu_ttH+tH_H_bb_13_ATLAS_Nature.json",
      "arxiv": "2207.00092",
      "CDS": "http://cds.cern.ch/record/2814946",
      "reportnumber": "CERN-EP-2022-057",
      "DOI": "10.1038/s41586-022-04893-w",
      "date": "2022/07/06",
      "experiment": "CERN LHC experiment. ATLAS collaboration.",
      "description": "A detailed map of Higgs boson interactions by the ATLAS experiment ten years after the discovery",
      "value": 0.348,
      "uncertainty": {
        "stat": [ 0.1939, 0.1961 ],
        "syst": [ -0.2669, 0.2793 ]
      },
      "uncertainty_sigma": 1,
      "th_flat": true
    },
    {
      "observable_name": "mu_ggF+VBF_H_bb_13",
      "measurement_name": "mu_ggF+VBF_H_bb_13_ATLAS_Nature",
      "datafile": "/Users/ken/Work/Projects/SMEFT_FIT/repo/fitrepo/observable_scripts/mu_H_ATLAS_Nature/SignalStrengths/HEPData/../mu_ggF+VBF_H_bb_13_ATLAS_Nature.json",
      "arxiv": "2207.00092",
      "CDS": "http://cds.cern.ch/record/2814946",
      "reportnumber": "CERN-EP-2022-057",
      "DOI": "10.1038/s41586-022-04893-w",
      "date": "2022/07/06",
      "experiment": "CERN LHC experiment. ATLAS collaboration.",
      "description": "A detailed map of Higgs boson interactions by the ATLAS experiment ten years after the discovery",
      "value": 0.9803,
      "uncertainty": {
        "stat": [ 0.3198, 0.3207 ],
        "syst": [ -0.1714, 0.1955 ]
      },
      "uncertainty_sigma": 1,
      "th_flat": true
    },
    {
      "observable_name": "mu_ggF+ttH_H_mumu_13",
      "measurement_name": "mu_ggF+ttH_H_mumu_13_ATLAS_Nature",
      "datafile": "/Users/ken/Work/Projects/SMEFT_FIT/repo/fitrepo/observable_scripts/mu_H_ATLAS_Nature/SignalStrengths/HEPData/../mu_ggF+ttH_H_mumu_13_ATLAS_Nature.json",
      "arxiv": "2207.00092",
      "CDS": "http://cds.cern.ch/record/2814946",
      "reportnumber": "CERN-EP-2022-057",
      "DOI": "10.1038/s41586-022-04893-w",
      "date": "2022/07/06",
      "experiment": "CERN LHC experiment. ATLAS collaboration.",
      "description": "A detailed map of Higgs boson interactions by the ATLAS experiment ten years after the discovery",
      "value": 0.5372,
      "uncertainty": {
        "stat": [ 0.8673, 0.8698 ],
        "syst": [ -0.176, 0.1921 ]
      },
      "uncertainty_sigma": 1,
      "th_flat": true
    },
    {
      "observable_name": "mu_VBF+VH_H_mumu_13",
      "measurement_name": "mu_VBF+VH_H_mumu_13_ATLAS_Nature",
      "datafile": "/Users/ken/Work/Projects/SMEFT_FIT/repo/fitrepo/observable_scripts/mu_H_ATLAS_Nature/SignalStrengths/HEPData/../mu_VBF+VH_H_mumu_13_ATLAS_Nature.json",
      "arxiv": "2207.00092",
      "CDS": "http://cds.cern.ch/record/2814946",
      "reportnumber": "CERN-EP-2022-057",
      "DOI": "10.1038/s41586-022-04893-w",
      "date": "2022/07/06",
      "experiment": "CERN LHC experiment. ATLAS collaboration.",
      "description": "A detailed map of Higgs boson interactions by the ATLAS experiment ten years after the discovery",
      "value": 2.3139,
      "uncertainty": {
        "stat": [ 1.2375, 1.3022 ],
        "syst": [ -0.2241, 0.2706 ]
      },
      "uncertainty_sigma": 1,
      "th_flat": true
    }
  ],
  "correlation_matrix": [
  [ 1.0, -0.15, -0.04, -0.04, 0.05, 0.01, 0.06, -0.0, -0.01, 0.0, 0.1, 0.0, 0.01, 0.01, 0.01, 0.08, -0.06, -0.01, 0.0, 0.01, 0.01, 0.01, 0.01, -0.01, 0.0 ],
 [ -0.15, 1.0, 0.0, -0.01, 0.04, -0.03, -0.0, 0.06, 0.01, 0.0, -0.0, 0.16, 0.0, 0.0, 0.01, -0.04, 0.29, 0.03, 0.0, 0.0, 0.01, 0.01, 0.01, -0.01, 0.03 ],
 [ -0.04, 0.0, 1.0, -0.36, 0.03, -0.11, 0.0, 0.01, 0.01, 0.0, 0.01, 0.01, -0.0, -0.01, 0.01, 0.02, -0.0, 0.01, -0.0, 0.02, 0.02, 0.0, 0.0, 0.0, 0.0 ],
 [ -0.04, -0.01, -0.36, 1.0, 0.0, -0.04, -0.0, 0.0, 0.01, 0.0, -0.0, 0.0, -0.0, -0.01, -0.0, 0.01, -0.01, 0.01, -0.0, -0.01, -0.04, -0.0, 0.0, 0.0, -0.0 ],
 [ 0.05, 0.04, 0.03, 0.0, 1.0, -0.45, 0.01, 0.0, -0.0, 0.01, 0.01, 0.01, 0.0, 0.0, -0.01, -0.0, 0.01, 0.0, 0.02, 0.0, 0.0, 0.01, 0.0, 0.0, 0.0 ],
 [ 0.01, -0.03, -0.11, -0.04, -0.45, 1.0, -0.0, 0.0, 0.0, 0.01, -0.0, -0.0, 0.0, 0.0, -0.0, 0.0, -0.01, 0.0, 0.0, -0.0, 0.0, 0.01, 0.0, 0.0, -0.0 ],
 [ 0.06, -0.0, 0.0, -0.0, 0.01, -0.0, 1.0, -0.23, -0.26, 0.02, 0.09, 0.01, 0.0, 0.0, 0.01, 0.03, -0.0, -0.01, 0.0, 0.01, 0.01, 0.01, 0.0, -0.01, 0.0 ],
 [ -0.0, 0.06, 0.01, 0.0, 0.0, 0.0, -0.23, 1.0, -0.04, -0.0, -0.0, 0.04, 0.0, 0.0, 0.0, 0.01, 0.04, 0.01, 0.0, 0.0, 0.0, 0.0, 0.0, 0.0, 0.01 ],
 [ -0.01, 0.01, 0.01, 0.01, -0.0, 0.0, -0.26, -0.04, 1.0, -0.18, -0.02, 0.01, -0.0, -0.01, 0.02, 0.01, 0.0, 0.01, -0.0, -0.0, 0.0, -0.0, 0.0, 0.01, 0.0 ],
 [ 0.0, 0.0, 0.0, 0.0, 0.01, 0.01, 0.02, -0.0, -0.18, 1.0, 0.0, 0.0, 0.0, 0.0, -0.11, 0.0, 0.0, 0.0, 0.02, 0.0, -0.0, 0.01, 0.0, 0.0, 0.0 ],
 [ 0.1, -0.0, 0.01, -0.0, 0.01, -0.0, 0.09, -0.0, -0.02, 0.0, 1.0, -0.1, 0.01, 0.01, 0.02, 0.02, -0.0, -0.01, 0.01, 0.01, 0.01, 0.01, 0.01, -0.01, 0.01 ],
 [ 0.0, 0.16, 0.01, 0.0, 0.01, -0.0, 0.01, 0.04, 0.01, 0.0, -0.1, 1.0, 0.0, 0.0, 0.01, 0.03, 0.11, 0.02, 0.01, 0.01, 0.0, 0.01, 0.01, -0.0, 0.01 ],
 [ 0.01, 0.0, -0.0, -0.0, 0.0, 0.0, 0.0, 0.0, -0.0, 0.0, 0.01, 0.0, 1.0, -0.05, -0.01, 0.0, 0.0, -0.0, 0.0, 0.0, 0.0, 0.0, 0.0, 0.0, 0.0 ],
 [ 0.01, 0.0, -0.01, -0.01, 0.0, 0.0, 0.0, 0.0, -0.01, 0.0, 0.01, 0.0, -0.05, 1.0, 0.0, 0.01, 0.0, -0.01, 0.0, 0.01, 0.01, 0.0, 0.0, 0.0, 0.0 ],
 [ 0.01, 0.01, 0.01, -0.0, -0.01, -0.0, 0.01, 0.0, 0.02, -0.11, 0.02, 0.01, -0.01, 0.0, 1.0, 0.01, 0.0, 0.01, -0.32, 0.01, 0.01, -0.0, 0.0, 0.0, 0.0 ],
 [ 0.08, -0.04, 0.02, 0.01, -0.0, 0.0, 0.03, 0.01, 0.01, 0.0, 0.02, 0.03, 0.0, 0.01, 0.01, 1.0, -0.28, -0.33, -0.02, 0.01, -0.0, 0.0, 0.0, -0.0, -0.0 ],
 [ -0.06, 0.29, -0.0, -0.01, 0.01, -0.01, -0.0, 0.04, 0.0, 0.0, -0.0, 0.11, 0.0, 0.0, 0.0, -0.28, 1.0, 0.09, 0.01, 0.0, 0.01, 0.0, 0.01, -0.01, 0.02 ],
 [ -0.01, 0.03, 0.01, 0.01, 0.0, 0.0, -0.01, 0.01, 0.01, 0.0, -0.01, 0.02, -0.0, -0.01, 0.01, -0.33, 0.09, 1.0, -0.01, 0.0, -0.0, 0.0, 0.0, 0.01, 0.0 ],
 [ 0.0, 0.0, -0.0, -0.0, 0.02, 0.0, 0.0, 0.0, -0.0, 0.02, 0.01, 0.01, 0.0, 0.0, -0.32, -0.02, 0.01, -0.01, 1.0, 0.0, 0.0, 0.02, 0.0, 0.0, 0.0 ],
 [ 0.01, 0.0, 0.02, -0.01, 0.0, -0.0, 0.01, 0.0, -0.0, 0.0, 0.01, 0.01, 0.0, 0.01, 0.01, 0.01, 0.0, 0.0, 0.0, 1.0, 0.01, 0.01, 0.0, 0.0, 0.0 ],
 [ 0.01, 0.01, 0.02, -0.04, 0.0, 0.0, 0.01, 0.0, 0.0, -0.0, 0.01, 0.0, 0.0, 0.01, 0.01, -0.0, 0.01, -0.0, 0.0, 0.01, 1.0, 0.0, 0.0, 0.0, 0.0 ],
 [ 0.01, 0.01, 0.0, -0.0, 0.01, 0.01, 0.01, 0.0, -0.0, 0.01, 0.01, 0.01, 0.0, 0.0, -0.0, 0.0, 0.0, 0.0, 0.02, 0.01, 0.0, 1.0, 0.0, 0.0, 0.0 ],
 [ 0.01, 0.01, 0.0, 0.0, 0.0, 0.0, 0.0, 0.0, 0.0, 0.0, 0.01, 0.01, 0.0, 0.0, 0.0, 0.0, 0.01, 0.0, 0.0, 0.0, 0.0, 0.0, 1.0, 0.0, 0.0 ],
 [ -0.01, -0.01, 0.0, 0.0, 0.0, 0.0, -0.01, 0.0, 0.01, 0.0, -0.01, -0.0, 0.0, 0.0, 0.0, -0.0, -0.01, 0.01, 0.0, 0.0, 0.0, 0.0, 0.0, 1.0, -0.29 ],
 [ 0.0, 0.03, 0.0, -0.0, 0.0, -0.0, 0.0, 0.01, 0.0, 0.0, 0.01, 0.01, 0.0, 0.0, 0.0, -0.0, 0.02, 0.0, 0.0, 0.0, 0.0, 0.0, 0.0, -0.29, 1.0 ]
  ]
}