{
  "mu_AC_mtt_ttbar_ljets_8TeV_comb": {
    "constant": [ 1.0, 1.0, 1.0, 1.0, 1.0, 1.0 ],
 
    "doc": "linear SMEFT predictions for differential ttbar charge asymmetry, AC, measured by ATLAS at 13 TeV (ATLAS-CONF-2019-026). Bin edges [0., 500., 750., 1000., 1500., inf].", 
    "params": [ "CQq18", "CQq38", "CQu8", "CQd8", "Ctq8", "Ctu8", "Ctd8" ],
 
    "linear": [
      [ 0.21, 0.08,  -0.153, -0.073, -0.22, 0.152, 0.067 ],
      [ 0.28, 0.108, -0.209, -0.093, -0.29, 0.216, 0.089 ],
      [ 0.4,  0.14,  -0.289, -0.131, -0.42, 0.271, 0.116 ],
      [ 0.62, 0.22,  -0.41,  -0.176, -0.58, 0.43,  0.189 ],
      [ 0.91, 0.36,  -0.6,   -0.28,  -0.88, 0.66,  0.29 ],
      [ 1.9,  0.84,  -1.35,  -0.59,  -2.0,  1.29,  0.53 ]
    ], 
    "lambda_gen": 1000.0
  }
}