{
  "mu_AC_mtt_ttbar_ljets_13TeV_ATLAS":{
  "constant": [ 1.0, 1.0, 1.0, 1.0, 1.0 ],
 
  "doc": "linear SMEFT predictions for differential ttbar charge asymmetry, AC, measured by ATLAS at 13 TeV (ATLAS-CONF-2019-026). Bin edges [0., 500., 750., 1000., 1500., inf].", 
  "params": [ "CQq18", "CQq38", "CQu8", "CQd8", "Ctq8", "Ctu8", "Ctd8" ],
 
  "linear": [
    [ 0.267, 0.094, -0.188, -0.076, -0.253, 0.182, 0.077 ],
    [ 0.55,  0.21,  -0.368, -0.157, -0.53,  0.372, 0.164 ],
    [ 1.11,  0.42,  -0.81,  -0.35,  -1.21,  0.75,  0.33  ],
    [ 1.9,   0.73,  -1.4,   -0.62,  -2.0,   1.37,  0.64  ],
    [ 5.0,   2.3,   -4.0,   -1.6,   -5.5,   3.9,   1.6   ]
  ],
  "lambda_gen":1000.0
}
}