{
  "mu_AC_mtt_ttbar_dilep_8TeV_CMS":{
  "constant": [ 1.0, 1.0, 1.0 ],
 
  "doc": "linear SMEFT predictions for differential ttbar charge asymmetry, AC, measured by CMSS at 8 TeV in the dilepton channel (CMS-TOP-15-009). Bin edges [0., 430., 530., inf].", 
  "params": [ "CQq18", "CQq38", "CQu8", "CQd8", "Ctq8", "Ctu8", "Ctd8" ],
 
  "linear": [
     [ 0.22 ,  0.08 , -0.154, -0.073, -0.23 ,  0.159,  0.071],
     [ 0.3  ,  0.116, -0.228, -0.102, -0.32 ,  0.221,  0.094],
     [ 0.7  ,  0.27 , -0.485, -0.214, -0.7  ,  0.49 ,  0.208]
  ],
  "lambda_gen":1000.0
}
}