{
  "mu_dsig_dptt_tbar_tchannel_8TeV_CMS": {
    "params": [ "CHQ3", "CtW", "CQq31" ],

    "constant": [ 1.0, 1.0, 1.0, 1.0, 1.0, 1.0 ],

    "linear": [
  [ 0.1217, 0.026, -0.1642 ],
 [ 0.1212, 0.0285, -0.2561 ],
 [ 0.122, 0.0331, -0.434 ],
 [ 0.121, 0.0373, -0.705 ],
 [ 0.1217, 0.042, -1.064 ],
 [ 0.1157, 0.043, -1.52 ]
    ],
    "quadratic": [
  [ [ 0.003675, 0.00079, -0.004995 ],
 [ 0.00079, 0.004148, -0.002005 ],
 [ -0.004995, -0.002005, 0.00909 ]
      ], [
  [ 0.003681, 0.000835, -0.007775 ],
 [ 0.000835, 0.00908, -0.003495 ],
 [ -0.007775, -0.003495, 0.02323 ]
      ], [
  [ 0.00368, 0.00098, -0.01317 ],
 [ 0.00098, 0.01842, -0.0062 ],
 [ -0.01317, -0.0062, 0.0665 ]
      ], [
  [ 0.00366, 0.00125, -0.0213 ],
 [ 0.00125, 0.03233, -0.011 ],
 [ -0.0213, -0.011, 0.17386 ]
      ], [
  [ 0.00364, 0.00135, -0.03225 ],
 [ 0.00135, 0.0506, -0.018 ],
 [ -0.03225, -0.018, 0.3978 ]
      ], [
  [ 0.00363, 0.0012, -0.04545 ],
 [ 0.0012, 0.0731, -0.02665 ],
 [ -0.04545, -0.02665, 0.794 ]
      ]
    ],
    "lambda_gen": 1000.0
  }
}