{
  "mu_dsig_dptt_tchannel_8TeV_ATLAS": {
    "params": [ "CHQ3", "CtW", "CQq31" ],

    "constant": [ 1.0, 1.0, 1.0, 1.0, 1.0 ],

    "linear": [
  [ 0.12121, 0.036, -0.1788 ],
 [ 0.1215, 0.044, -0.315 ],
 [ 0.1221, 0.057, -0.5965 ],
 [ 0.12, 0.067, -1.0347 ],
 [ 0.123, 0.087, -1.87 ]
    ],
    "quadratic": [
  [ [ 0.003676, 0.00109, -0.00542 ],
 [ 0.00109, 0.00558, -0.00297 ],
 [ -0.00542, -0.00297, 0.0115 ]
      ], [
  [ 0.003675, 0.001355, -0.009565 ],
 [ 0.001355, 0.01285, -0.00628 ],
 [ -0.009565, -0.00628, 0.0373 ]
      ], [
  [ 0.003668, 0.00176, -0.0181 ],
 [ 0.00176, 0.02644, -0.01345 ],
 [ -0.0181, -0.01345, 0.1314 ]
      ], [
  [ 0.00365, 0.0021, -0.03145 ],
 [ 0.0021, 0.0459, -0.02675 ],
 [ -0.03145, -0.02675, 0.387 ]
      ], [
  [ 0.00376, 0.00275, -0.057 ],
 [ 0.00275, 0.0817, -0.051 ],
 [ -0.057, -0.051, 1.247 ]
      ]
    ],
    "lambda_gen": 1000.0
  }
}