{
  "mu_tchannel_t_8TeV": {
    "params": [ "CHQ3", "CtW", "CQq31" ],

    "constant": 1.0,
    "linear": [ 0.1212, 0.04298, -0.3503 ],

    "quadratic": [
  [ 0.003672, 0.00132, -0.0106 ],
 [ 0.00132, 0.013893, -0.00752 ],
 [ -0.0106, -0.00752, 0.1072 ]
    ],
    "lambda_gen": 1000.0
  }
}