{
  "name": "r_ttW_8TeV",
  "doc": "SMEFT predictions for inclusive ttW production signal strength at 8 TeV.",
  "lambda_gen": 1000.0,
  "params": [ "CHD", "CHWB", "Cll", "CHl3", "CQq38", "CQq18", "Ctq8", "CtG", "CHq3" ],

  "linear": [ -0.0148, -0.0323, 0.0693, -0.1386, -0.0801, 0.2209, 0.2203, 0.2586, 0.121 ]
}