{
  "name":"r_tW_13TeV",
  "doc":"linear contributions to tW production at 13 TeV",
    "params": [ "CHQ3", "CtW",    "CtG",  "CHD" ,  "CHWB",  "CHl3",  "Cll"   ],
    "linear": [ 0.1211, -0.08564,  0.0672, -0.00748, -0.0170, -0.13137,  0.0654 ],
    "lambda_gen": 1000.0
}
