{
  "observable_name": "mu_VBF_H_ZZ_8", 
  "measurement_name": "mu_VBF_H_ZZ_Run1", 
  "arxiv": "1606.02266", 
  "CDS": "http://cds.cern.ch/record/2158863", 
  "DOI": "10.1007/JHEP08(2016)045", 
  "date": "2016/08/05", 
  "experiment": "LHC Run 1", 
  "description": "Higgs bosons signal strength for vector boson fusion production and decay to ZZ* (Table 8)", 
  "value": 0.1, 
  "uncertainty": {
    "tot": [ 1.1, 0.6 ]
  }, 
  "uncertainty_sigma": 1, 
  "th_flat": true
}