{
  "observable_name": "mu_ZH_H_WW_8", 
  "measurement_name": "mu_ZH_H_WW_Run1", 
  "arxiv": "1606.02266", 
  "CDS": "http://cds.cern.ch/record/2158863", 
  "DOI": "10.1007/JHEP08(2016)045", 
  "date": "2016/08/05", 
  "experiment": "LHC Run 1", 
  "description": "Higgs bosons signal strength for Z-associated production and decay to WW* (Table 8)", 
  "value": 5.9, 
  "uncertainty": {
    "tot": [ 2.6, 2.2 ]
  }, 
  "uncertainty_sigma": 1, 
  "th_flat": true
}