{
  "observable_group_name": "W_mass", 
  "description": "W mass measurement combination of LEP CDF & D0 from science article (April 2022).", 
  "observables": [
    {
      "observable_name": "W_mass", 
      "measurement_name": "W_mass_Tevatron_LEP", 
      "arxiv": "", 
      "CDS": "", 
      "reportnumber": "FERMILAB-PUB-22-254-PPD", 
      "DOI": "10.1126/science.abk1781", 
      "date": "2022/04/07", 
      "experiment": " CDF, D0 collaboration(s) & LEP.", 
      "description": "Combination of CDF, D0 & LEP $W$-Boson Mass Measurements", 
      "value": 80.424, 
      "uncertainty": {
        "tot": 0.0087
      }, 
      "experiment": "Tevatron"
    }, 
    {
      "observable_name": "W_mass", 
      "measurement_name": "W_mass_ATLAS",
      "arxiv": "1701.07240", 
      "CDS": "http://cds.cern.ch/record/2242923", 
      "reportnumber": "CERN-EP-2016-305", 
      "DOI": [
        "10.1140/epjc/s10052-017-5475-4", 
        "10.1140/epjc/s10052-018-6354-3"
      ], 
      "date": "2017/01/25", 
      "experiment": "CERN LHC experiment. ATLAS collaboration.", 
      "description": "Measurement of the $W$-boson mass in pp collisions at $\\sqrt{s}=7$ TeV with the ATLAS detector",
      "description": "LHC run 1 W boson mass measurement by ATLAS", 
      "value": 80.370, 
      "uncertainty": {
        "stat": 0.019,
        "syst": 0.006
      }, 
      "experiment": "LHC"
    }
  ],
  "correlation_matrix": [
    [ 1.0 , 0.0],
    [ 0.0 , 1.0]
  ]
}
