{
  "observable_group_name": "W_mass", 
  "description": "W mass measurements from Tevatron & ATLAS found in 1701.07240 (Fig. 29).", 
  "observables": [
    {
      "observable_name": "W_mass", 
      "measurement_name": "W_mass_Tevatron", 
      "arxiv": "1307.7627", 
      "CDS": "", 
      "reportnumber": "FERMILAB-PUB-13-289-E", 
      "DOI": "10.1103/PhysRevD.88.052018", 
      "date": "2013/07/29", 
      "experiment": " CDF, D0 collaboration(s).", 
      "description": "Combination of CDF and D0 $W$-Boson Mass Measurements", 
      "value": 80.387, 
      "uncertainty": {
        "stat": 0.016,
        "syst": 0.006
      }, 
      "experiment": "Tevatron", 
      "arXiv": "1701.07240"
    }, 
    {
      "observable_name": "W_mass", 
      "measurement_name": "W_mass_ATLAS",
      "arxiv": "1701.07240", 
      "CDS": "http://cds.cern.ch/record/2242923", 
      "reportnumber": "CERN-EP-2016-305", 
      "DOI": [
        "10.1140/epjc/s10052-017-5475-4", 
        "10.1140/epjc/s10052-018-6354-3"
      ], 
      "date": "2017/01/25", 
      "experiment": "CERN LHC experiment. ATLAS collaboration.", 
      "description": "Measurement of the $W$-boson mass in pp collisions at $\\sqrt{s}=7$ TeV with the ATLAS detector",
      "description": "LHC run 1 W boson mass measurement by ATLAS", 
      "value": 80.370, 
      "uncertainty": {
        "stat": 0.019,
        "syst": 0.006
      }, 
      "experiment": "LHC", 
      "arXiv": "1701.07240"
    }
  ],
  "correlation_matrix": [
    [ 1.0 , 0.0],
    [ 0.0 , 1.0]
  ]
}
