{
  "observable_name": "mu_VBF_ptjL200_H_Zll_13", 
  "measurement_name": "mu_VBF-pt-low_H_ZZ_ATLAS_Run2", 
  "CDS": "http://cds.cern.ch/record/2273854", 
  "reportnumber": "ATLAS-CONF-2017-047", 
  "DOI": "", 
  "date": "2017/07/10", 
  "experiment": "CERN LHC Run 2, ATLAS", 
  "description": "Combined measurements of Higgs boson production and decay in the $H\\rightarrow ZZ^\\rightarrow4\\ell$ and $H\\rightarrow\\gamma\\gamma$ channels using $\\sqrt{s}=$ 13 TeV pp collision data collected with the ATLAS experiment ( Tab. 9 (None) )", 
  "value": 2.139737991266376, 
  "uncertainty": {
    "tot": [ 0.9353803471111256, 0.7672534661265528 ]
  }, 
  "uncertainty_sigma": 1, 
  "th_flat": true
}