{
  "observable_name": "mu_Waa_13TeV",
  "measurement_name": "mu_Waa_13TeV_ATLAS",
  "arxiv": "2308.03014",
  "CDS": "https://cds.cern.ch/record/2853334",
  "reportnumber": ["ATLAS-CONF-2023-005","CERN-EP-2023-037"],
  "DOI": "10.1016/j.physletb.2023.138400", 
  "date": "2023/03/23",
  "experiment": "CERN LHC experiment. ATLAS collaboration.",
  "description": "Observation of $W\\gamma\\gamma$ triboson production in proton-proton collisions at $\\sqrt s 13$ TeV with the ATLAS detector",
  "value": 1.01,
  "uncertainty": {
    "stat": 0.08,
    "syst": 0.15
  }, 
  "uncertainty_sigma": 1, 
  "th_flat": true
}
