{
  "observable_name": "mu_WZZ_13TeV", 
  "measurement_name": "mu_WZZ_13TeV_CMS", 
  "arxiv": "2006.11191", 
  "CDS": "http://cds.cern.ch/record/2721420", 
  "reportnumber": "CMS-SMP-19-014", 
  "DOI": "10.1103/PhysRevLett.125.151802", 
  "date": "2020/06/19", 
  "experiment": "CERN LHC experiment. CMS collaboration.", 
  "description": "Observation of the production of three massive gauge bosons at $\\sqrt{s} = $ 13 TeV. WZZ signal strengths from BDT-based analysis (Figure 2.) from https://www.hepdata.net/record/ins1802096.", 
  "value": 1.85, 
  "uncertainty": {
      "stat": [1.53, 1.08],
      "syst": [0.501, 0.147]
  }, 
  "uncertainty_sigma": 1, 
  "th_flat": true
}