{
  "observable_name": "mu_tttt_13TeV", 
  "measurement_name": "mu_tttt_comb_13TeV_CMS", 
  "arxiv": "2303.03864", 
  "CDS": "http://cds.cern.ch/record/2851846", 
  "reportnumber": "CMS-TOP-21-005", 
  "DOI": "", 
  "date": "2023/03/07", 
  "experiment": "CERN LHC Run 2, CMS", 
  "description": "Evidence for four-top quark production in proton-proton collisions at  $\\sqrt{s}=$ 13 TeV. Measured tttt signal strength combining OSDL, single-lepton and hadronic channels from this analysis with OSDL and SSDL/ML from previous analyses, Table 1 (https://cms-results.web.cern.ch/cms-results/public-results/publications/TOP-21-005/index.html#Table_001).", 
  "value": 1.4, 
  "uncertainty": {
    "stat":  0.3,
    "syst":  0.2
  }, 
  "uncertainty_sigma": 1, 
  "th_flat": true
}