{
  "observable_name": "mu_ttbb_13TeV", 
  "measurement_name": "mu_ttbb_ljets_13TeV_CMS", 
  "arxiv": "2003.06467", 
  "CDS": "http://cds.cern.ch/record/2712929", 
  "reportnumber": "CMS-TOP-18-002", 
  "DOI": "", 
  "date": "2020/03/14", 
  "experiment": "CERN LHC Run 2, CMS", 
  "description": "Measurement of the cross section for $\\mathrm{t\\bar{t}}$ production with additional jets and b jets in pp collisions at $\\sqrt{s} = $ 13 TeV. Measured full phase space (FPS) ttbb cross section in the lepton+jets channel normalised to POWHEG+PY8 prediction, Table 4.", 
  "value": 1.205, 
  "uncertainty": {
    "stat": 0.051,
    "syst": 0.20
  }, 
  "uncertainty_sigma": 1, 
  "th_flat": true
}