{
  "observable_name": "mu_ggF_HH_13", 
  "measurement_name": "mu_ggF_HH_13_CMS_HL-LHC", 
  "arxiv": "2207.00043",
  "CDS": "http://cds.cern.ch/record/2814513",
  "reportnumber": "CMS-HIG-22-001",
  "DOI": "10.1038/s41586-022-04892-x",
  "date": "2022/07/02",
  "experiment": "CERN LHC experiment. CMS collaboration.",
  "description": "Approximated total di-Higgs signal strength, extracted from the upper limit of 3.4 times the SM. Derived assuming the SM hypothesis was observed and the upper limit corresponds to the 95% CL one-sided bound of a Gaussian PDF. To approximate HL-LHC projections, the errors are rescaled according to a factor determined by the relative improvement of the uncertainties estimated by the ATLAS experiment in ATLAS-CONF-2022-050.",
  "value": 1.0,
  "uncertainty": {
    "tot": 0.484
  },
  "uncertainty_sigma": 1,
  "th_flat": true
}