{
 "fidmu_WW_enumunu_ptl300_ATLAS13":{
  "params": [ "CW", "CHD", "CHWB", "CHl3", "CHq1", "CHq3", "CHu", "CHd", "Cll"],
  "constant": 1.0,
  "linear": [-0.092, -0.122, -0.216, -0.257,  0.391,  1.244,  0.37 , -0.116,  0.201],
  "lambda_gen":1000.0
  }
}