{
  "mu_dsig_dpTZ_norm_WZ_CMS_13TeV":{
    "params": [ "CW", "CHWB", "CHD", "Cll", "CHl3", "CHl1", "CHe", "CHq3", "CHq1", "CHu", "CHd", "CHQ1", "CHQ3"],
    "constant": [1.0, 1.0, 1.0, 1.0, 1.0, 1.0, 1.0, 1.0, 1.0, 1.0, 1.0],
    "linear": [
      [ 0.070,  0.011,  0.016, -0.002,  0.006,  0.000,  0.000, -0.354,  0.000,  0.000,  0.000,  0.000,  0.000 ],
      [ 0.059, -0.034, -0.005,  0.006, -0.016,  0.000,  0.000, -0.339,  0.000,  0.000,  0.000,  0.000,  0.000 ],
      [ 0.047, -0.067, -0.019,  0.013, -0.026,  0.000,  0.000, -0.307,  0.000,  0.000,  0.000,  0.000,  0.000 ],
      [ 0.029, -0.051, -0.018,  0.014, -0.026,  0.000,  0.000, -0.242,  0.000,  0.000,  0.000,  0.000,  0.000 ],
      [ 0.008,  0.002, -0.005, -0.002,  0.005,  0.000,  0.000, -0.121,  0.000,  0.000,  0.000,  0.000,  0.000 ],
      [-0.018,  0.047,  0.013, -0.009,  0.017,  0.000,  0.000,  0.002,  0.000,  0.000,  0.000,  0.000,  0.000 ],
      [-0.034,  0.044,  0.018, -0.016,  0.022,  0.000,  0.000,  0.140,  0.000,  0.000,  0.000,  0.000,  0.000 ],
      [-0.070,  0.083,  0.024, -0.012,  0.027,  0.000,  0.000,  0.314,  0.000,  0.000,  0.000,  0.000,  0.000 ],
      [-0.091,  0.046,  0.025, -0.014,  0.027,  0.000,  0.000,  0.524,  0.000,  0.000,  0.000,  0.000,  0.000 ],
      [-0.123,  0.101,  0.036, -0.022,  0.039,  0.000,  0.000,  0.853,  0.000,  0.000,  0.000,  0.000,  0.000 ],
      [-0.174,  0.106,  0.017, -0.007,  0.035,  0.000,  0.000,  1.743,  0.000,  0.000,  0.000,  0.000,  0.000 ]
    ],
    "lambda_gen":1000.0
  }
}
